(export (version D)
  (design
    (source C:\Users\natha\Documents\git\TASPup\multi-tas\mutli-tas.sch)
    (date "4/22/2018 15:11:43")
    (tool "Eeschema (5.0.0-rc2-dev-96-g5bbb4489b)")
    (sheet (number 1) (name /) (tstamps /)
      (title_block
        (title "TASPup Cross-Compatibility Board")
        (company MediaMagnet)
        (rev "Rev 1")
        (date 2017-06-28)
        (source mutli-tas.sch)
        (comment (number 1) (value ""))
        (comment (number 2) (value ""))
        (comment (number 3) (value "NES Controller, TASPup and TAS-Link/PSOC connections"))
        (comment (number 4) (value "Cross compatible board allows link of:")))))
  (components
    (comp (ref O2)
      (value RJ45)
      (footprint Con_RJ:RJ45_8_S)
      (libsource (lib conn) (part RJ45))
      (sheetpath (names /) (tstamps /))
      (tstamp 59527BAF))
    (comp (ref O1)
      (value RJ45)
      (footprint Con_RJ:RJ45_8_S)
      (libsource (lib conn) (part RJ45))
      (sheetpath (names /) (tstamps /))
      (tstamp 59527F3A))
    (comp (ref P21)
      (value NES_CTRL)
      (footprint NES_CTRL:nes_ctrl)
      (libsource (lib nes_ctrl) (part NES_CTRL))
      (sheetpath (names /) (tstamps /))
      (tstamp 59527FFE))
    (comp (ref P13)
      (value RJ45)
      (footprint Con_RJ:RJ45_8_S)
      (libsource (lib conn) (part RJ45))
      (sheetpath (names /) (tstamps /))
      (tstamp 5952928C))
    (comp (ref P23)
      (value RJ45)
      (footprint Con_RJ:RJ45_8_S)
      (libsource (lib conn) (part RJ45))
      (sheetpath (names /) (tstamps /))
      (tstamp 59529293))
    (comp (ref P11)
      (value NES_CTRL)
      (footprint NES_CTRL:nes_ctrl)
      (libsource (lib nes_ctrl) (part NES_CTRL))
      (sheetpath (names /) (tstamps /))
      (tstamp 595280C8))
    (comp (ref P1)
      (value RJ45)
      (footprint Con_RJ:RJ45_8_S)
      (libsource (lib conn) (part RJ45))
      (sheetpath (names /) (tstamps /))
      (tstamp 5AA0302B))
    (comp (ref P2)
      (value RJ45)
      (footprint Con_RJ:RJ45_8_S)
      (libsource (lib conn) (part RJ45))
      (sheetpath (names /) (tstamps /))
      (tstamp 5AA03105))
    (comp (ref SW1)
      (value SW_rotary1x4)
      (footprint NES_CTRL:SW_rotary1x4)
      (libsource (lib nes_ctrl) (part SW_rotary1x4))
      (sheetpath (names /) (tstamps /))
      (tstamp 5AA03423))
    (comp (ref P22)
      (value SNES_CTRL)
      (footprint NES_CTRL:SNES_CTRL)
      (libsource (lib nes_ctrl) (part SNES_CTRL))
      (sheetpath (names /) (tstamps /))
      (tstamp 5AA03B6D))
    (comp (ref P12)
      (value SNES_CTRL)
      (footprint NES_CTRL:SNES_CTRL)
      (libsource (lib nes_ctrl) (part SNES_CTRL))
      (sheetpath (names /) (tstamps /))
      (tstamp 5AA03CDE))
    (comp (ref D1)
      (value LED_Small)
      (footprint LED_THT:LED_D3.0mm)
      (libsource (lib mutli-tas-rescue) (part LED_Small-Device))
      (sheetpath (names /) (tstamps /))
      (tstamp 5AA9B610))
    (comp (ref D2)
      (value LED_Small)
      (footprint LED_THT:LED_D3.0mm)
      (libsource (lib mutli-tas-rescue) (part LED_Small-Device))
      (sheetpath (names /) (tstamps /))
      (tstamp 5AA9B78A))
    (comp (ref D3)
      (value LED_Small)
      (footprint LED_THT:LED_D3.0mm)
      (libsource (lib mutli-tas-rescue) (part LED_Small-Device))
      (sheetpath (names /) (tstamps /))
      (tstamp 5AA9B7D9))
    (comp (ref D4)
      (value LED_Small)
      (footprint LED_THT:LED_D3.0mm)
      (libsource (lib mutli-tas-rescue) (part LED_Small-Device))
      (sheetpath (names /) (tstamps /))
      (tstamp 5AA9B807)))
  (libparts
    (libpart (lib mutli-tas-rescue) (part LED_Small-Device)
      (footprints
        (fp LED*)
        (fp LED_SMD:*)
        (fp LED_THT:*))
      (fields
        (field (name Reference) D)
        (field (name Value) LED_Small-Device))
      (pins
        (pin (num 1) (name K) (type passive))
        (pin (num 2) (name A) (type passive))))
    (libpart (lib nes_ctrl) (part NES_CTRL)
      (fields
        (field (name Reference) U)
        (field (name Value) NES_CTRL)
        (field (name Footprint) NES_CTRL:nes_ctrl))
      (pins
        (pin (num 1) (name GN) (type output))
        (pin (num 2) (name CL) (type BiDi))
        (pin (num 3) (name LA) (type BiDi))
        (pin (num 4) (name D0) (type BiDi))
        (pin (num 5) (name 5V) (type power_in))
        (pin (num 6) (name D3) (type BiDi))
        (pin (num 7) (name D4) (type BiDi))))
    (libpart (lib conn) (part RJ45)
      (description "RJ45 connector with shield")
      (fields
        (field (name Reference) J)
        (field (name Value) RJ45))
      (pins
        (pin (num 1) (name ~) (type passive))
        (pin (num 2) (name ~) (type passive))
        (pin (num 3) (name ~) (type passive))
        (pin (num 4) (name ~) (type passive))
        (pin (num 5) (name ~) (type passive))
        (pin (num 6) (name ~) (type passive))
        (pin (num 7) (name ~) (type passive))
        (pin (num 8) (name ~) (type passive))
        (pin (num 9) (name SHIELD) (type passive))))
    (libpart (lib nes_ctrl) (part SNES_CTRL)
      (fields
        (field (name Reference) SNES)
        (field (name Value) SNES_CTRL)
        (field (name Footprint) NES_CTRL:SNES_CTRL))
      (pins
        (pin (num 1) (name GN) (type output))
        (pin (num 2) (name IO) (type BiDi))
        (pin (num 3) (name D1) (type BiDi))
        (pin (num 4) (name D0) (type BiDi))
        (pin (num 5) (name LC) (type BiDi))
        (pin (num 6) (name CK) (type input))
        (pin (num 7) (name 5V) (type input))))
    (libpart (lib nes_ctrl) (part SW_rotary1x4)
      (fields
        (field (name Reference) SW)
        (field (name Value) SW_rotary1x4)
        (field (name Footprint) NES_CTRL:SW_rotary1x4))
      (pins
        (pin (num 1) (name 1) (type passive))
        (pin (num 2) (name 2) (type passive))
        (pin (num 3) (name 3) (type passive))
        (pin (num 4) (name 4) (type passive))
        (pin (num 5) (name 5) (type passive)))))
  (libraries
    (library (logical conn)
      (uri "C:\\Program Files\\KiCad\\share\\kicad\\library/conn.lib"))
    (library (logical mutli-tas-rescue)
      (uri C:\Users\natha\Documents\git\TASPup\multi-tas/mutli-tas-rescue.lib))
    (library (logical nes_ctrl)
      (uri C:/Users/natha/Documents/git/TASPup/PARTS/nes_ctrl.lib)))
  (nets
    (net (code 1) (name "Net-(O2-Pad8)")
      (node (ref P22) (pin 6))
      (node (ref O2) (pin 8))
      (node (ref P23) (pin 8))
      (node (ref P21) (pin 2))
      (node (ref P2) (pin 8)))
    (net (code 2) (name "Net-(D3-Pad1)")
      (node (ref SW1) (pin 3))
      (node (ref D3) (pin 1)))
    (net (code 3) (name "Net-(D2-Pad1)")
      (node (ref SW1) (pin 2))
      (node (ref D2) (pin 1)))
    (net (code 4) (name "Net-(D1-Pad1)")
      (node (ref SW1) (pin 1))
      (node (ref D1) (pin 1)))
    (net (code 5) (name "Net-(O1-Pad3)")
      (node (ref P11) (pin 7))
      (node (ref P1) (pin 3))
      (node (ref P12) (pin 2))
      (node (ref P13) (pin 3))
      (node (ref O1) (pin 3)))
    (net (code 6) (name "Net-(O2-Pad4)")
      (node (ref O2) (pin 4))
      (node (ref P23) (pin 4))
      (node (ref P2) (pin 4))
      (node (ref P21) (pin 4))
      (node (ref P22) (pin 4)))
    (net (code 7) (name "Net-(O2-Pad5)")
      (node (ref O2) (pin 5))
      (node (ref P22) (pin 3))
      (node (ref P23) (pin 5))
      (node (ref P21) (pin 6))
      (node (ref P2) (pin 5)))
    (net (code 8) (name "Net-(O2-Pad6)")
      (node (ref P2) (pin 6))
      (node (ref P21) (pin 3))
      (node (ref P22) (pin 5))
      (node (ref O2) (pin 6))
      (node (ref P23) (pin 6)))
    (net (code 9) (name "Net-(D3-Pad2)")
      (node (ref P2) (pin 2))
      (node (ref P1) (pin 2))
      (node (ref D3) (pin 2)))
    (net (code 10) (name "Net-(O1-Pad8)")
      (node (ref P11) (pin 2))
      (node (ref O1) (pin 8))
      (node (ref P1) (pin 8))
      (node (ref P12) (pin 6))
      (node (ref P13) (pin 8)))
    (net (code 11) (name "Net-(O1-Pad6)")
      (node (ref O1) (pin 6))
      (node (ref P11) (pin 3))
      (node (ref P12) (pin 5))
      (node (ref P1) (pin 6))
      (node (ref P13) (pin 6)))
    (net (code 12) (name "Net-(O1-Pad5)")
      (node (ref P11) (pin 6))
      (node (ref P13) (pin 5))
      (node (ref O1) (pin 5))
      (node (ref P1) (pin 5))
      (node (ref P12) (pin 3)))
    (net (code 13) (name "Net-(O1-Pad2)")
      (node (ref O2) (pin 2))
      (node (ref O1) (pin 2))
      (node (ref SW1) (pin 5)))
    (net (code 14) (name "Net-(D4-Pad1)")
      (node (ref SW1) (pin 4))
      (node (ref D4) (pin 1)))
    (net (code 15) (name "Net-(O1-Pad4)")
      (node (ref P12) (pin 4))
      (node (ref P13) (pin 4))
      (node (ref O1) (pin 4))
      (node (ref P11) (pin 4))
      (node (ref P1) (pin 4)))
    (net (code 16) (name "Net-(D1-Pad2)")
      (node (ref P22) (pin 7))
      (node (ref P12) (pin 7))
      (node (ref D1) (pin 2)))
    (net (code 17) (name "Net-(P1-Pad7)")
      (node (ref P1) (pin 7)))
    (net (code 18) (name "Net-(P23-Pad7)")
      (node (ref P23) (pin 7)))
    (net (code 19) (name "Net-(P2-Pad7)")
      (node (ref P2) (pin 7)))
    (net (code 20) (name "Net-(O1-Pad7)")
      (node (ref O1) (pin 7)))
    (net (code 21) (name "Net-(D2-Pad2)")
      (node (ref D2) (pin 2))
      (node (ref P21) (pin 5))
      (node (ref P11) (pin 5)))
    (net (code 22) (name "Net-(O2-Pad7)")
      (node (ref O2) (pin 7)))
    (net (code 23) (name "Net-(O2-Pad3)")
      (node (ref P22) (pin 2))
      (node (ref P21) (pin 7))
      (node (ref P2) (pin 3))
      (node (ref P23) (pin 3))
      (node (ref O2) (pin 3)))
    (net (code 24) (name "Net-(D4-Pad2)")
      (node (ref P13) (pin 2))
      (node (ref P23) (pin 2))
      (node (ref D4) (pin 2)))
    (net (code 25) (name "Net-(P13-Pad7)")
      (node (ref P13) (pin 7)))
    (net (code 26) (name GND)
      (node (ref P12) (pin 1))
      (node (ref O2) (pin 1))
      (node (ref P22) (pin 1))
      (node (ref P1) (pin 1))
      (node (ref P21) (pin 1))
      (node (ref P13) (pin 1))
      (node (ref P13) (pin 9))
      (node (ref P23) (pin 1))
      (node (ref P11) (pin 1))
      (node (ref O2) (pin 9))
      (node (ref P23) (pin 9))
      (node (ref O1) (pin 9))
      (node (ref O1) (pin 1))
      (node (ref P1) (pin 9))
      (node (ref P2) (pin 1))
      (node (ref P2) (pin 9)))))