(kicad_sch (version 20200512) (host eeschema "(5.99.0-1804-g711fc999f)")

  (page 1 1)

  (paper "USLetter")

  (title_block
    (title "TASPup Cross-Compatibility Board")
    (date "2017-06-28")
    (rev "Rev 1")
    (company "MediaMagnet")
    (comment 3 "NES/SNES Controller, and TAStm32")
    (comment 4 "Cross compatible board allows link of:")
  )

  (lib_symbols
    (symbol "74xx_IEEE:74153" (pin_names (offset 0.762))
      (property "Reference" "U" (id 0) (at 7.62 20.32 0))
      (property "Value" "74153" (id 1) (at 3.81 -16.51 0))
      (property "Footprint" "" (id 2) (at 0 0 0)
        (effects (font (size 1.27 1.27)) hide)
      )
      (property "Datasheet" "" (id 3) (at 0 0 0)
        (effects (font (size 1.27 1.27)) hide)
      )
      (symbol "74153_0_0"
        (text "MUX" (at 0 12.7 0)
          (effects (font (size 1.524 1.524)))
        )
        (rectangle (start -6.35 -2.54) (end 6.35 -15.24))
        (rectangle (start -6.35 11.43) (end 6.35 -2.54))
        (polyline
          (pts (xy -5.08 11.43) (xy -5.08 12.7) (xy -6.35 12.7) (xy -6.35 19.05)
               (xy 6.35 19.05) (xy 6.35 12.7) (xy 5.08 12.7) (xy 5.08 11.43)
               (xy 5.08 11.43)
          )
        )
        (pin power_in line (at 5.08 19.05 270) (length 0) (name "VCC") (number "16") hide)
        (pin power_in line (at 0 19.05 270) (length 0) (name "GND") (number "8") hide)
      )
      (symbol "74153_1_1"
        (pin input inverted (at -13.97 8.89 0) (length 7.62) (name "~ENa") (number "1"))
        (pin input line (at -13.97 -6.35 0) (length 7.62) (name "I0b") (number "10"))
        (pin input line (at -13.97 -8.89 0) (length 7.62) (name "I1b") (number "11"))
        (pin input line (at -13.97 -11.43 0) (length 7.62) (name "I2b") (number "12"))
        (pin input line (at -13.97 -13.97 0) (length 7.62) (name "I3b") (number "13"))
        (pin input line (at -13.97 16.51 0) (length 7.62) (name "A") (number "14"))
        (pin input inverted (at -13.97 -3.81 0) (length 7.62) (name "~ENb") (number "15"))
        (pin input line (at -13.97 13.97 0) (length 7.62) (name "B") (number "2"))
        (pin input line (at -13.97 -1.27 0) (length 7.62) (name "I3a") (number "3"))
        (pin input line (at -13.97 1.27 0) (length 7.62) (name "I2a") (number "4"))
        (pin input line (at -13.97 3.81 0) (length 7.62) (name "I1a") (number "5"))
        (pin input line (at -13.97 6.35 0) (length 7.62) (name "I0a") (number "6"))
        (pin output line (at 13.97 3.81 180) (length 7.62) (name "Qa") (number "7"))
        (pin output line (at 13.97 -8.89 180) (length 7.62) (name "Qb") (number "9"))
      )
    )
    (symbol "Connector:AudioJack2" (pin_names (offset 0.508))
      (property "Reference" "J" (id 0) (at 0 8.89 0))
      (property "Value" "AudioJack2" (id 1) (at 0 6.35 0))
      (property "Footprint" "" (id 2) (at 0 0 0)
        (effects (font (size 1.27 1.27)) hide)
      )
      (property "Datasheet" "" (id 3) (at 0 0 0)
        (effects (font (size 1.27 1.27)) hide)
      )
      (property "ki_keywords" "audio jack receptacle mono phone headphone TS connector" (id 4) (at 0 0 0)
        (effects (font (size 1.27 1.27)) hide)
      )
      (property "ki_description" "Audio Jack, 2 Poles (Mono / TS)" (id 5) (at 0 0 0)
        (effects (font (size 1.27 1.27)) hide)
      )
      (property "ki_fp_filters" "Jack*" (id 6) (at 0 0 0)
        (effects (font (size 1.27 1.27)) hide)
      )
      (symbol "AudioJack2_0_1"
        (rectangle (start -3.81 0) (end -2.54 -2.54) (stroke (width 0.254)) (fill (type outline)))
        (rectangle (start -2.54 3.81) (end 2.54 -2.54) (stroke (width 0.254)) (fill (type background)))
        (polyline
          (pts (xy 0 0) (xy 0.635 -0.635) (xy 1.27 0) (xy 2.54 0))
          (stroke (width 0.254))
        )
        (polyline
          (pts (xy 2.54 2.54) (xy -0.635 2.54) (xy -0.635 0) (xy -1.27 -0.635)
               (xy -1.905 0)
          )
          (stroke (width 0.254))
        )
      )
      (symbol "AudioJack2_1_1"
        (pin passive line (at 5.08 2.54 180) (length 2.54) (name "~") (number "S"))
        (pin passive line (at 5.08 0 180) (length 2.54) (name "~") (number "T"))
      )
    )
    (symbol "Connector:RJ45_Shielded"
      (property "Reference" "J" (id 0) (at -5.08 13.97 0)
        (effects (font (size 1.27 1.27)) (justify right))
      )
      (property "Value" "RJ45_Shielded" (id 1) (at 2.54 13.97 0)
        (effects (font (size 1.27 1.27)) (justify left))
      )
      (property "Footprint" "" (id 2) (at 0 0.635 90)
        (effects (font (size 1.27 1.27)) hide)
      )
      (property "Datasheet" "" (id 3) (at 0 0.635 90)
        (effects (font (size 1.27 1.27)) hide)
      )
      (property "ki_keywords" "8P8C RJ female connector" (id 4) (at 0 0 0)
        (effects (font (size 1.27 1.27)) hide)
      )
      (property "ki_description" "RJ connector, 8P8C (8 positions 8 connected), Shielded" (id 5) (at 0 0 0)
        (effects (font (size 1.27 1.27)) hide)
      )
      (property "ki_fp_filters" "8P8C*\nRJ31*\nRJ32*\nRJ33*\nRJ34*\nRJ35*\nRJ41*\nRJ45*\nRJ49*\nRJ61*" (id 6) (at 0 0 0)
        (effects (font (size 1.27 1.27)) hide)
      )
      (symbol "RJ45_Shielded_0_1"
        (rectangle (start 7.62 12.7) (end -7.62 -10.16) (stroke (width 0.254)) (fill (type background)))
        (polyline
          (pts (xy -5.08 4.445) (xy -6.35 4.445))
        )
        (polyline
          (pts (xy -5.08 5.715) (xy -6.35 5.715))
        )
        (polyline
          (pts (xy -6.35 -3.175) (xy -5.08 -3.175) (xy -5.08 -3.175))
        )
        (polyline
          (pts (xy -6.35 -1.905) (xy -5.08 -1.905) (xy -5.08 -1.905))
        )
        (polyline
          (pts (xy -6.35 -0.635) (xy -5.08 -0.635) (xy -5.08 -0.635))
        )
        (polyline
          (pts (xy -6.35 0.635) (xy -5.08 0.635) (xy -5.08 0.635))
        )
        (polyline
          (pts (xy -6.35 1.905) (xy -5.08 1.905) (xy -5.08 1.905))
        )
        (polyline
          (pts (xy -5.08 3.175) (xy -6.35 3.175) (xy -6.35 3.175))
        )
        (polyline
          (pts (xy -6.35 -4.445) (xy -6.35 6.985) (xy 3.81 6.985) (xy 3.81 4.445)
               (xy 5.08 4.445) (xy 5.08 3.175) (xy 6.35 3.175) (xy 6.35 -0.635)
               (xy 5.08 -0.635) (xy 5.08 -1.905) (xy 3.81 -1.905) (xy 3.81 -4.445)
               (xy -6.35 -4.445) (xy -6.35 -4.445)
          )
        )
      )
      (symbol "RJ45_Shielded_1_1"
        (pin passive line (at 10.16 -7.62 180) (length 2.54) (name "~") (number "1"))
        (pin passive line (at 10.16 -5.08 180) (length 2.54) (name "~") (number "2"))
        (pin passive line (at 10.16 -2.54 180) (length 2.54) (name "~") (number "3"))
        (pin passive line (at 10.16 0 180) (length 2.54) (name "~") (number "4"))
        (pin passive line (at 10.16 2.54 180) (length 2.54) (name "~") (number "5"))
        (pin passive line (at 10.16 5.08 180) (length 2.54) (name "~") (number "6"))
        (pin passive line (at 10.16 7.62 180) (length 2.54) (name "~") (number "7"))
        (pin passive line (at 10.16 10.16 180) (length 2.54) (name "~") (number "8"))
        (pin passive line (at 0 -12.7 90) (length 2.54) (name "~") (number "SH"))
      )
    )
    (symbol "Connector:USB_C_Receptacle_USB2.0"
      (property "Reference" "J" (id 0) (at -10.16 19.05 0)
        (effects (font (size 1.27 1.27)) (justify left))
      )
      (property "Value" "USB_C_Receptacle_USB2.0" (id 1) (at 19.05 19.05 0)
        (effects (font (size 1.27 1.27)) (justify right))
      )
      (property "Footprint" "" (id 2) (at 3.81 0 0)
        (effects (font (size 1.27 1.27)) hide)
      )
      (property "Datasheet" "" (id 3) (at 3.81 0 0)
        (effects (font (size 1.27 1.27)) hide)
      )
      (property "ki_keywords" "usb universal serial bus type-C USB2.0" (id 4) (at 0 0 0)
        (effects (font (size 1.27 1.27)) hide)
      )
      (property "ki_description" "USB 2.0-only Type-C Receptacle connector" (id 5) (at 0 0 0)
        (effects (font (size 1.27 1.27)) hide)
      )
      (property "ki_fp_filters" "USB*C*Receptacle*" (id 6) (at 0 0 0)
        (effects (font (size 1.27 1.27)) hide)
      )
      (symbol "USB_C_Receptacle_USB2.0_0_1"
        (arc (start -8.89 -3.81) (end -5.08 -3.81) (radius (at -6.985 -3.81) (length 1.905) (angles -179.9 -0.1))
          (stroke (width 0.508))
        )
        (arc (start -7.62 -3.81) (end -6.35 -3.81) (radius (at -6.985 -3.81) (length 0.635) (angles -179.9 -0.1))
          (stroke (width 0.254))
        )
        (arc (start -7.62 -3.81) (end -6.35 -3.81) (radius (at -6.985 -3.81) (length 0.635) (angles -179.9 -0.1))
          (stroke (width 0.254)) (fill (type outline))
        )
        (arc (start -6.35 3.81) (end -7.62 3.81) (radius (at -6.985 3.81) (length 0.635) (angles 0.1 179.9))
          (stroke (width 0.254)) (fill (type outline))
        )
        (arc (start -6.35 3.81) (end -7.62 3.81) (radius (at -6.985 3.81) (length 0.635) (angles 0.1 179.9))
          (stroke (width 0.254))
        )
        (arc (start -5.08 3.81) (end -8.89 3.81) (radius (at -6.985 3.81) (length 1.905) (angles 0.1 179.9))
          (stroke (width 0.508))
        )
        (circle (center -2.54 1.143) (radius 0.635) (stroke (width 0.254)) (fill (type outline)))
        (circle (center 0 -5.842) (radius 1.27) (fill (type outline)))
        (rectangle (start -10.16 17.78) (end 10.16 -17.78) (stroke (width 0.254)) (fill (type background)))
        (rectangle (start -7.62 -3.81) (end -6.35 3.81) (stroke (width 0.254)) (fill (type outline)))
        (rectangle (start 1.905 1.778) (end 3.175 3.048) (stroke (width 0.254)) (fill (type outline)))
        (polyline
          (pts (xy -8.89 -3.81) (xy -8.89 3.81))
          (stroke (width 0.508))
        )
        (polyline
          (pts (xy -5.08 3.81) (xy -5.08 -3.81))
          (stroke (width 0.508))
        )
        (polyline
          (pts (xy 0 -5.842) (xy 0 4.318))
          (stroke (width 0.508))
        )
        (polyline
          (pts (xy 0 -3.302) (xy -2.54 -0.762) (xy -2.54 0.508))
          (stroke (width 0.508))
        )
        (polyline
          (pts (xy 0 -2.032) (xy 2.54 0.508) (xy 2.54 1.778))
          (stroke (width 0.508))
        )
        (polyline
          (pts (xy -1.27 4.318) (xy 0 6.858) (xy 1.27 4.318) (xy -1.27 4.318))
          (stroke (width 0.254)) (fill (type outline))
        )
      )
      (symbol "USB_C_Receptacle_USB2.0_0_0"
        (rectangle (start -0.254 -17.78) (end 0.254 -16.764))
        (rectangle (start 10.16 -14.986) (end 9.144 -15.494))
        (rectangle (start 10.16 -12.446) (end 9.144 -12.954))
        (rectangle (start 10.16 -4.826) (end 9.144 -5.334))
        (rectangle (start 10.16 -2.286) (end 9.144 -2.794))
        (rectangle (start 10.16 0.254) (end 9.144 -0.254))
        (rectangle (start 10.16 2.794) (end 9.144 2.286))
        (rectangle (start 10.16 7.874) (end 9.144 7.366))
        (rectangle (start 10.16 10.414) (end 9.144 9.906))
        (rectangle (start 10.16 15.494) (end 9.144 14.986))
      )
      (symbol "USB_C_Receptacle_USB2.0_1_1"
        (pin power_in line (at 0 -22.86 90) (length 5.08) (name "GND") (number "A1"))
        (pin passive line (at 0 -22.86 90) (length 5.08) (name "GND") (number "A12") hide)
        (pin power_in line (at 15.24 15.24 180) (length 5.08) (name "VBUS") (number "A4"))
        (pin bidirectional line (at 15.24 10.16 180) (length 5.08) (name "CC1") (number "A5"))
        (pin bidirectional line (at 15.24 -2.54 180) (length 5.08) (name "D+") (number "A6"))
        (pin bidirectional line (at 15.24 2.54 180) (length 5.08) (name "D-") (number "A7"))
        (pin bidirectional line (at 15.24 -12.7 180) (length 5.08) (name "SBU1") (number "A8"))
        (pin passive line (at 15.24 15.24 180) (length 5.08) (name "VBUS") (number "A9") hide)
        (pin passive line (at 0 -22.86 90) (length 5.08) (name "GND") (number "B1") hide)
        (pin passive line (at 0 -22.86 90) (length 5.08) (name "GND") (number "B12") hide)
        (pin passive line (at 15.24 15.24 180) (length 5.08) (name "VBUS") (number "B4") hide)
        (pin bidirectional line (at 15.24 7.62 180) (length 5.08) (name "CC2") (number "B5"))
        (pin bidirectional line (at 15.24 -5.08 180) (length 5.08) (name "D+") (number "B6"))
        (pin bidirectional line (at 15.24 0 180) (length 5.08) (name "D-") (number "B7"))
        (pin bidirectional line (at 15.24 -15.24 180) (length 5.08) (name "SBU2") (number "B8"))
        (pin passive line (at 15.24 15.24 180) (length 5.08) (name "VBUS") (number "B9") hide)
        (pin passive line (at -7.62 -22.86 90) (length 5.08) (name "SHIELD") (number "S1"))
      )
    )
    (symbol "Connector_Generic:Conn_01x06" (pin_names hide)
      (property "Reference" "J" (id 0) (at 0 7.62 0))
      (property "Value" "Conn_01x06" (id 1) (at 0 -10.16 0))
      (property "Footprint" "" (id 2) (at 0 0 0)
        (effects (font (size 1.27 1.27)) hide)
      )
      (property "Datasheet" "" (id 3) (at 0 0 0)
        (effects (font (size 1.27 1.27)) hide)
      )
      (property "ki_keywords" "connector" (id 4) (at 0 0 0)
        (effects (font (size 1.27 1.27)) hide)
      )
      (property "ki_description" "Generic connector, single row, 01x06, script generated (kicad-library-utils/schlib/autogen/connector/)" (id 5) (at 0 0 0)
        (effects (font (size 1.27 1.27)) hide)
      )
      (property "ki_fp_filters" "Connector*:*_1x??_*" (id 6) (at 0 0 0)
        (effects (font (size 1.27 1.27)) hide)
      )
      (symbol "Conn_01x06_1_1"
        (rectangle (start -1.27 -4.953) (end 0 -5.207))
        (rectangle (start -1.27 -7.493) (end 0 -7.747))
        (rectangle (start -1.27 -2.413) (end 0 -2.667))
        (rectangle (start -1.27 2.667) (end 0 2.413))
        (rectangle (start -1.27 5.207) (end 0 4.953))
        (rectangle (start -1.27 6.35) (end 1.27 -8.89) (stroke (width 0.254)) (fill (type background)))
        (rectangle (start -1.27 0.127) (end 0 -0.127))
        (pin passive line (at -5.08 5.08 0) (length 3.81) (name "Pin_1") (number "1"))
        (pin passive line (at -5.08 2.54 0) (length 3.81) (name "Pin_2") (number "2"))
        (pin passive line (at -5.08 0 0) (length 3.81) (name "Pin_3") (number "3"))
        (pin passive line (at -5.08 -2.54 0) (length 3.81) (name "Pin_4") (number "4"))
        (pin passive line (at -5.08 -5.08 0) (length 3.81) (name "Pin_5") (number "5"))
        (pin passive line (at -5.08 -7.62 0) (length 3.81) (name "Pin_6") (number "6"))
      )
    )
    (symbol "Device:C_Small" (pin_numbers hide) (pin_names (offset 0.254) hide)
      (property "Reference" "C" (id 0) (at 0.254 1.778 0)
        (effects (font (size 1.27 1.27)) (justify left))
      )
      (property "Value" "C_Small" (id 1) (at 0.254 -2.032 0)
        (effects (font (size 1.27 1.27)) (justify left))
      )
      (property "Footprint" "" (id 2) (at 0 0 0)
        (effects (font (size 1.27 1.27)) hide)
      )
      (property "Datasheet" "" (id 3) (at 0 0 0)
        (effects (font (size 1.27 1.27)) hide)
      )
      (property "ki_keywords" "capacitor cap" (id 4) (at 0 0 0)
        (effects (font (size 1.27 1.27)) hide)
      )
      (property "ki_description" "Unpolarized capacitor, small symbol" (id 5) (at 0 0 0)
        (effects (font (size 1.27 1.27)) hide)
      )
      (property "ki_fp_filters" "C_*" (id 6) (at 0 0 0)
        (effects (font (size 1.27 1.27)) hide)
      )
      (symbol "C_Small_0_1"
        (polyline
          (pts (xy -1.524 -0.508) (xy 1.524 -0.508))
          (stroke (width 0.3302))
        )
        (polyline
          (pts (xy -1.524 0.508) (xy 1.524 0.508))
          (stroke (width 0.3048))
        )
      )
      (symbol "C_Small_1_1"
        (pin passive line (at 0 2.54 270) (length 2.032) (name "~") (number "1"))
        (pin passive line (at 0 -2.54 90) (length 2.032) (name "~") (number "2"))
      )
    )
    (symbol "Interface_USB:FT231XS" (pin_names (offset 0.508))
      (property "Reference" "U" (id 0) (at -13.97 20.32 0)
        (effects (font (size 1.27 1.27)) (justify left))
      )
      (property "Value" "FT231XS" (id 1) (at 7.62 20.32 0)
        (effects (font (size 1.27 1.27)) (justify left))
      )
      (property "Footprint" "Package_SO:SSOP-20_3.9x8.7mm_P0.635mm" (id 2) (at 25.4 -20.32 0)
        (effects (font (size 1.27 1.27)) hide)
      )
      (property "Datasheet" "" (id 3) (at 0 0 0)
        (effects (font (size 1.27 1.27)) hide)
      )
      (property "ki_keywords" "FTDI USB UART interface converter" (id 4) (at 0 0 0)
        (effects (font (size 1.27 1.27)) hide)
      )
      (property "ki_description" "Full Speed USB to Full Handshake UART, SSOP-20" (id 5) (at 0 0 0)
        (effects (font (size 1.27 1.27)) hide)
      )
      (property "ki_fp_filters" "*SSOP*3.9x8.7mm*P0.635mm*" (id 6) (at 0 0 0)
        (effects (font (size 1.27 1.27)) hide)
      )
      (symbol "FT231XS_0_1"
        (rectangle (start -13.97 19.05) (end 13.97 -19.05) (stroke (width 0.254)) (fill (type background)))
      )
      (symbol "FT231XS_1_1"
        (pin output line (at 17.78 5.08 180) (length 3.81) (name "~DTR") (number "1"))
        (pin bidirectional line (at 17.78 -12.7 180) (length 3.81) (name "CBUS2") (number "10"))
        (pin bidirectional line (at -17.78 5.08 0) (length 3.81) (name "USBDP") (number "11"))
        (pin bidirectional line (at -17.78 7.62 0) (length 3.81) (name "USBDM") (number "12"))
        (pin power_out line (at -17.78 15.24 0) (length 3.81) (name "3V3OUT") (number "13"))
        (pin input line (at -17.78 0 0) (length 3.81) (name "~RESET") (number "14"))
        (pin power_in line (at -2.54 22.86 270) (length 3.81) (name "VCC") (number "15"))
        (pin power_in line (at 2.54 -22.86 90) (length 3.81) (name "GND") (number "16"))
        (pin bidirectional line (at 17.78 -10.16 180) (length 3.81) (name "CBUS1") (number "17"))
        (pin bidirectional line (at 17.78 -7.62 180) (length 3.81) (name "CBUS0") (number "18"))
        (pin bidirectional line (at 17.78 -15.24 180) (length 3.81) (name "CBUS3") (number "19"))
        (pin output line (at 17.78 10.16 180) (length 3.81) (name "~RTS") (number "2"))
        (pin output line (at 17.78 15.24 180) (length 3.81) (name "TXD") (number "20"))
        (pin power_in line (at 2.54 22.86 270) (length 3.81) (name "VCCIO") (number "3"))
        (pin input line (at 17.78 12.7 180) (length 3.81) (name "RXD") (number "4"))
        (pin input line (at 17.78 -2.54 180) (length 3.81) (name "~RI") (number "5"))
        (pin power_in line (at -2.54 -22.86 90) (length 3.81) (name "GND") (number "6"))
        (pin input line (at 17.78 2.54 180) (length 3.81) (name "~DSR") (number "7"))
        (pin input line (at 17.78 0 180) (length 3.81) (name "~DCD") (number "8"))
        (pin input line (at 17.78 7.62 180) (length 3.81) (name "~CTS") (number "9"))
      )
    )
    (symbol "MCU_Microchip_ATmega:ATmega328P-PU" (pin_names (offset 0.508))
      (property "Reference" "U" (id 0) (at -12.7 36.83 0)
        (effects (font (size 1.27 1.27)) (justify left bottom))
      )
      (property "Value" "ATmega328P-PU" (id 1) (at 2.54 -36.83 0)
        (effects (font (size 1.27 1.27)) (justify left top))
      )
      (property "Footprint" "Package_DIP:DIP-28_W7.62mm" (id 2) (at 0 0 0)
        (effects (font (size 1.27 1.27) italic) hide)
      )
      (property "Datasheet" "" (id 3) (at 0 0 0)
        (effects (font (size 1.27 1.27)) hide)
      )
      (property "ki_keywords" "AVR 8bit Microcontroller MegaAVR PicoPower" (id 4) (at 0 0 0)
        (effects (font (size 1.27 1.27)) hide)
      )
      (property "ki_description" "20MHz, 32kB Flash, 2kB SRAM, 1kB EEPROM, DIP-28" (id 5) (at 0 0 0)
        (effects (font (size 1.27 1.27)) hide)
      )
      (property "ki_fp_filters" "DIP*W7.62mm*" (id 6) (at 0 0 0)
        (effects (font (size 1.27 1.27)) hide)
      )
      (symbol "ATmega328P-PU_0_1"
        (rectangle (start -12.7 -35.56) (end 12.7 35.56) (stroke (width 0.254)) (fill (type background)))
      )
      (symbol "ATmega328P-PU_1_1"
        (pin bidirectional line (at 15.24 -7.62 180) (length 2.54) (name "~RESET~/PC6") (number "1"))
        (pin bidirectional line (at 15.24 12.7 180) (length 2.54) (name "XTAL2/PB7") (number "10"))
        (pin bidirectional line (at 15.24 -25.4 180) (length 2.54) (name "PD5") (number "11"))
        (pin bidirectional line (at 15.24 -27.94 180) (length 2.54) (name "PD6") (number "12"))
        (pin bidirectional line (at 15.24 -30.48 180) (length 2.54) (name "PD7") (number "13"))
        (pin bidirectional line (at 15.24 30.48 180) (length 2.54) (name "PB0") (number "14"))
        (pin bidirectional line (at 15.24 27.94 180) (length 2.54) (name "PB1") (number "15"))
        (pin bidirectional line (at 15.24 25.4 180) (length 2.54) (name "PB2") (number "16"))
        (pin bidirectional line (at 15.24 22.86 180) (length 2.54) (name "PB3") (number "17"))
        (pin bidirectional line (at 15.24 20.32 180) (length 2.54) (name "PB4") (number "18"))
        (pin bidirectional line (at 15.24 17.78 180) (length 2.54) (name "PB5") (number "19"))
        (pin bidirectional line (at 15.24 -12.7 180) (length 2.54) (name "PD0") (number "2"))
        (pin power_in line (at 2.54 38.1 270) (length 2.54) (name "AVCC") (number "20"))
        (pin passive line (at -15.24 30.48 0) (length 2.54) (name "AREF") (number "21"))
        (pin passive line (at 0 -38.1 90) (length 2.54) (name "GND") (number "22") hide)
        (pin bidirectional line (at 15.24 7.62 180) (length 2.54) (name "PC0") (number "23"))
        (pin bidirectional line (at 15.24 5.08 180) (length 2.54) (name "PC1") (number "24"))
        (pin bidirectional line (at 15.24 2.54 180) (length 2.54) (name "PC2") (number "25"))
        (pin bidirectional line (at 15.24 0 180) (length 2.54) (name "PC3") (number "26"))
        (pin bidirectional line (at 15.24 -2.54 180) (length 2.54) (name "PC4") (number "27"))
        (pin bidirectional line (at 15.24 -5.08 180) (length 2.54) (name "PC5") (number "28"))
        (pin bidirectional line (at 15.24 -15.24 180) (length 2.54) (name "PD1") (number "3"))
        (pin bidirectional line (at 15.24 -17.78 180) (length 2.54) (name "PD2") (number "4"))
        (pin bidirectional line (at 15.24 -20.32 180) (length 2.54) (name "PD3") (number "5"))
        (pin bidirectional line (at 15.24 -22.86 180) (length 2.54) (name "PD4") (number "6"))
        (pin power_in line (at 0 38.1 270) (length 2.54) (name "VCC") (number "7"))
        (pin power_in line (at 0 -38.1 90) (length 2.54) (name "GND") (number "8"))
        (pin bidirectional line (at 15.24 15.24 180) (length 2.54) (name "XTAL1/PB6") (number "9"))
      )
    )
    (symbol "Switch:SW_Push" (pin_numbers hide) (pin_names hide)
      (property "Reference" "SW" (id 0) (at 1.27 2.54 0)
        (effects (font (size 1.27 1.27)) (justify left))
      )
      (property "Value" "SW_Push" (id 1) (at 0 -1.524 0))
      (property "Footprint" "" (id 2) (at 0 5.08 0)
        (effects (font (size 1.27 1.27)) hide)
      )
      (property "Datasheet" "" (id 3) (at 0 5.08 0)
        (effects (font (size 1.27 1.27)) hide)
      )
      (property "ki_keywords" "switch normally-open pushbutton push-button" (id 4) (at 0 0 0)
        (effects (font (size 1.27 1.27)) hide)
      )
      (property "ki_description" "Push button switch, generic, two pins" (id 5) (at 0 0 0)
        (effects (font (size 1.27 1.27)) hide)
      )
      (symbol "SW_Push_0_1"
        (circle (center -2.032 0) (radius 0.508))
        (circle (center 2.032 0) (radius 0.508))
        (polyline
          (pts (xy 0 1.27) (xy 0 3.048))
        )
        (polyline
          (pts (xy 2.54 1.27) (xy -2.54 1.27))
        )
        (pin passive line (at -5.08 0 0) (length 2.54) (name "1") (number "1"))
        (pin passive line (at 5.08 0 180) (length 2.54) (name "2") (number "2"))
      )
    )
    (symbol "Transistor_FET:2N7002K" (pin_names (offset 0.508) hide)
      (property "Reference" "Q" (id 0) (at 5.08 1.905 0)
        (effects (font (size 1.27 1.27)) (justify left))
      )
      (property "Value" "2N7002K" (id 1) (at 5.08 0 0)
        (effects (font (size 1.27 1.27)) (justify left))
      )
      (property "Footprint" "Package_TO_SOT_SMD:SOT-23" (id 2) (at 5.08 -1.905 0)
        (effects (font (size 1.27 1.27) italic) (justify left) hide)
      )
      (property "Datasheet" "" (id 3) (at 0 0 0)
        (effects (font (size 1.27 1.27)) (justify left) hide)
      )
      (property "ki_keywords" "N-Channel MOSFET" (id 4) (at 0 0 0)
        (effects (font (size 1.27 1.27)) hide)
      )
      (property "ki_description" "0.38A Id, 60V Vds, N-Channel MOSFET, SOT-23" (id 5) (at 0 0 0)
        (effects (font (size 1.27 1.27)) hide)
      )
      (property "ki_fp_filters" "SOT?23*" (id 6) (at 0 0 0)
        (effects (font (size 1.27 1.27)) hide)
      )
      (symbol "2N7002K_0_1"
        (circle (center 1.651 0) (radius 2.794) (stroke (width 0.254)))
        (circle (center 2.54 -1.778) (radius 0.254) (fill (type outline)))
        (circle (center 2.54 1.778) (radius 0.254) (fill (type outline)))
        (polyline
          (pts (xy 0.254 0) (xy -2.54 0))
        )
        (polyline
          (pts (xy 0.254 1.905) (xy 0.254 -1.905))
          (stroke (width 0.254))
        )
        (polyline
          (pts (xy 0.762 -1.27) (xy 0.762 -2.286))
          (stroke (width 0.254))
        )
        (polyline
          (pts (xy 0.762 0.508) (xy 0.762 -0.508))
          (stroke (width 0.254))
        )
        (polyline
          (pts (xy 0.762 2.286) (xy 0.762 1.27))
          (stroke (width 0.254))
        )
        (polyline
          (pts (xy 2.54 2.54) (xy 2.54 1.778))
        )
        (polyline
          (pts (xy 2.54 -2.54) (xy 2.54 0) (xy 0.762 0))
        )
        (polyline
          (pts (xy 0.762 -1.778) (xy 3.302 -1.778) (xy 3.302 1.778) (xy 0.762 1.778))
        )
        (polyline
          (pts (xy 1.016 0) (xy 2.032 0.381) (xy 2.032 -0.381) (xy 1.016 0))
          (fill (type outline))
        )
        (polyline
          (pts (xy 2.794 0.508) (xy 2.921 0.381) (xy 3.683 0.381) (xy 3.81 0.254))
        )
        (polyline
          (pts (xy 3.302 0.381) (xy 2.921 -0.254) (xy 3.683 -0.254) (xy 3.302 0.381))
        )
      )
      (symbol "2N7002K_1_1"
        (pin input line (at -5.08 0 0) (length 2.54) (name "G") (number "1"))
        (pin passive line (at 2.54 -5.08 90) (length 2.54) (name "S") (number "2"))
        (pin passive line (at 2.54 5.08 270) (length 2.54) (name "D") (number "3"))
      )
    )
    (symbol "device:C_Small" (pin_numbers hide) (pin_names (offset 0.254) hide)
      (property "Reference" "C" (id 0) (at 0.254 1.778 0)
        (effects (font (size 1.27 1.27)) (justify left))
      )
      (property "Value" "C_Small" (id 1) (at 0.254 -2.032 0)
        (effects (font (size 1.27 1.27)) (justify left))
      )
      (property "Footprint" "" (id 2) (at 0 0 0)
        (effects (font (size 1.27 1.27)) hide)
      )
      (property "Datasheet" "" (id 3) (at 0 0 0)
        (effects (font (size 1.27 1.27)) hide)
      )
      (property "ki_keywords" "capacitor cap" (id 4) (at 0 0 0)
        (effects (font (size 1.27 1.27)) hide)
      )
      (property "ki_description" "Unpolarized capacitor, small symbol" (id 5) (at 0 0 0)
        (effects (font (size 1.27 1.27)) hide)
      )
      (property "ki_fp_filters" "C_*" (id 6) (at 0 0 0)
        (effects (font (size 1.27 1.27)) hide)
      )
      (symbol "C_Small_0_1"
        (polyline
          (pts (xy -1.524 -0.508) (xy 1.524 -0.508))
          (stroke (width 0.3302))
        )
        (polyline
          (pts (xy -1.524 0.508) (xy 1.524 0.508))
          (stroke (width 0.3048))
        )
      )
      (symbol "C_Small_1_1"
        (pin passive line (at 0 2.54 270) (length 2.032) (name "~") (number "1"))
        (pin passive line (at 0 -2.54 90) (length 2.032) (name "~") (number "2"))
      )
    )
    (symbol "device:Crystal_Small" (pin_numbers hide) (pin_names hide)
      (property "Reference" "Y" (id 0) (at 0 2.54 0))
      (property "Value" "Crystal_Small" (id 1) (at 0 -2.54 0))
      (property "Footprint" "" (id 2) (at 0 0 0)
        (effects (font (size 1.27 1.27)) hide)
      )
      (property "Datasheet" "" (id 3) (at 0 0 0)
        (effects (font (size 1.27 1.27)) hide)
      )
      (property "ki_keywords" "quartz ceramic resonator oscillator" (id 4) (at 0 0 0)
        (effects (font (size 1.27 1.27)) hide)
      )
      (property "ki_description" "Two pin crystal, small symbol" (id 5) (at 0 0 0)
        (effects (font (size 1.27 1.27)) hide)
      )
      (property "ki_fp_filters" "Crystal*" (id 6) (at 0 0 0)
        (effects (font (size 1.27 1.27)) hide)
      )
      (symbol "Crystal_Small_0_1"
        (rectangle (start -0.762 -1.524) (end 0.762 1.524))
        (polyline
          (pts (xy -1.27 -0.762) (xy -1.27 0.762))
          (stroke (width 0.381))
        )
        (polyline
          (pts (xy 1.27 -0.762) (xy 1.27 0.762))
          (stroke (width 0.381))
        )
      )
      (symbol "Crystal_Small_1_1"
        (pin passive line (at -2.54 0 0) (length 1.27) (name "1") (number "1"))
        (pin passive line (at 2.54 0 180) (length 1.27) (name "2") (number "2"))
      )
    )
    (symbol "device:LED_Small" (pin_numbers hide) (pin_names (offset 0.254) hide)
      (property "Reference" "D" (id 0) (at -1.27 3.175 0)
        (effects (font (size 1.27 1.27)) (justify left))
      )
      (property "Value" "LED_Small" (id 1) (at -4.445 -2.54 0)
        (effects (font (size 1.27 1.27)) (justify left))
      )
      (property "Footprint" "" (id 2) (at 0 0 90)
        (effects (font (size 1.27 1.27)) hide)
      )
      (property "Datasheet" "" (id 3) (at 0 0 90)
        (effects (font (size 1.27 1.27)) hide)
      )
      (property "ki_keywords" "LED diode light-emitting-diode" (id 4) (at 0 0 0)
        (effects (font (size 1.27 1.27)) hide)
      )
      (property "ki_description" "Light emitting diode, small symbol" (id 5) (at 0 0 0)
        (effects (font (size 1.27 1.27)) hide)
      )
      (property "ki_fp_filters" "LED*\nLED_SMD:*\nLED_THT:*" (id 6) (at 0 0 0)
        (effects (font (size 1.27 1.27)) hide)
      )
      (symbol "LED_Small_0_1"
        (polyline
          (pts (xy -0.762 -1.016) (xy -0.762 1.016))
          (stroke (width 0.254))
        )
        (polyline
          (pts (xy 1.016 0) (xy -0.762 0))
        )
        (polyline
          (pts (xy 0.762 -1.016) (xy -0.762 0) (xy 0.762 1.016) (xy 0.762 -1.016))
          (stroke (width 0.254))
        )
        (polyline
          (pts (xy 0 0.762) (xy -0.508 1.27) (xy -0.254 1.27) (xy -0.508 1.27)
               (xy -0.508 1.016)
          )
        )
        (polyline
          (pts (xy 0.508 1.27) (xy 0 1.778) (xy 0.254 1.778) (xy 0 1.778)
               (xy 0 1.524)
          )
        )
      )
      (symbol "LED_Small_1_1"
        (pin passive line (at -2.54 0 0) (length 1.778) (name "K") (number "1"))
        (pin passive line (at 2.54 0 180) (length 1.778) (name "A") (number "2"))
      )
    )
    (symbol "device:R_Small_US" (pin_numbers hide) (pin_names (offset 0.254) hide)
      (property "Reference" "R" (id 0) (at 0.762 0.508 0)
        (effects (font (size 1.27 1.27)) (justify left))
      )
      (property "Value" "R_Small_US" (id 1) (at 0.762 -1.016 0)
        (effects (font (size 1.27 1.27)) (justify left))
      )
      (property "Footprint" "" (id 2) (at 0 0 0)
        (effects (font (size 1.27 1.27)) hide)
      )
      (property "Datasheet" "" (id 3) (at 0 0 0)
        (effects (font (size 1.27 1.27)) hide)
      )
      (property "ki_keywords" "r resistor" (id 4) (at 0 0 0)
        (effects (font (size 1.27 1.27)) hide)
      )
      (property "ki_description" "Resistor, small US symbol" (id 5) (at 0 0 0)
        (effects (font (size 1.27 1.27)) hide)
      )
      (property "ki_fp_filters" "R_*" (id 6) (at 0 0 0)
        (effects (font (size 1.27 1.27)) hide)
      )
      (symbol "R_Small_US_1_1"
        (polyline
          (pts (xy 0 0) (xy 1.016 -0.381) (xy 0 -0.762) (xy -1.016 -1.143)
               (xy 0 -1.524)
          )
        )
        (polyline
          (pts (xy 0 1.524) (xy 1.016 1.143) (xy 0 0.762) (xy -1.016 0.381)
               (xy 0 0)
          )
        )
        (pin passive line (at 0 2.54 270) (length 1.016) (name "~") (number "1"))
        (pin passive line (at 0 -2.54 90) (length 1.016) (name "~") (number "2"))
      )
    )
    (symbol "mutli-tas-rescue:SNES_CTRL-nes_ctrl" (pin_names (offset 0))
      (property "Reference" "SNES" (id 0) (at 0 2.54 0)
        (effects (font (size 1.524 1.524)))
      )
      (property "Value" "SNES_CTRL-nes_ctrl" (id 1) (at 0 0 0)
        (effects (font (size 1.524 1.524)))
      )
      (property "Footprint" "NES_CTRL:SNES_CTRL" (id 2) (at 0 5.08 0)
        (effects (font (size 1.524 1.524)) hide)
      )
      (property "Datasheet" "" (id 3) (at -12.7 -2.54 90)
        (effects (font (size 1.524 1.524)) hide)
      )
      (symbol "SNES_CTRL-nes_ctrl_0_1"
        (arc (start 11.43 -6.35) (end 11.43 -1.27) (radius (at 11.43 -3.81) (length 2.54) (angles -89.9 89.9)))
        (circle (center -13.97 -3.81) (radius 1.27))
        (circle (center -10.16 -3.81) (radius 1.27))
        (circle (center -6.35 -3.81) (radius 1.27))
        (circle (center -2.54 -3.81) (radius 1.27))
        (circle (center 2.54 -3.81) (radius 1.27))
        (circle (center 6.35 -3.81) (radius 1.27))
        (circle (center 10.16 -3.81) (radius 1.27))
        (polyline
          (pts (xy 0 -6.35) (xy 0 -1.27))
        )
        (polyline
          (pts (xy 11.43 -1.27) (xy -16.51 -1.27) (xy -16.51 -6.35) (xy 11.43 -6.35))
        )
        (pin input line (at -13.97 -10.16 90) (length 5.0038) (name "5V") (number "7"))
      )
      (symbol "SNES_CTRL-nes_ctrl_1_1"
        (pin output line (at 10.16 -10.16 90) (length 5.0038) (name "GN") (number "1"))
        (pin bidirectional line (at 6.35 -10.16 90) (length 5.0038) (name "IO") (number "2"))
        (pin bidirectional line (at 2.54 -10.16 90) (length 5.0038) (name "D1") (number "3"))
        (pin bidirectional line (at -2.54 -10.16 90) (length 5.0038) (name "D0") (number "4"))
        (pin bidirectional line (at -6.35 -10.16 90) (length 5.0038) (name "LC") (number "5"))
        (pin input line (at -10.16 -10.16 90) (length 5.0038) (name "CK") (number "6"))
      )
    )
    (symbol "nes_ctrl:NES_CTRL"
      (property "Reference" "U" (id 0) (at 0 1.27 0)
        (effects (font (size 1.524 1.524)))
      )
      (property "Value" "NES_CTRL" (id 1) (at 0 -1.27 0)
        (effects (font (size 1.524 1.524)))
      )
      (property "Footprint" "NES_CTRL:nes_ctrl" (id 2) (at 0 -1.27 0)
        (effects (font (size 1.524 1.524)) hide)
      )
      (property "Datasheet" "" (id 3) (at 0 -1.27 0)
        (effects (font (size 1.524 1.524)) hide)
      )
      (symbol "NES_CTRL_0_1"
        (circle (center -3.81 -16.51) (radius 1.27))
        (circle (center -3.81 -12.7) (radius 1.27))
        (circle (center -3.81 -8.89) (radius 1.27))
        (circle (center -3.81 -5.08) (radius 1.27))
        (circle (center 1.27 -16.51) (radius 1.27))
        (circle (center 1.27 -12.7) (radius 1.27))
        (circle (center 1.27 -8.89) (radius 1.27))
        (polyline
          (pts (xy -7.62 -16.51) (xy -3.81 -16.51))
        )
        (polyline
          (pts (xy -7.62 -12.7) (xy -3.81 -12.7))
        )
        (polyline
          (pts (xy -7.62 -8.89) (xy -3.81 -8.89))
        )
        (polyline
          (pts (xy -7.62 -5.08) (xy -3.81 -5.08))
        )
        (polyline
          (pts (xy 5.08 -16.51) (xy 1.27 -16.51))
        )
        (polyline
          (pts (xy 5.08 -12.7) (xy 1.27 -12.7))
        )
        (polyline
          (pts (xy 5.08 -8.89) (xy 1.27 -8.89))
        )
        (polyline
          (pts (xy -6.35 -19.05) (xy 3.81 -19.05) (xy 3.81 -7.62) (xy 3.81 -6.35)
               (xy 0 -2.54) (xy -6.35 -2.54) (xy -6.35 -19.05)
          )
        )
      )
      (symbol "NES_CTRL_0_0"
        (pin bidirectional line (at -7.62 -8.89 0) (length 0) (name "CK") (number "2"))
        (pin power_in line (at 5.08 -8.89 180) (length 0) (name "5V") (number "5"))
        (pin bidirectional line (at 5.08 -12.7 180) (length 0) (name "D3") (number "6"))
      )
      (symbol "NES_CTRL_1_1"
        (pin output line (at -7.62 -5.08 0) (length 0) (name "GN") (number "1"))
        (pin bidirectional line (at -7.62 -12.7 0) (length 0) (name "LA") (number "3"))
        (pin bidirectional line (at -7.62 -16.51 0) (length 0) (name "D0") (number "4"))
        (pin bidirectional line (at 5.08 -16.51 180) (length 0) (name "D4") (number "7"))
      )
    )
    (symbol "nes_ctrl:NES_CTRL_1"
      (property "Reference" "U" (id 0) (at 0 1.27 0)
        (effects (font (size 1.524 1.524)))
      )
      (property "Value" "NES_CTRL" (id 1) (at 0 -1.27 0)
        (effects (font (size 1.524 1.524)))
      )
      (property "Footprint" "NES_CTRL:nes_ctrl" (id 2) (at 0 -1.27 0)
        (effects (font (size 1.524 1.524)) hide)
      )
      (property "Datasheet" "" (id 3) (at 0 -1.27 0)
        (effects (font (size 1.524 1.524)) hide)
      )
      (symbol "NES_CTRL_1_0_1"
        (circle (center -3.81 -16.51) (radius 1.27))
        (circle (center -3.81 -12.7) (radius 1.27))
        (circle (center -3.81 -8.89) (radius 1.27))
        (circle (center -3.81 -5.08) (radius 1.27))
        (circle (center 1.27 -16.51) (radius 1.27))
        (circle (center 1.27 -12.7) (radius 1.27))
        (circle (center 1.27 -8.89) (radius 1.27))
        (polyline
          (pts (xy -7.62 -16.51) (xy -3.81 -16.51))
        )
        (polyline
          (pts (xy -7.62 -12.7) (xy -3.81 -12.7))
        )
        (polyline
          (pts (xy -7.62 -8.89) (xy -3.81 -8.89))
        )
        (polyline
          (pts (xy -7.62 -5.08) (xy -3.81 -5.08))
        )
        (polyline
          (pts (xy 5.08 -16.51) (xy 1.27 -16.51))
        )
        (polyline
          (pts (xy 5.08 -12.7) (xy 1.27 -12.7))
        )
        (polyline
          (pts (xy 5.08 -8.89) (xy 1.27 -8.89))
        )
        (polyline
          (pts (xy -6.35 -19.05) (xy 3.81 -19.05) (xy 3.81 -7.62) (xy 3.81 -6.35)
               (xy 0 -2.54) (xy -6.35 -2.54) (xy -6.35 -19.05)
          )
        )
      )
      (symbol "NES_CTRL_1_0_0"
        (pin bidirectional line (at -7.62 -8.89 0) (length 0) (name "CK") (number "2"))
        (pin power_in line (at 5.08 -8.89 180) (length 0) (name "5V") (number "5"))
        (pin bidirectional line (at 5.08 -12.7 180) (length 0) (name "D3") (number "6"))
      )
      (symbol "NES_CTRL_1_1_1"
        (pin output line (at -7.62 -5.08 0) (length 0) (name "GN") (number "1"))
        (pin bidirectional line (at -7.62 -12.7 0) (length 0) (name "LA") (number "3"))
        (pin bidirectional line (at -7.62 -16.51 0) (length 0) (name "D0") (number "4"))
        (pin bidirectional line (at 5.08 -16.51 180) (length 0) (name "D4") (number "7"))
      )
    )
    (symbol "power1:GND" (power) (pin_names (offset 0))
      (property "Reference" "#PWR" (id 0) (at 0 -6.35 0)
        (effects (font (size 1.27 1.27)) hide)
      )
      (property "Value" "GND" (id 1) (at 0 -3.81 0))
      (property "Footprint" "" (id 2) (at 0 0 0)
        (effects (font (size 1.27 1.27)) hide)
      )
      (property "Datasheet" "" (id 3) (at 0 0 0)
        (effects (font (size 1.27 1.27)) hide)
      )
      (property "ki_keywords" "power-flag" (id 4) (at 0 0 0)
        (effects (font (size 1.27 1.27)) hide)
      )
      (property "ki_description" "Power symbol creates a global label with name \"GND\" , ground" (id 5) (at 0 0 0)
        (effects (font (size 1.27 1.27)) hide)
      )
      (symbol "GND_0_1"
        (polyline
          (pts (xy 0 0) (xy 0 -1.27) (xy 1.27 -1.27) (xy 0 -2.54)
               (xy -1.27 -1.27) (xy 0 -1.27)
          )
        )
      )
      (symbol "GND_1_1"
        (pin power_in line (at 0 0 270) (length 0) (name "GND") (number "1") hide)
      )
    )
  )

  (junction (at 27.94 59.69))
  (junction (at 30.48 59.69))
  (junction (at 31.75 58.42))
  (junction (at 31.75 59.69))
  (junction (at 34.29 40.64))
  (junction (at 45.72 81.28))
  (junction (at 45.72 86.36))
  (junction (at 48.26 105.41))
  (junction (at 195.58 21.59))
  (junction (at 195.58 26.67))
  (junction (at 228.6 19.05))
  (junction (at 251.46 19.05))
  (junction (at 251.46 36.83))

  (no_connect (at 176.53 106.68))
  (no_connect (at 229.87 99.06))
  (no_connect (at 213.36 82.55))
  (no_connect (at 43.18 95.25))
  (no_connect (at 43.18 67.31))
  (no_connect (at 243.84 57.15))
  (no_connect (at 243.84 34.29))
  (no_connect (at 176.53 119.38))
  (no_connect (at 229.87 120.65))
  (no_connect (at 161.29 60.96))
  (no_connect (at 229.87 133.35))
  (no_connect (at 43.18 102.87))
  (no_connect (at 177.8 152.4))
  (no_connect (at 43.18 97.79))
  (no_connect (at 69.85 118.11))
  (no_connect (at 229.87 86.36))
  (no_connect (at 173.99 60.96))
  (no_connect (at 240.03 166.37))
  (no_connect (at 129.54 38.1))
  (no_connect (at 43.18 100.33))
  (no_connect (at 142.24 38.1))
  (no_connect (at 43.18 90.17))
  (no_connect (at 43.18 128.27))
  (no_connect (at 124.46 118.11))
  (no_connect (at 43.18 74.93))
  (no_connect (at 137.16 38.1))
  (no_connect (at 243.84 41.91))
  (no_connect (at 243.84 39.37))
  (no_connect (at 43.18 72.39))
  (no_connect (at 243.84 49.53))
  (no_connect (at 165.1 152.4))
  (no_connect (at 243.84 44.45))
  (no_connect (at 43.18 92.71))
  (no_connect (at 243.84 54.61))
  (no_connect (at 43.18 77.47))
  (no_connect (at 243.84 52.07))
  (no_connect (at 243.84 31.75))
  (no_connect (at 149.86 38.1))
  (no_connect (at 69.85 105.41))
  (no_connect (at 127 38.1))
  (no_connect (at 43.18 80.01))
  (no_connect (at 124.46 105.41))
  (no_connect (at 152.4 38.1))

  (wire (pts (xy 12.7 67.31) (xy 16.51 67.31)))
  (wire (pts (xy 16.51 59.69) (xy 27.94 59.69)))
  (wire (pts (xy 16.51 67.31) (xy 16.51 59.69)))
  (wire (pts (xy 22.86 45.72) (xy 25.4 45.72)))
  (wire (pts (xy 22.86 58.42) (xy 22.86 45.72)))
  (wire (pts (xy 22.86 58.42) (xy 31.75 58.42)))
  (wire (pts (xy 27.94 59.69) (xy 30.48 59.69)))
  (wire (pts (xy 30.48 45.72) (xy 34.29 45.72)))
  (wire (pts (xy 30.48 59.69) (xy 31.75 59.69)))
  (wire (pts (xy 31.75 58.42) (xy 31.75 55.88)))
  (wire (pts (xy 31.75 59.69) (xy 31.75 58.42)))
  (wire (pts (xy 31.75 59.69) (xy 34.29 59.69)))
  (wire (pts (xy 34.29 27.94) (xy 36.83 27.94)))
  (wire (pts (xy 34.29 40.64) (xy 31.75 40.64)))
  (wire (pts (xy 34.29 40.64) (xy 34.29 27.94)))
  (wire (pts (xy 34.29 40.64) (xy 36.83 40.64)))
  (wire (pts (xy 34.29 45.72) (xy 34.29 40.64)))
  (wire (pts (xy 43.18 82.55) (xy 44.45 82.55)))
  (wire (pts (xy 43.18 85.09) (xy 44.45 85.09)))
  (wire (pts (xy 44.45 81.28) (xy 45.72 81.28)))
  (wire (pts (xy 44.45 82.55) (xy 44.45 81.28)))
  (wire (pts (xy 44.45 85.09) (xy 44.45 86.36)))
  (wire (pts (xy 44.45 86.36) (xy 45.72 86.36)))
  (wire (pts (xy 48.26 105.41) (xy 43.18 105.41)))
  (wire (pts (xy 53.34 102.87) (xy 53.34 105.41)))
  (wire (pts (xy 53.34 105.41) (xy 48.26 105.41)))
  (wire (pts (xy 195.58 17.78) (xy 195.58 21.59)))
  (wire (pts (xy 195.58 21.59) (xy 195.58 26.67)))
  (wire (pts (xy 195.58 26.67) (xy 195.58 41.91)))
  (wire (pts (xy 195.58 26.67) (xy 208.28 26.67)))
  (wire (pts (xy 195.58 41.91) (xy 208.28 41.91)))
  (wire (pts (xy 223.52 64.77) (xy 228.6 64.77)))
  (wire (pts (xy 228.6 19.05) (xy 228.6 21.59)))
  (wire (pts (xy 228.6 19.05) (xy 251.46 19.05)))
  (wire (pts (xy 228.6 21.59) (xy 195.58 21.59)))
  (wire (pts (xy 248.92 36.83) (xy 251.46 36.83)))
  (wire (pts (xy 251.46 19.05) (xy 251.46 24.13)))
  (wire (pts (xy 251.46 19.05) (xy 259.08 19.05)))
  (wire (pts (xy 251.46 29.21) (xy 251.46 36.83)))
  (wire (pts (xy 251.46 36.83) (xy 254 36.83)))
  (wire (pts (xy 259.08 19.05) (xy 259.08 29.21)))

  (text "P1 Connector Side" (at 132.08 179.07 0)
    (effects (font (size 1.524 1.524)) (justify left bottom))
  )
  (text "P2 Connector Side\n" (at 231.14 77.47 0)
    (effects (font (size 1.524 1.524)) (justify left bottom))
  )
  (text "Output" (at 257.81 109.22 90)
    (effects (font (size 1.524 1.524)) (justify left bottom))
  )

  (global_label "GND" (shape input) (at 27.94 135.89 0)
    (effects (font (size 1.25 1.25)) (justify left))
  )
  (global_label "BUTTON" (shape input) (at 31.75 40.64 90)
    (effects (font (size 1.25 1.25)) (justify left))
  )
  (global_label "VCC" (shape input) (at 31.75 55.88 90)
    (effects (font (size 1.25 1.25)) (justify left))
  )
  (global_label "GND" (shape input) (at 33.02 143.51 0)
    (effects (font (size 1.25 1.25)) (justify left))
  )
  (global_label "GND" (shape input) (at 39.37 27.94 0)
    (effects (font (size 1.25 1.25)) (justify left))
  )
  (global_label "GND" (shape input) (at 39.37 59.69 0)
    (effects (font (size 1.25 1.25)) (justify left))
  )
  (global_label "LED" (shape input) (at 43.18 69.85 0)
    (effects (font (size 1.25 1.25)) (justify left))
  )
  (global_label "RX" (shape input) (at 43.18 110.49 0)
    (effects (font (size 1.25 1.25)) (justify left))
  )
  (global_label "TX" (shape input) (at 43.18 113.03 0)
    (effects (font (size 1.25 1.25)) (justify left))
  )
  (global_label "Enable_P1" (shape input) (at 43.18 115.57 0)
    (effects (font (size 1.25 1.25)) (justify left))
  )
  (global_label "Enable_P2" (shape input) (at 43.18 118.11 0)
    (effects (font (size 1.25 1.25)) (justify left))
  )
  (global_label "BUTTON" (shape input) (at 43.18 120.65 0)
    (effects (font (size 1.25 1.25)) (justify left))
  )
  (global_label "A" (shape input) (at 43.18 123.19 0)
    (effects (font (size 1.25 1.25)) (justify left))
  )
  (global_label "B" (shape input) (at 43.18 125.73 0)
    (effects (font (size 1.25 1.25)) (justify left))
  )
  (global_label "GND" (shape input) (at 46.99 40.64 0)
    (effects (font (size 1.25 1.25)) (justify left))
  )
  (global_label "VCC" (shape input) (at 48.26 100.33 90)
    (effects (font (size 1.25 1.25)) (justify left))
  )
  (global_label "GND" (shape input) (at 50.8 81.28 0)
    (effects (font (size 1.25 1.25)) (justify left))
  )
  (global_label "GND" (shape input) (at 50.8 86.36 0)
    (effects (font (size 1.25 1.25)) (justify left))
  )
  (global_label "RESET" (shape input) (at 53.34 102.87 90)
    (effects (font (size 1.25 1.25)) (justify left))
  )
  (global_label "LED" (shape input) (at 54.61 35.56 180)
    (effects (font (size 1.25 1.25)) (justify right))
  )
  (global_label "LED" (shape input) (at 54.61 45.72 180)
    (effects (font (size 1.25 1.25)) (justify right))
  )
  (global_label "LED" (shape input) (at 54.61 55.88 180)
    (effects (font (size 1.25 1.25)) (justify right))
  )
  (global_label "GND" (shape input) (at 64.77 35.56 90)
    (effects (font (size 1.25 1.25)) (justify left))
  )
  (global_label "GND" (shape input) (at 64.77 45.72 90)
    (effects (font (size 1.25 1.25)) (justify left))
  )
  (global_label "GND" (shape input) (at 64.77 55.88 90)
    (effects (font (size 1.25 1.25)) (justify left))
  )
  (global_label "A" (shape input) (at 69.85 87.63 180)
    (effects (font (size 1.25 1.25)) (justify right))
  )
  (global_label "B" (shape input) (at 69.85 90.17 180)
    (effects (font (size 1.25 1.25)) (justify right))
  )
  (global_label "Enable_P2" (shape input) (at 69.85 95.25 180)
    (effects (font (size 1.25 1.25)) (justify right))
  )
  (global_label "P2_SNES_D0" (shape input) (at 69.85 97.79 180)
    (effects (font (size 1.25 1.25)) (justify right))
  )
  (global_label "P2_NES_D0" (shape input) (at 69.85 100.33 180)
    (effects (font (size 1.25 1.25)) (justify right))
  )
  (global_label "P2_RPD_D0" (shape input) (at 69.85 102.87 180)
    (effects (font (size 1.25 1.25)) (justify right))
  )
  (global_label "Enable_P1" (shape input) (at 69.85 107.95 180)
    (effects (font (size 1.25 1.25)) (justify right))
  )
  (global_label "P1_SNES_D0" (shape input) (at 69.85 110.49 180)
    (effects (font (size 1.25 1.25)) (justify right))
  )
  (global_label "P1_NES_D0" (shape input) (at 69.85 113.03 180)
    (effects (font (size 1.25 1.25)) (justify right))
  )
  (global_label "P1_RPD_D0" (shape input) (at 69.85 115.57 180)
    (effects (font (size 1.25 1.25)) (justify right))
  )
  (global_label "VCC" (shape input) (at 74.93 132.08 180)
    (effects (font (size 1.25 1.25)) (justify right))
  )
  (global_label "P1_Clock" (shape input) (at 74.93 135.89 180)
    (effects (font (size 1.25 1.25)) (justify right))
  )
  (global_label "P1_Latch" (shape input) (at 74.93 139.7 180)
    (effects (font (size 1.25 1.25)) (justify right))
  )
  (global_label "P1_SNES_D0" (shape input) (at 74.93 143.51 180)
    (effects (font (size 1.25 1.25)) (justify right))
  )
  (global_label "P1_SNES_D1" (shape input) (at 74.93 148.59 180)
    (effects (font (size 1.25 1.25)) (justify right))
  )
  (global_label "P1_SNES_IO" (shape input) (at 74.93 152.4 180)
    (effects (font (size 1.25 1.25)) (justify right))
  )
  (global_label "GND" (shape input) (at 74.93 156.21 180)
    (effects (font (size 1.25 1.25)) (justify right))
  )
  (global_label "VCC" (shape input) (at 83.82 44.45 180)
    (effects (font (size 1.25 1.25)) (justify right))
  )
  (global_label "P2_Clock" (shape input) (at 83.82 48.26 180)
    (effects (font (size 1.25 1.25)) (justify right))
  )
  (global_label "P2_Latch" (shape input) (at 83.82 52.07 180)
    (effects (font (size 1.25 1.25)) (justify right))
  )
  (global_label "P2_SNES_D0" (shape input) (at 83.82 55.88 180)
    (effects (font (size 1.25 1.25)) (justify right))
  )
  (global_label "P2_SNES_D1" (shape input) (at 83.82 60.96 180)
    (effects (font (size 1.25 1.25)) (justify right))
  )
  (global_label "P2_SNES_IO" (shape input) (at 83.82 64.77 180)
    (effects (font (size 1.25 1.25)) (justify right))
  )
  (global_label "GND" (shape input) (at 83.82 68.58 180)
    (effects (font (size 1.25 1.25)) (justify right))
  )
  (global_label "GND" (shape input) (at 95.25 19.05 90)
    (effects (font (size 1.25 1.25)) (justify left))
  )
  (global_label "DATA-" (shape input) (at 95.25 24.13 180)
    (effects (font (size 1.25 1.25)) (justify right))
  )
  (global_label "DATA+" (shape input) (at 95.25 26.67 180)
    (effects (font (size 1.25 1.25)) (justify right))
  )
  (global_label "GND" (shape input) (at 95.25 31.75 270)
    (effects (font (size 1.25 1.25)) (justify right))
  )
  (global_label "P2_OUT_D0" (shape input) (at 97.79 100.33 90)
    (effects (font (size 1.25 1.25)) (justify left))
  )
  (global_label "P1_OUT_D0" (shape input) (at 97.79 113.03 270)
    (effects (font (size 1.25 1.25)) (justify right))
  )
  (global_label "USBD-" (shape input) (at 100.33 24.13 0)
    (effects (font (size 1.25 1.25)) (justify left))
  )
  (global_label "USBD+" (shape input) (at 100.33 26.67 0)
    (effects (font (size 1.25 1.25)) (justify left))
  )
  (global_label "GND" (shape input) (at 119.38 15.24 180)
    (effects (font (size 1.25 1.25)) (justify right))
  )
  (global_label "GND" (shape input) (at 119.38 22.86 180)
    (effects (font (size 1.25 1.25)) (justify right))
  )
  (global_label "GND" (shape input) (at 121.92 53.34 180)
    (effects (font (size 1.25 1.25)) (justify right))
  )
  (global_label "P2_Clock" (shape input) (at 121.92 57.15 180)
    (effects (font (size 1.25 1.25)) (justify right))
  )
  (global_label "P2_Latch" (shape input) (at 121.92 60.96 180)
    (effects (font (size 1.25 1.25)) (justify right))
  )
  (global_label "P2_NES_D0" (shape input) (at 121.92 64.77 180)
    (effects (font (size 1.25 1.25)) (justify right))
  )
  (global_label "A" (shape input) (at 124.46 87.63 180)
    (effects (font (size 1.25 1.25)) (justify right))
  )
  (global_label "B" (shape input) (at 124.46 90.17 180)
    (effects (font (size 1.25 1.25)) (justify right))
  )
  (global_label "Enable_P2" (shape input) (at 124.46 95.25 180)
    (effects (font (size 1.25 1.25)) (justify right))
  )
  (global_label "P2_SNES_D1" (shape input) (at 124.46 97.79 180)
    (effects (font (size 1.25 1.25)) (justify right))
  )
  (global_label "P2_NES_D3" (shape input) (at 124.46 100.33 180)
    (effects (font (size 1.25 1.25)) (justify right))
  )
  (global_label "P2_RPD_D1" (shape input) (at 124.46 102.87 180)
    (effects (font (size 1.25 1.25)) (justify right))
  )
  (global_label "Enable_P1" (shape input) (at 124.46 107.95 180)
    (effects (font (size 1.25 1.25)) (justify right))
  )
  (global_label "P1_SNES_D1" (shape input) (at 124.46 110.49 180)
    (effects (font (size 1.25 1.25)) (justify right))
  )
  (global_label "P1_NES_D3" (shape input) (at 124.46 113.03 180)
    (effects (font (size 1.25 1.25)) (justify right))
  )
  (global_label "P1_RPD_D1" (shape input) (at 124.46 115.57 180)
    (effects (font (size 1.25 1.25)) (justify right))
  )
  (global_label "GND" (shape input) (at 125.73 149.86 180)
    (effects (font (size 1.25 1.25)) (justify right))
  )
  (global_label "P1_Clock" (shape input) (at 125.73 153.67 180)
    (effects (font (size 1.25 1.25)) (justify right))
  )
  (global_label "P1_Latch" (shape input) (at 125.73 157.48 180)
    (effects (font (size 1.25 1.25)) (justify right))
  )
  (global_label "P1_NES_D0" (shape input) (at 125.73 161.29 180)
    (effects (font (size 1.25 1.25)) (justify right))
  )
  (global_label "VCC" (shape input) (at 134.62 57.15 0)
    (effects (font (size 1.25 1.25)) (justify left))
  )
  (global_label "P2_NES_D3" (shape input) (at 134.62 60.96 0)
    (effects (font (size 1.25 1.25)) (justify left))
  )
  (global_label "P2_NES_D4" (shape input) (at 134.62 64.77 0)
    (effects (font (size 1.25 1.25)) (justify left))
  )
  (global_label "VCC" (shape input) (at 138.43 153.67 0)
    (effects (font (size 1.25 1.25)) (justify left))
  )
  (global_label "P1_NES_D3" (shape input) (at 138.43 157.48 0)
    (effects (font (size 1.25 1.25)) (justify left))
  )
  (global_label "P1_NES_D4" (shape input) (at 138.43 161.29 0)
    (effects (font (size 1.25 1.25)) (justify left))
  )
  (global_label "DATA+" (shape input) (at 139.7 38.1 270)
    (effects (font (size 1.25 1.25)) (justify right))
  )
  (global_label "DATA-" (shape input) (at 144.78 38.1 270)
    (effects (font (size 1.25 1.25)) (justify right))
  )
  (global_label "P2_OUT_D1" (shape input) (at 152.4 100.33 90)
    (effects (font (size 1.25 1.25)) (justify left))
  )
  (global_label "P1_OUT_D1" (shape input) (at 152.4 113.03 270)
    (effects (font (size 1.25 1.25)) (justify right))
  )
  (global_label "GND" (shape input) (at 153.67 50.8 270)
    (effects (font (size 1.25 1.25)) (justify right))
  )
  (global_label "VCC" (shape input) (at 157.48 38.1 0)
    (effects (font (size 1.25 1.25)) (justify left))
  )
  (global_label "GND" (shape input) (at 158.75 60.96 270)
    (effects (font (size 1.25 1.25)) (justify right))
  )
  (global_label "P1_Clock" (shape input) (at 162.56 152.4 90)
    (effects (font (size 1.25 1.25)) (justify left))
  )
  (global_label "P2_RPD_IO" (shape input) (at 163.83 60.96 270)
    (effects (font (size 1.25 1.25)) (justify right))
  )
  (global_label "P2_RPD_D0" (shape input) (at 166.37 60.96 270)
    (effects (font (size 1.25 1.25)) (justify right))
  )
  (global_label "P1_Latch" (shape input) (at 167.64 152.4 90)
    (effects (font (size 1.25 1.25)) (justify left))
  )
  (global_label "P2_RPD_D1" (shape input) (at 168.91 60.96 270)
    (effects (font (size 1.25 1.25)) (justify right))
  )
  (global_label "P1_RPD_D1" (shape input) (at 170.18 152.4 90)
    (effects (font (size 1.25 1.25)) (justify left))
  )
  (global_label "P2_Latch" (shape input) (at 171.45 60.96 270)
    (effects (font (size 1.25 1.25)) (justify right))
  )
  (global_label "P1_RPD_D0" (shape input) (at 172.72 152.4 90)
    (effects (font (size 1.25 1.25)) (justify left))
  )
  (global_label "P1_RPD_IO" (shape input) (at 175.26 152.4 90)
    (effects (font (size 1.25 1.25)) (justify left))
  )
  (global_label "P2_Clock" (shape input) (at 176.53 60.96 270)
    (effects (font (size 1.25 1.25)) (justify right))
  )
  (global_label "A" (shape input) (at 176.53 88.9 180)
    (effects (font (size 1.25 1.25)) (justify right))
  )
  (global_label "B" (shape input) (at 176.53 91.44 180)
    (effects (font (size 1.25 1.25)) (justify right))
  )
  (global_label "Enable_P2" (shape input) (at 176.53 96.52 180)
    (effects (font (size 1.25 1.25)) (justify right))
  )
  (global_label "P2_SNES_IO" (shape input) (at 176.53 99.06 180)
    (effects (font (size 1.25 1.25)) (justify right))
  )
  (global_label "P2_NES_D4" (shape input) (at 176.53 101.6 180)
    (effects (font (size 1.25 1.25)) (justify right))
  )
  (global_label "P2_RPD_IO" (shape input) (at 176.53 104.14 180)
    (effects (font (size 1.25 1.25)) (justify right))
  )
  (global_label "Enable_P1" (shape input) (at 176.53 109.22 180)
    (effects (font (size 1.25 1.25)) (justify right))
  )
  (global_label "P1_SNES_IO" (shape input) (at 176.53 111.76 180)
    (effects (font (size 1.25 1.25)) (justify right))
  )
  (global_label "P1_NES_D4" (shape input) (at 176.53 114.3 180)
    (effects (font (size 1.25 1.25)) (justify right))
  )
  (global_label "P1_RPD_IO" (shape input) (at 176.53 116.84 180)
    (effects (font (size 1.25 1.25)) (justify right))
  )
  (global_label "GND" (shape input) (at 180.34 152.4 90)
    (effects (font (size 1.25 1.25)) (justify left))
  )
  (global_label "GND" (shape input) (at 185.42 162.56 270)
    (effects (font (size 1.25 1.25)) (justify right))
  )
  (global_label "GND" (shape input) (at 200.66 17.78 0)
    (effects (font (size 1.25 1.25)) (justify left))
  )
  (global_label "P2_OUT_IO" (shape input) (at 204.47 101.6 90)
    (effects (font (size 1.25 1.25)) (justify left))
  )
  (global_label "P1_OUT_IO" (shape input) (at 204.47 114.3 270)
    (effects (font (size 1.25 1.25)) (justify right))
  )
  (global_label "USBD-" (shape input) (at 208.28 34.29 180)
    (effects (font (size 1.25 1.25)) (justify right))
  )
  (global_label "USBD+" (shape input) (at 208.28 36.83 180)
    (effects (font (size 1.25 1.25)) (justify right))
  )
  (global_label "GND" (shape input) (at 208.28 64.77 180)
    (effects (font (size 1.25 1.25)) (justify right))
  )
  (global_label "P2_OUT_IO" (shape input) (at 208.28 67.31 180)
    (effects (font (size 1.25 1.25)) (justify right))
  )
  (global_label "P2_OUT_D0" (shape input) (at 208.28 69.85 180)
    (effects (font (size 1.25 1.25)) (justify right))
  )
  (global_label "P2_OUT_D1" (shape input) (at 208.28 72.39 180)
    (effects (font (size 1.25 1.25)) (justify right))
  )
  (global_label "P2_Latch" (shape input) (at 208.28 74.93 180)
    (effects (font (size 1.25 1.25)) (justify right))
  )
  (global_label "P2_Clock" (shape input) (at 208.28 77.47 180)
    (effects (font (size 1.25 1.25)) (justify right))
  )
  (global_label "VCC" (shape input) (at 218.44 19.05 180)
    (effects (font (size 1.25 1.25)) (justify right))
  )
  (global_label "GND" (shape input) (at 223.52 64.77 270)
    (effects (font (size 1.25 1.25)) (justify right))
  )
  (global_label "GND" (shape input) (at 229.87 83.82 180)
    (effects (font (size 1.25 1.25)) (justify right))
  )
  (global_label "P2_OUT_IO" (shape input) (at 229.87 88.9 180)
    (effects (font (size 1.25 1.25)) (justify right))
  )
  (global_label "P2_OUT_D0" (shape input) (at 229.87 91.44 180)
    (effects (font (size 1.25 1.25)) (justify right))
  )
  (global_label "P2_OUT_D1" (shape input) (at 229.87 93.98 180)
    (effects (font (size 1.25 1.25)) (justify right))
  )
  (global_label "P2_Latch" (shape input) (at 229.87 96.52 180)
    (effects (font (size 1.25 1.25)) (justify right))
  )
  (global_label "P2_Clock" (shape input) (at 229.87 101.6 180)
    (effects (font (size 1.25 1.25)) (justify right))
  )
  (global_label "GND" (shape input) (at 229.87 118.11 180)
    (effects (font (size 1.25 1.25)) (justify right))
  )
  (global_label "P1_OUT_IO" (shape input) (at 229.87 123.19 180)
    (effects (font (size 1.25 1.25)) (justify right))
  )
  (global_label "P1_OUT_D0" (shape input) (at 229.87 125.73 180)
    (effects (font (size 1.25 1.25)) (justify right))
  )
  (global_label "P1_OUT_D1" (shape input) (at 229.87 128.27 180)
    (effects (font (size 1.25 1.25)) (justify right))
  )
  (global_label "P1_Latch" (shape input) (at 229.87 130.81 180)
    (effects (font (size 1.25 1.25)) (justify right))
  )
  (global_label "P1_Clock" (shape input) (at 229.87 135.89 180)
    (effects (font (size 1.25 1.25)) (justify right))
  )
  (global_label "GND" (shape input) (at 234.95 148.59 180)
    (effects (font (size 1.25 1.25)) (justify right))
  )
  (global_label "P1_OUT_IO" (shape input) (at 234.95 151.13 180)
    (effects (font (size 1.25 1.25)) (justify right))
  )
  (global_label "P1_OUT_D0" (shape input) (at 234.95 153.67 180)
    (effects (font (size 1.25 1.25)) (justify right))
  )
  (global_label "P1_OUT_D1" (shape input) (at 234.95 156.21 180)
    (effects (font (size 1.25 1.25)) (justify right))
  )
  (global_label "P1_Latch" (shape input) (at 234.95 158.75 180)
    (effects (font (size 1.25 1.25)) (justify right))
  )
  (global_label "P1_Clock" (shape input) (at 234.95 161.29 180)
    (effects (font (size 1.25 1.25)) (justify right))
  )
  (global_label "GND" (shape input) (at 240.03 78.74 0)
    (effects (font (size 1.25 1.25)) (justify left))
  )
  (global_label "GND" (shape input) (at 240.03 113.03 0)
    (effects (font (size 1.25 1.25)) (justify left))
  )
  (global_label "RX" (shape input) (at 243.84 26.67 0)
    (effects (font (size 1.25 1.25)) (justify left))
  )
  (global_label "TX" (shape input) (at 243.84 29.21 0)
    (effects (font (size 1.25 1.25)) (justify left))
  )
  (global_label "RESET" (shape input) (at 264.16 36.83 270)
    (effects (font (size 1.25 1.25)) (justify right))
  )

  (symbol (lib_id "power1:GND") (at 33.02 143.51 270) (unit 1)
    (uuid "00000000-0000-0000-0000-00005952fb01")
    (property "Reference" "#PWR01" (id 0) (at 26.67 143.51 0)
      (effects (font (size 1.27 1.27)) hide)
    )
    (property "Value" "GND" (id 1) (at 29.7688 143.637 90)
      (effects (font (size 1.27 1.27)) (justify right))
    )
    (property "Footprint" "" (id 2) (at 33.02 143.51 0)
      (effects (font (size 1.27 1.27)) hide)
    )
    (property "Datasheet" "" (id 3) (at 33.02 143.51 0)
      (effects (font (size 1.27 1.27)) hide)
    )
  )

  (symbol (lib_id "device:R_Small_US") (at 27.94 45.72 90) (unit 1)
    (uuid "e15d3103-57ea-4689-a6c5-76ff46553f1a")
    (property "Reference" "R2" (id 0) (at 27.94 39.37 90))
    (property "Value" "R_Small_US" (id 1) (at 27.94 41.91 90))
    (property "Footprint" "Resistor_SMD:R_1806_4516Metric_Pad1.57x1.80mm_HandSolder" (id 2) (at 27.94 45.72 0)
      (effects (font (size 1.27 1.27)) hide)
    )
    (property "Datasheet" "~" (id 3) (at 27.94 45.72 0)
      (effects (font (size 1.27 1.27)) hide)
    )
  )

  (symbol (lib_id "device:R_Small_US") (at 48.26 102.87 180) (unit 1)
    (uuid "90914738-6c70-4275-9dfb-04c6676bc7c4")
    (property "Reference" "R1" (id 0) (at 50.8 101.6 0)
      (effects (font (size 1.27 1.27)) (justify right))
    )
    (property "Value" "R_Small_US" (id 1) (at 50.8 102.87 0)
      (effects (font (size 1.27 1.27)) (justify right))
    )
    (property "Footprint" "Resistor_SMD:R_1806_4516Metric_Pad1.57x1.80mm_HandSolder" (id 2) (at 48.26 102.87 0)
      (effects (font (size 1.27 1.27)) hide)
    )
    (property "Datasheet" "~" (id 3) (at 48.26 102.87 0)
      (effects (font (size 1.27 1.27)) hide)
    )
  )

  (symbol (lib_id "device:R_Small_US") (at 57.15 35.56 90) (unit 1)
    (uuid "ff235138-518b-4e79-9fe7-d1a8860f6430")
    (property "Reference" "R6" (id 0) (at 57.15 29.21 90))
    (property "Value" "R_Small_US" (id 1) (at 57.15 31.75 90))
    (property "Footprint" "Resistor_SMD:R_1806_4516Metric_Pad1.57x1.80mm_HandSolder" (id 2) (at 57.15 35.56 0)
      (effects (font (size 1.27 1.27)) hide)
    )
    (property "Datasheet" "~" (id 3) (at 57.15 35.56 0)
      (effects (font (size 1.27 1.27)) hide)
    )
  )

  (symbol (lib_id "device:R_Small_US") (at 57.15 45.72 90) (unit 1)
    (uuid "e452d982-5c0f-43fa-b2b6-234443a2dba1")
    (property "Reference" "R7" (id 0) (at 57.15 39.37 90))
    (property "Value" "R_Small_US" (id 1) (at 57.15 41.91 90))
    (property "Footprint" "Resistor_SMD:R_1806_4516Metric_Pad1.57x1.80mm_HandSolder" (id 2) (at 57.15 45.72 0)
      (effects (font (size 1.27 1.27)) hide)
    )
    (property "Datasheet" "~" (id 3) (at 57.15 45.72 0)
      (effects (font (size 1.27 1.27)) hide)
    )
  )

  (symbol (lib_id "device:R_Small_US") (at 57.15 55.88 90) (unit 1)
    (uuid "cfc8cf35-aa45-420f-a229-e2fd9f92db6f")
    (property "Reference" "R8" (id 0) (at 57.15 49.53 90))
    (property "Value" "R_Small_US" (id 1) (at 57.15 52.07 90))
    (property "Footprint" "Resistor_SMD:R_1806_4516Metric_Pad1.57x1.80mm_HandSolder" (id 2) (at 57.15 55.88 0)
      (effects (font (size 1.27 1.27)) hide)
    )
    (property "Datasheet" "~" (id 3) (at 57.15 55.88 0)
      (effects (font (size 1.27 1.27)) hide)
    )
  )

  (symbol (lib_id "device:R_Small_US") (at 97.79 24.13 90) (unit 1)
    (uuid "4050ee15-5a33-4fb5-96b1-0e45cb6929ca")
    (property "Reference" "R4" (id 0) (at 73.66 24.13 90))
    (property "Value" "R_Small_US" (id 1) (at 81.28 24.13 90))
    (property "Footprint" "Resistor_THT:R_Axial_DIN0204_L3.6mm_D1.6mm_P5.08mm_Horizontal" (id 2) (at 97.79 24.13 0)
      (effects (font (size 1.27 1.27)) hide)
    )
    (property "Datasheet" "~" (id 3) (at 97.79 24.13 0)
      (effects (font (size 1.27 1.27)) hide)
    )
  )

  (symbol (lib_id "device:R_Small_US") (at 97.79 26.67 90) (unit 1)
    (uuid "e5c3cb66-64af-4ccb-a736-5ec45f0a4392")
    (property "Reference" "R5" (id 0) (at 73.66 26.67 90))
    (property "Value" "R_Small_US" (id 1) (at 81.28 26.67 90))
    (property "Footprint" "Capacitor_THT:C_Disc_D4.3mm_W1.9mm_P5.00mm" (id 2) (at 97.79 26.67 0)
      (effects (font (size 1.27 1.27)) hide)
    )
    (property "Datasheet" "~" (id 3) (at 97.79 26.67 0)
      (effects (font (size 1.27 1.27)) hide)
    )
  )

  (symbol (lib_id "device:R_Small_US") (at 251.46 26.67 180) (unit 1)
    (uuid "75da80a5-804c-47b8-a90d-6300cc5139b4")
    (property "Reference" "R3" (id 0) (at 254 25.4 0)
      (effects (font (size 1.27 1.27)) (justify right))
    )
    (property "Value" "R_Small_US" (id 1) (at 254 26.67 0)
      (effects (font (size 1.27 1.27)) (justify right))
    )
    (property "Footprint" "Resistor_SMD:R_1806_4516Metric_Pad1.57x1.80mm_HandSolder" (id 2) (at 251.46 26.67 0)
      (effects (font (size 1.27 1.27)) hide)
    )
    (property "Datasheet" "~" (id 3) (at 251.46 26.67 0)
      (effects (font (size 1.27 1.27)) hide)
    )
  )

  (symbol (lib_id "device:LED_Small") (at 62.23 35.56 180) (unit 1)
    (uuid "fe94f23c-462c-4d0c-8872-913941bdd97d")
    (property "Reference" "D1" (id 0) (at 62.23 29.21 0))
    (property "Value" "LED_Small" (id 1) (at 62.23 31.75 0))
    (property "Footprint" "LED_THT:LED_D5.0mm" (id 2) (at 62.23 35.56 90)
      (effects (font (size 1.27 1.27)) hide)
    )
    (property "Datasheet" "~" (id 3) (at 62.23 35.56 90)
      (effects (font (size 1.27 1.27)) hide)
    )
  )

  (symbol (lib_id "device:LED_Small") (at 62.23 45.72 180) (unit 1)
    (uuid "3ea4b388-81da-4314-a90d-9b07fd49b653")
    (property "Reference" "D2" (id 0) (at 62.23 39.37 0))
    (property "Value" "LED_Small" (id 1) (at 62.23 41.91 0))
    (property "Footprint" "LED_THT:LED_D5.0mm" (id 2) (at 62.23 45.72 90)
      (effects (font (size 1.27 1.27)) hide)
    )
    (property "Datasheet" "~" (id 3) (at 62.23 45.72 90)
      (effects (font (size 1.27 1.27)) hide)
    )
  )

  (symbol (lib_id "device:LED_Small") (at 62.23 55.88 180) (unit 1)
    (uuid "b49b57f5-88fe-4ba7-a7ee-539dcbd505d1")
    (property "Reference" "D3" (id 0) (at 62.23 49.53 0))
    (property "Value" "LED_Small" (id 1) (at 62.23 52.07 0))
    (property "Footprint" "LED_THT:LED_D5.0mm" (id 2) (at 62.23 55.88 90)
      (effects (font (size 1.27 1.27)) hide)
    )
    (property "Datasheet" "~" (id 3) (at 62.23 55.88 90)
      (effects (font (size 1.27 1.27)) hide)
    )
  )

  (symbol (lib_id "device:Crystal_Small") (at 45.72 83.82 90) (unit 1)
    (uuid "1ae74d9e-4d08-434c-9c2c-25ed411c49c0")
    (property "Reference" "Y1" (id 0) (at 48.26 82.55 90)
      (effects (font (size 1.27 1.27)) (justify right))
    )
    (property "Value" "Crystal_Small" (id 1) (at 48.26 83.82 90)
      (effects (font (size 1.27 1.27)) (justify right))
    )
    (property "Footprint" "Crystal:Crystal_HC18-U_Vertical" (id 2) (at 45.72 83.82 0)
      (effects (font (size 1.27 1.27)) hide)
    )
    (property "Datasheet" "~" (id 3) (at 45.72 83.82 0)
      (effects (font (size 1.27 1.27)) hide)
    )
  )

  (symbol (lib_id "Device:C_Small") (at 36.83 59.69 90) (unit 1)
    (uuid "7e814677-49fa-4685-92e0-854226324dfd")
    (property "Reference" "C8" (id 0) (at 35.56 57.15 0)
      (effects (font (size 1.27 1.27)) (justify left))
    )
    (property "Value" "C_Small" (id 1) (at 36.83 57.15 0)
      (effects (font (size 1.27 1.27)) (justify left))
    )
    (property "Footprint" "Capacitor_SMD:C_1806_4516Metric_Pad1.57x1.80mm_HandSolder" (id 2) (at 36.83 59.69 0)
      (effects (font (size 1.27 1.27)) hide)
    )
    (property "Datasheet" "~" (id 3) (at 36.83 59.69 0)
      (effects (font (size 1.27 1.27)) hide)
    )
  )

  (symbol (lib_id "device:C_Small") (at 48.26 81.28 90) (unit 1)
    (uuid "753cdbce-d66b-46a4-a662-924ec0c6cc6a")
    (property "Reference" "C11" (id 0) (at 48.26 74.93 90))
    (property "Value" "C_Small" (id 1) (at 48.26 77.47 90))
    (property "Footprint" "Capacitor_SMD:C_1806_4516Metric_Pad1.57x1.80mm_HandSolder" (id 2) (at 48.26 81.28 0)
      (effects (font (size 1.27 1.27)) hide)
    )
    (property "Datasheet" "~" (id 3) (at 48.26 81.28 0)
      (effects (font (size 1.27 1.27)) hide)
    )
  )

  (symbol (lib_id "device:C_Small") (at 48.26 86.36 90) (unit 1)
    (uuid "fba647b0-6fb3-4bc7-8fca-738be3f5cb8f")
    (property "Reference" "C12" (id 0) (at 48.26 90.17 90))
    (property "Value" "C_Small" (id 1) (at 48.26 92.71 90))
    (property "Footprint" "Capacitor_SMD:C_1806_4516Metric_Pad1.57x1.80mm_HandSolder" (id 2) (at 48.26 86.36 0)
      (effects (font (size 1.27 1.27)) hide)
    )
    (property "Datasheet" "~" (id 3) (at 48.26 86.36 0)
      (effects (font (size 1.27 1.27)) hide)
    )
  )

  (symbol (lib_id "Device:C_Small") (at 86.36 85.09 90) (unit 1)
    (uuid "dfcb3588-ffb3-423c-a12d-a209d54c99da")
    (property "Reference" "C2" (id 0) (at 85.09 82.55 0)
      (effects (font (size 1.27 1.27)) (justify left))
    )
    (property "Value" "C_Small" (id 1) (at 86.36 82.55 0)
      (effects (font (size 1.27 1.27)) (justify left))
    )
    (property "Footprint" "Capacitor_SMD:C_1806_4516Metric_Pad1.57x1.80mm_HandSolder" (id 2) (at 86.36 85.09 0)
      (effects (font (size 1.27 1.27)) hide)
    )
    (property "Datasheet" "~" (id 3) (at 86.36 85.09 0)
      (effects (font (size 1.27 1.27)) hide)
    )
  )

  (symbol (lib_id "device:C_Small") (at 95.25 21.59 0) (unit 1)
    (uuid "32fee8cd-5127-42d3-a698-9a14918077bd")
    (property "Reference" "C7" (id 0) (at 97.79 20.32 0)
      (effects (font (size 1.27 1.27)) (justify left))
    )
    (property "Value" "C_Small" (id 1) (at 100.33 20.32 0)
      (effects (font (size 1.27 1.27)) (justify left))
    )
    (property "Footprint" "Capacitor_THT:C_Disc_D4.3mm_W1.9mm_P5.00mm" (id 2) (at 95.25 21.59 0)
      (effects (font (size 1.27 1.27)) hide)
    )
    (property "Datasheet" "~" (id 3) (at 95.25 21.59 0)
      (effects (font (size 1.27 1.27)) hide)
    )
  )

  (symbol (lib_id "device:C_Small") (at 95.25 29.21 0) (unit 1)
    (uuid "908cd8fe-2336-4f75-bac6-5ad047bf6db1")
    (property "Reference" "C10" (id 0) (at 97.79 29.21 0)
      (effects (font (size 1.27 1.27)) (justify left))
    )
    (property "Value" "C_Small" (id 1) (at 101.6 29.21 0)
      (effects (font (size 1.27 1.27)) (justify left))
    )
    (property "Footprint" "Capacitor_THT:C_Disc_D4.3mm_W1.9mm_P5.00mm" (id 2) (at 95.25 29.21 0)
      (effects (font (size 1.27 1.27)) hide)
    )
    (property "Datasheet" "~" (id 3) (at 95.25 29.21 0)
      (effects (font (size 1.27 1.27)) hide)
    )
  )

  (symbol (lib_id "Device:C_Small") (at 140.97 85.09 90) (unit 1)
    (uuid "a1f1472c-09ed-455b-8648-f8f7be74ed96")
    (property "Reference" "C5" (id 0) (at 139.7 82.55 0)
      (effects (font (size 1.27 1.27)) (justify left))
    )
    (property "Value" "C_Small" (id 1) (at 140.97 82.55 0)
      (effects (font (size 1.27 1.27)) (justify left))
    )
    (property "Footprint" "Capacitor_SMD:C_1806_4516Metric_Pad1.57x1.80mm_HandSolder" (id 2) (at 140.97 85.09 0)
      (effects (font (size 1.27 1.27)) hide)
    )
    (property "Datasheet" "~" (id 3) (at 140.97 85.09 0)
      (effects (font (size 1.27 1.27)) hide)
    )
  )

  (symbol (lib_id "Device:C_Small") (at 193.04 86.36 90) (unit 1)
    (uuid "1f86bbb1-270a-4cd8-b6b6-1a0c8a407b04")
    (property "Reference" "C3" (id 0) (at 191.77 83.82 0)
      (effects (font (size 1.27 1.27)) (justify left))
    )
    (property "Value" "C_Small" (id 1) (at 193.04 83.82 0)
      (effects (font (size 1.27 1.27)) (justify left))
    )
    (property "Footprint" "Capacitor_SMD:C_1806_4516Metric_Pad1.57x1.80mm_HandSolder" (id 2) (at 193.04 86.36 0)
      (effects (font (size 1.27 1.27)) hide)
    )
    (property "Datasheet" "~" (id 3) (at 193.04 86.36 0)
      (effects (font (size 1.27 1.27)) hide)
    )
  )

  (symbol (lib_id "Device:C_Small") (at 198.12 17.78 90) (unit 1)
    (uuid "1c374f6c-e6e2-4dfb-9ae0-7dc059c68724")
    (property "Reference" "C4" (id 0) (at 198.12 11.43 90))
    (property "Value" "C_Small" (id 1) (at 198.12 13.97 90))
    (property "Footprint" "Capacitor_SMD:C_1806_4516Metric_Pad1.57x1.80mm_HandSolder" (id 2) (at 198.12 17.78 0)
      (effects (font (size 1.27 1.27)) hide)
    )
    (property "Datasheet" "~" (id 3) (at 198.12 17.78 0)
      (effects (font (size 1.27 1.27)) hide)
    )
  )

  (symbol (lib_id "Device:C_Small") (at 220.98 19.05 90) (unit 1)
    (uuid "7cd95100-6c16-47ac-86a6-6dd4f12e29c0")
    (property "Reference" "C9" (id 0) (at 220.98 12.7 90))
    (property "Value" "C_Small" (id 1) (at 220.98 15.24 90))
    (property "Footprint" "Capacitor_SMD:C_1806_4516Metric_Pad1.57x1.80mm_HandSolder" (id 2) (at 220.98 19.05 0)
      (effects (font (size 1.27 1.27)) hide)
    )
    (property "Datasheet" "~" (id 3) (at 220.98 19.05 0)
      (effects (font (size 1.27 1.27)) hide)
    )
  )

  (symbol (lib_id "Device:C_Small") (at 246.38 36.83 90) (unit 1)
    (uuid "dbc52896-5b0e-46a2-b92b-27cc5fbb38d2")
    (property "Reference" "C6" (id 0) (at 246.38 30.48 90))
    (property "Value" "C_Small" (id 1) (at 246.38 33.02 90))
    (property "Footprint" "Capacitor_SMD:C_1806_4516Metric_Pad1.57x1.80mm_HandSolder" (id 2) (at 246.38 36.83 0)
      (effects (font (size 1.27 1.27)) hide)
    )
    (property "Datasheet" "~" (id 3) (at 246.38 36.83 0)
      (effects (font (size 1.27 1.27)) hide)
    )
  )

  (symbol (lib_id "Switch:SW_Push") (at 41.91 40.64 0) (unit 1)
    (uuid "4b91ec89-3d8f-4b71-a09b-8e2b39cb5d21")
    (property "Reference" "SW1" (id 0) (at 41.91 33.02 0))
    (property "Value" "SW_Push" (id 1) (at 41.91 35.56 0))
    (property "Footprint" "Button_Switch_THT:KSA_Tactile_SPST" (id 2) (at 41.91 35.56 0)
      (effects (font (size 1.27 1.27)) hide)
    )
    (property "Datasheet" "~" (id 3) (at 41.91 35.56 0)
      (effects (font (size 1.27 1.27)) hide)
    )
  )

  (symbol (lib_id "Connector:AudioJack2") (at 36.83 22.86 270) (unit 1)
    (uuid "8ab7f373-5b29-4fd6-978e-de86b4beca23")
    (property "Reference" "J8" (id 0) (at 41.91 21.59 90)
      (effects (font (size 1.27 1.27)) (justify left))
    )
    (property "Value" "AudioJack2" (id 1) (at 41.91 24.13 90)
      (effects (font (size 1.27 1.27)) (justify left))
    )
    (property "Footprint" "Connector_Audio:Jack_3.5mm_CUI_SJ1-3533NG_Horizontal" (id 2) (at 36.83 22.86 0)
      (effects (font (size 1.27 1.27)) hide)
    )
    (property "Datasheet" "~" (id 3) (at 36.83 22.86 0)
      (effects (font (size 1.27 1.27)) hide)
    )
  )

  (symbol (lib_id "Connector_Generic:Conn_01x06") (at 213.36 69.85 0) (unit 1)
    (uuid "66937fa3-e7d4-4a0d-b840-962688efebe9")
    (property "Reference" "J6" (id 0) (at 215.9 69.85 0)
      (effects (font (size 1.27 1.27)) (justify left))
    )
    (property "Value" "Conn_01x06" (id 1) (at 215.9 72.39 0)
      (effects (font (size 1.27 1.27)) (justify left))
    )
    (property "Footprint" "Connector_PinHeader_1.00mm:PinHeader_1x06_P1.00mm_Vertical" (id 2) (at 213.36 69.85 0)
      (effects (font (size 1.27 1.27)) hide)
    )
    (property "Datasheet" "~" (id 3) (at 213.36 69.85 0)
      (effects (font (size 1.27 1.27)) hide)
    )
  )

  (symbol (lib_id "Connector_Generic:Conn_01x06") (at 240.03 153.67 0) (unit 1)
    (uuid "3e878222-5fdb-4579-8da9-67a7514a9f54")
    (property "Reference" "J7" (id 0) (at 242.57 153.67 0)
      (effects (font (size 1.27 1.27)) (justify left))
    )
    (property "Value" "Conn_01x06" (id 1) (at 242.57 156.21 0)
      (effects (font (size 1.27 1.27)) (justify left))
    )
    (property "Footprint" "Connector_PinHeader_1.00mm:PinHeader_1x06_P1.00mm_Vertical" (id 2) (at 240.03 153.67 0)
      (effects (font (size 1.27 1.27)) hide)
    )
    (property "Datasheet" "~" (id 3) (at 240.03 153.67 0)
      (effects (font (size 1.27 1.27)) hide)
    )
  )

  (symbol (lib_id "Transistor_FET:2N7002K") (at 259.08 34.29 270) (unit 1)
    (uuid "6ea8e76a-0e3f-44fb-b099-64dd9c1082eb")
    (property "Reference" "Q1" (id 0) (at 259.08 41.91 90))
    (property "Value" "2N7002K" (id 1) (at 259.08 44.45 90))
    (property "Footprint" "Package_TO_SOT_SMD:SOT-23" (id 2) (at 257.175 39.37 0)
      (effects (font (size 1.27 1.27) italic) (justify left) hide)
    )
    (property "Datasheet" "https://www.diodes.com/assets/Datasheets/ds30896.pdf" (id 3) (at 259.08 34.29 0)
      (effects (font (size 1.27 1.27)) (justify left) hide)
    )
  )

  (symbol (lib_name "nes_ctrl:NES_CTRL_1") (lib_id "nes_ctrl:NES_CTRL") (at 129.54 48.26 0) (unit 1)
    (uuid "91f965a3-40c7-4ede-965f-366fffa6b6e3")
    (property "Reference" "U6" (id 0) (at 128.27 45.72 0)
      (effects (font (size 1.524 1.524)))
    )
    (property "Value" "NES_CTRL" (id 1) (at 128.27 48.26 0)
      (effects (font (size 1.524 1.524)))
    )
    (property "Footprint" "NES_CTRL:nes_ctrl" (id 2) (at 129.54 49.53 0)
      (effects (font (size 1.524 1.524)) hide)
    )
    (property "Datasheet" "" (id 3) (at 129.54 49.53 0)
      (effects (font (size 1.524 1.524)) hide)
    )
  )

  (symbol (lib_id "nes_ctrl:NES_CTRL") (at 133.35 144.78 0) (unit 1)
    (uuid "f92b596e-c471-4548-8e65-4af85341ec6c")
    (property "Reference" "U7" (id 0) (at 132.08 142.24 0)
      (effects (font (size 1.524 1.524)))
    )
    (property "Value" "NES_CTRL" (id 1) (at 132.08 144.78 0)
      (effects (font (size 1.524 1.524)))
    )
    (property "Footprint" "NES_CTRL:nes_ctrl" (id 2) (at 133.35 146.05 0)
      (effects (font (size 1.524 1.524)) hide)
    )
    (property "Datasheet" "" (id 3) (at 133.35 146.05 0)
      (effects (font (size 1.524 1.524)) hide)
    )
  )

  (symbol (lib_id "mutli-tas-rescue:SNES_CTRL-nes_ctrl") (at 85.09 146.05 270) (unit 1)
    (uuid "00000000-0000-0000-0000-00005aa03cde")
    (property "Reference" "P12" (id 0) (at 88.5698 141.351 0)
      (effects (font (size 1.524 1.524)))
    )
    (property "Value" "SNES_CTRL" (id 1) (at 86.36 140.97 0)
      (effects (font (size 1.524 1.524)))
    )
    (property "Footprint" "NES_CTRL:SNES_CTRL" (id 2) (at 57.15 144.78 0)
      (effects (font (size 1.524 1.524)) hide)
    )
    (property "Datasheet" "" (id 3) (at 57.15 144.78 0)
      (effects (font (size 1.524 1.524)) hide)
    )
  )

  (symbol (lib_id "mutli-tas-rescue:SNES_CTRL-nes_ctrl") (at 93.98 58.42 270) (unit 1)
    (uuid "00000000-0000-0000-0000-00005aa03b6d")
    (property "Reference" "P22" (id 0) (at 97.4598 53.721 0)
      (effects (font (size 1.524 1.524)))
    )
    (property "Value" "SNES_CTRL" (id 1) (at 94.7674 53.721 0)
      (effects (font (size 1.524 1.524)))
    )
    (property "Footprint" "NES_CTRL:SNES_CTRL" (id 2) (at 66.04 57.15 0)
      (effects (font (size 1.524 1.524)) hide)
    )
    (property "Datasheet" "" (id 3) (at 66.04 57.15 0)
      (effects (font (size 1.524 1.524)) hide)
    )
  )

  (symbol (lib_id "Connector:RJ45_Shielded") (at 166.37 50.8 270) (unit 1)
    (uuid "7e12418f-bc06-4fd8-b5cf-a80f4371acc9")
    (property "Reference" "J2" (id 0) (at 180.34 50.8 90)
      (effects (font (size 1.27 1.27)) (justify left))
    )
    (property "Value" "RJ45_Shielded" (id 1) (at 180.34 53.34 90)
      (effects (font (size 1.27 1.27)) (justify left))
    )
    (property "Footprint" "Connector_RJ:RJ45_Ninigi_GE" (id 2) (at 167.005 50.8 90)
      (effects (font (size 1.27 1.27)) hide)
    )
    (property "Datasheet" "~" (id 3) (at 167.005 50.8 90)
      (effects (font (size 1.27 1.27)) hide)
    )
  )

  (symbol (lib_id "Connector:RJ45_Shielded") (at 172.72 162.56 90) (unit 1)
    (uuid "1418e342-2153-479a-adfc-89c2d3596c4a")
    (property "Reference" "J3" (id 0) (at 195.58 153.67 90))
    (property "Value" "RJ45_Shielded" (id 1) (at 195.58 157.48 90))
    (property "Footprint" "Connector_RJ:RJ45_Ninigi_GE" (id 2) (at 172.085 162.56 90)
      (effects (font (size 1.27 1.27)) hide)
    )
    (property "Datasheet" "~" (id 3) (at 172.085 162.56 90)
      (effects (font (size 1.27 1.27)) hide)
    )
  )

  (symbol (lib_id "Connector:RJ45_Shielded") (at 240.03 91.44 180) (unit 1)
    (uuid "787b0d58-940c-42fe-b351-9b37377ab094")
    (property "Reference" "J4" (id 0) (at 248.92 88.9 0)
      (effects (font (size 1.27 1.27)) (justify right))
    )
    (property "Value" "RJ45_Shielded" (id 1) (at 248.92 91.44 0)
      (effects (font (size 1.27 1.27)) (justify right))
    )
    (property "Footprint" "Connector_RJ:RJ45_Ninigi_GE" (id 2) (at 240.03 92.075 90)
      (effects (font (size 1.27 1.27)) hide)
    )
    (property "Datasheet" "~" (id 3) (at 240.03 92.075 90)
      (effects (font (size 1.27 1.27)) hide)
    )
  )

  (symbol (lib_id "Connector:RJ45_Shielded") (at 240.03 125.73 180) (unit 1)
    (uuid "ab27d43e-0288-4109-aa00-2cbd7212cfc8")
    (property "Reference" "J5" (id 0) (at 248.92 123.19 0)
      (effects (font (size 1.27 1.27)) (justify right))
    )
    (property "Value" "RJ45_Shielded" (id 1) (at 248.92 125.73 0)
      (effects (font (size 1.27 1.27)) (justify right))
    )
    (property "Footprint" "Connector_RJ:RJ45_Ninigi_GE" (id 2) (at 240.03 126.365 90)
      (effects (font (size 1.27 1.27)) hide)
    )
    (property "Datasheet" "~" (id 3) (at 240.03 126.365 90)
      (effects (font (size 1.27 1.27)) hide)
    )
  )

  (symbol (lib_id "74xx_IEEE:74153") (at 83.82 104.14 0) (unit 1)
    (uuid "6c9d4a87-553a-4df4-a004-087b706d6fc5")
    (property "Reference" "U1" (id 0) (at 83.82 78.74 0))
    (property "Value" "74153" (id 1) (at 83.82 81.28 0))
    (property "Footprint" "Package_SO:SOIC-16_4.55x10.3mm_P1.27mm" (id 2) (at 83.82 104.14 0)
      (effects (font (size 1.27 1.27)) hide)
    )
    (property "Datasheet" "" (id 3) (at 83.82 104.14 0)
      (effects (font (size 1.27 1.27)) hide)
    )
  )

  (symbol (lib_id "74xx_IEEE:74153") (at 138.43 104.14 0) (unit 1)
    (uuid "1a64d3ed-92f2-4c50-9781-5c1141b697b5")
    (property "Reference" "U2" (id 0) (at 138.43 78.74 0))
    (property "Value" "74153" (id 1) (at 138.43 81.28 0))
    (property "Footprint" "Package_SO:SOIC-16_4.55x10.3mm_P1.27mm" (id 2) (at 138.43 104.14 0)
      (effects (font (size 1.27 1.27)) hide)
    )
    (property "Datasheet" "" (id 3) (at 138.43 104.14 0)
      (effects (font (size 1.27 1.27)) hide)
    )
  )

  (symbol (lib_id "74xx_IEEE:74153") (at 190.5 105.41 0) (unit 1)
    (uuid "1afa9750-1c08-48c6-b439-dcc6a1305034")
    (property "Reference" "U3" (id 0) (at 190.5 80.01 0))
    (property "Value" "74153" (id 1) (at 190.5 82.55 0))
    (property "Footprint" "Package_SO:SOIC-16_4.55x10.3mm_P1.27mm" (id 2) (at 190.5 105.41 0)
      (effects (font (size 1.27 1.27)) hide)
    )
    (property "Datasheet" "" (id 3) (at 190.5 105.41 0)
      (effects (font (size 1.27 1.27)) hide)
    )
  )

  (symbol (lib_id "Connector:USB_C_Receptacle_USB2.0") (at 142.24 22.86 270) (unit 1)
    (uuid "70365e19-0f5d-4d1c-813f-e805bd719b9d")
    (property "Reference" "J1" (id 0) (at 161.29 24.13 90)
      (effects (font (size 1.27 1.27)) (justify left))
    )
    (property "Value" "USB_C_Receptacle_USB2.0" (id 1) (at 161.29 26.67 90)
      (effects (font (size 1.27 1.27)) (justify left))
    )
    (property "Footprint" "Connector_USB:USB_C_Receptacle_GCT_USB4085" (id 2) (at 142.24 26.67 0)
      (effects (font (size 1.27 1.27)) hide)
    )
    (property "Datasheet" "https://www.usb.org/sites/default/files/documents/usb_type-c.zip" (id 3) (at 142.24 26.67 0)
      (effects (font (size 1.27 1.27)) hide)
    )
  )

  (symbol (lib_id "Interface_USB:FT231XS") (at 226.06 41.91 0) (unit 1)
    (uuid "00b01282-eb96-4d10-b3b7-64730d802998")
    (property "Reference" "U5" (id 0) (at 226.06 13.97 0))
    (property "Value" "FT231XS" (id 1) (at 226.06 16.51 0))
    (property "Footprint" "Package_SO:SSOP-20_3.9x8.7mm_P0.635mm" (id 2) (at 251.46 62.23 0)
      (effects (font (size 1.27 1.27)) hide)
    )
    (property "Datasheet" "https://www.ftdichip.com/Support/Documents/DataSheets/ICs/DS_FT231X.pdf" (id 3) (at 226.06 41.91 0)
      (effects (font (size 1.27 1.27)) hide)
    )
  )

  (symbol (lib_id "MCU_Microchip_ATmega:ATmega328P-PU") (at 27.94 97.79 0) (unit 1)
    (uuid "30cb2606-30c8-47ab-9796-79e278e070b4")
    (property "Reference" "U4" (id 0) (at 11.43 96.52 0)
      (effects (font (size 1.27 1.27)) (justify right))
    )
    (property "Value" "ATmega328P-PU" (id 1) (at 11.43 97.79 0)
      (effects (font (size 1.27 1.27)) (justify right))
    )
    (property "Footprint" "Package_DIP:DIP-28_W7.62mm" (id 2) (at 27.94 97.79 0)
      (effects (font (size 1.27 1.27) italic) hide)
    )
    (property "Datasheet" "http://ww1.microchip.com/downloads/en/DeviceDoc/ATmega328_P%20AVR%20MCU%20with%20picoPower%20Technology%20Data%20Sheet%2040001984A.pdf" (id 3) (at 27.94 97.79 0)
      (effects (font (size 1.27 1.27)) hide)
    )
  )

  (symbol_instances
    (path "/00000000-0000-0000-0000-00005952fb01" (reference "#PWR01") (unit 1))
    (path "/dfcb3588-ffb3-423c-a12d-a209d54c99da" (reference "C2") (unit 1))
    (path "/1f86bbb1-270a-4cd8-b6b6-1a0c8a407b04" (reference "C3") (unit 1))
    (path "/1c374f6c-e6e2-4dfb-9ae0-7dc059c68724" (reference "C4") (unit 1))
    (path "/a1f1472c-09ed-455b-8648-f8f7be74ed96" (reference "C5") (unit 1))
    (path "/dbc52896-5b0e-46a2-b92b-27cc5fbb38d2" (reference "C6") (unit 1))
    (path "/32fee8cd-5127-42d3-a698-9a14918077bd" (reference "C7") (unit 1))
    (path "/7e814677-49fa-4685-92e0-854226324dfd" (reference "C8") (unit 1))
    (path "/7cd95100-6c16-47ac-86a6-6dd4f12e29c0" (reference "C9") (unit 1))
    (path "/908cd8fe-2336-4f75-bac6-5ad047bf6db1" (reference "C10") (unit 1))
    (path "/753cdbce-d66b-46a4-a662-924ec0c6cc6a" (reference "C11") (unit 1))
    (path "/fba647b0-6fb3-4bc7-8fca-738be3f5cb8f" (reference "C12") (unit 1))
    (path "/fe94f23c-462c-4d0c-8872-913941bdd97d" (reference "D1") (unit 1))
    (path "/3ea4b388-81da-4314-a90d-9b07fd49b653" (reference "D2") (unit 1))
    (path "/b49b57f5-88fe-4ba7-a7ee-539dcbd505d1" (reference "D3") (unit 1))
    (path "/70365e19-0f5d-4d1c-813f-e805bd719b9d" (reference "J1") (unit 1))
    (path "/7e12418f-bc06-4fd8-b5cf-a80f4371acc9" (reference "J2") (unit 1))
    (path "/1418e342-2153-479a-adfc-89c2d3596c4a" (reference "J3") (unit 1))
    (path "/787b0d58-940c-42fe-b351-9b37377ab094" (reference "J4") (unit 1))
    (path "/ab27d43e-0288-4109-aa00-2cbd7212cfc8" (reference "J5") (unit 1))
    (path "/66937fa3-e7d4-4a0d-b840-962688efebe9" (reference "J6") (unit 1))
    (path "/3e878222-5fdb-4579-8da9-67a7514a9f54" (reference "J7") (unit 1))
    (path "/8ab7f373-5b29-4fd6-978e-de86b4beca23" (reference "J8") (unit 1))
    (path "/00000000-0000-0000-0000-00005aa03cde" (reference "P12") (unit 1))
    (path "/00000000-0000-0000-0000-00005aa03b6d" (reference "P22") (unit 1))
    (path "/6ea8e76a-0e3f-44fb-b099-64dd9c1082eb" (reference "Q1") (unit 1))
    (path "/90914738-6c70-4275-9dfb-04c6676bc7c4" (reference "R1") (unit 1))
    (path "/e15d3103-57ea-4689-a6c5-76ff46553f1a" (reference "R2") (unit 1))
    (path "/75da80a5-804c-47b8-a90d-6300cc5139b4" (reference "R3") (unit 1))
    (path "/4050ee15-5a33-4fb5-96b1-0e45cb6929ca" (reference "R4") (unit 1))
    (path "/e5c3cb66-64af-4ccb-a736-5ec45f0a4392" (reference "R5") (unit 1))
    (path "/ff235138-518b-4e79-9fe7-d1a8860f6430" (reference "R6") (unit 1))
    (path "/e452d982-5c0f-43fa-b2b6-234443a2dba1" (reference "R7") (unit 1))
    (path "/cfc8cf35-aa45-420f-a229-e2fd9f92db6f" (reference "R8") (unit 1))
    (path "/4b91ec89-3d8f-4b71-a09b-8e2b39cb5d21" (reference "SW1") (unit 1))
    (path "/6c9d4a87-553a-4df4-a004-087b706d6fc5" (reference "U1") (unit 1))
    (path "/1a64d3ed-92f2-4c50-9781-5c1141b697b5" (reference "U2") (unit 1))
    (path "/1afa9750-1c08-48c6-b439-dcc6a1305034" (reference "U3") (unit 1))
    (path "/30cb2606-30c8-47ab-9796-79e278e070b4" (reference "U4") (unit 1))
    (path "/00b01282-eb96-4d10-b3b7-64730d802998" (reference "U5") (unit 1))
    (path "/91f965a3-40c7-4ede-965f-366fffa6b6e3" (reference "U6") (unit 1))
    (path "/f92b596e-c471-4548-8e65-4af85341ec6c" (reference "U7") (unit 1))
    (path "/1ae74d9e-4d08-434c-9c2c-25ed411c49c0" (reference "Y1") (unit 1))
  )
)
