%TF.GenerationSoftware,KiCad,Pcbnew,(5.99.0-1804-g711fc999f)*%
%TF.CreationDate,2020-06-10T16:53:40-05:00*%
%TF.ProjectId,mutli-tas,6d75746c-692d-4746-9173-2e6b69636164,rev?*%
%TF.SameCoordinates,Original*%
%TF.FileFunction,Paste,Top*%
%TF.FilePolarity,Positive*%
%FSLAX46Y46*%
G04 Gerber Fmt 4.6, Leading zero omitted, Abs format (unit mm)*
G04 Created by KiCad (PCBNEW (5.99.0-1804-g711fc999f)) date 2020-06-10 16:53:40*
%MOMM*%
%LPD*%
G01*
G04 APERTURE LIST*
%ADD10R,1.200000X0.400000*%
%ADD11R,0.900000X0.800000*%
G04 APERTURE END LIST*
%TO.C,R8*%
G36*
G01*
X104170000Y-84470001D02*
X104170000Y-83169999D01*
G75*
G02*
X104419999Y-82920000I249999J0D01*
G01*
X105495001Y-82920000D01*
G75*
G02*
X105745000Y-83169999I0J-249999D01*
G01*
X105745000Y-84470001D01*
G75*
G02*
X105495001Y-84720000I-249999J0D01*
G01*
X104419999Y-84720000D01*
G75*
G02*
X104170000Y-84470001I0J249999D01*
G01*
G37*
G36*
G01*
X99995000Y-84470001D02*
X99995000Y-83169999D01*
G75*
G02*
X100244999Y-82920000I249999J0D01*
G01*
X101320001Y-82920000D01*
G75*
G02*
X101570000Y-83169999I0J-249999D01*
G01*
X101570000Y-84470001D01*
G75*
G02*
X101320001Y-84720000I-249999J0D01*
G01*
X100244999Y-84720000D01*
G75*
G02*
X99995000Y-84470001I0J249999D01*
G01*
G37*
%TD*%
%TO.C,R7*%
G36*
G01*
X103718000Y-65420001D02*
X103718000Y-64119999D01*
G75*
G02*
X103967999Y-63870000I249999J0D01*
G01*
X105043001Y-63870000D01*
G75*
G02*
X105293000Y-64119999I0J-249999D01*
G01*
X105293000Y-65420001D01*
G75*
G02*
X105043001Y-65670000I-249999J0D01*
G01*
X103967999Y-65670000D01*
G75*
G02*
X103718000Y-65420001I0J249999D01*
G01*
G37*
G36*
G01*
X99543000Y-65420001D02*
X99543000Y-64119999D01*
G75*
G02*
X99792999Y-63870000I249999J0D01*
G01*
X100868001Y-63870000D01*
G75*
G02*
X101118000Y-64119999I0J-249999D01*
G01*
X101118000Y-65420001D01*
G75*
G02*
X100868001Y-65670000I-249999J0D01*
G01*
X99792999Y-65670000D01*
G75*
G02*
X99543000Y-65420001I0J249999D01*
G01*
G37*
%TD*%
%TO.C,R6*%
G36*
G01*
X104170000Y-60340001D02*
X104170000Y-59039999D01*
G75*
G02*
X104419999Y-58790000I249999J0D01*
G01*
X105495001Y-58790000D01*
G75*
G02*
X105745000Y-59039999I0J-249999D01*
G01*
X105745000Y-60340001D01*
G75*
G02*
X105495001Y-60590000I-249999J0D01*
G01*
X104419999Y-60590000D01*
G75*
G02*
X104170000Y-60340001I0J249999D01*
G01*
G37*
G36*
G01*
X99995000Y-60340001D02*
X99995000Y-59039999D01*
G75*
G02*
X100244999Y-58790000I249999J0D01*
G01*
X101320001Y-58790000D01*
G75*
G02*
X101570000Y-59039999I0J-249999D01*
G01*
X101570000Y-60340001D01*
G75*
G02*
X101320001Y-60590000I-249999J0D01*
G01*
X100244999Y-60590000D01*
G75*
G02*
X99995000Y-60340001I0J249999D01*
G01*
G37*
%TD*%
%TO.C,R3*%
G36*
G01*
X104170000Y-90820001D02*
X104170000Y-89519999D01*
G75*
G02*
X104419999Y-89270000I249999J0D01*
G01*
X105495001Y-89270000D01*
G75*
G02*
X105745000Y-89519999I0J-249999D01*
G01*
X105745000Y-90820001D01*
G75*
G02*
X105495001Y-91070000I-249999J0D01*
G01*
X104419999Y-91070000D01*
G75*
G02*
X104170000Y-90820001I0J249999D01*
G01*
G37*
G36*
G01*
X99995000Y-90820001D02*
X99995000Y-89519999D01*
G75*
G02*
X100244999Y-89270000I249999J0D01*
G01*
X101320001Y-89270000D01*
G75*
G02*
X101570000Y-89519999I0J-249999D01*
G01*
X101570000Y-90820001D01*
G75*
G02*
X101320001Y-91070000I-249999J0D01*
G01*
X100244999Y-91070000D01*
G75*
G02*
X99995000Y-90820001I0J249999D01*
G01*
G37*
%TD*%
%TO.C,R2*%
G36*
G01*
X103718000Y-75580001D02*
X103718000Y-74279999D01*
G75*
G02*
X103967999Y-74030000I249999J0D01*
G01*
X105043001Y-74030000D01*
G75*
G02*
X105293000Y-74279999I0J-249999D01*
G01*
X105293000Y-75580001D01*
G75*
G02*
X105043001Y-75830000I-249999J0D01*
G01*
X103967999Y-75830000D01*
G75*
G02*
X103718000Y-75580001I0J249999D01*
G01*
G37*
G36*
G01*
X99543000Y-75580001D02*
X99543000Y-74279999D01*
G75*
G02*
X99792999Y-74030000I249999J0D01*
G01*
X100868001Y-74030000D01*
G75*
G02*
X101118000Y-74279999I0J-249999D01*
G01*
X101118000Y-75580001D01*
G75*
G02*
X100868001Y-75830000I-249999J0D01*
G01*
X99792999Y-75830000D01*
G75*
G02*
X99543000Y-75580001I0J249999D01*
G01*
G37*
%TD*%
%TO.C,R1*%
G36*
G01*
X104170000Y-70500001D02*
X104170000Y-69199999D01*
G75*
G02*
X104419999Y-68950000I249999J0D01*
G01*
X105495001Y-68950000D01*
G75*
G02*
X105745000Y-69199999I0J-249999D01*
G01*
X105745000Y-70500001D01*
G75*
G02*
X105495001Y-70750000I-249999J0D01*
G01*
X104419999Y-70750000D01*
G75*
G02*
X104170000Y-70500001I0J249999D01*
G01*
G37*
G36*
G01*
X99995000Y-70500001D02*
X99995000Y-69199999D01*
G75*
G02*
X100244999Y-68950000I249999J0D01*
G01*
X101320001Y-68950000D01*
G75*
G02*
X101570000Y-69199999I0J-249999D01*
G01*
X101570000Y-70500001D01*
G75*
G02*
X101320001Y-70750000I-249999J0D01*
G01*
X100244999Y-70750000D01*
G75*
G02*
X99995000Y-70500001I0J249999D01*
G01*
G37*
%TD*%
D10*
%TO.C,U5*%
X81340000Y-98742500D03*
X81340000Y-99377500D03*
X81340000Y-100012500D03*
X81340000Y-100647500D03*
X81340000Y-101282500D03*
X81340000Y-101917500D03*
X81340000Y-102552500D03*
X81340000Y-103187500D03*
X81340000Y-103822500D03*
X81340000Y-104457500D03*
X76140000Y-104457500D03*
X76140000Y-103822500D03*
X76140000Y-103187500D03*
X76140000Y-102552500D03*
X76140000Y-101917500D03*
X76140000Y-101282500D03*
X76140000Y-100647500D03*
X76140000Y-100012500D03*
X76140000Y-99377500D03*
X76140000Y-98742500D03*
%TD*%
%TO.C,U3*%
G36*
G01*
X128180000Y-75702500D02*
X128180000Y-75427500D01*
G75*
G02*
X128317500Y-75290000I137500J0D01*
G01*
X129642500Y-75290000D01*
G75*
G02*
X129780000Y-75427500I0J-137500D01*
G01*
X129780000Y-75702500D01*
G75*
G02*
X129642500Y-75840000I-137500J0D01*
G01*
X128317500Y-75840000D01*
G75*
G02*
X128180000Y-75702500I0J137500D01*
G01*
G37*
G36*
G01*
X128180000Y-76972500D02*
X128180000Y-76697500D01*
G75*
G02*
X128317500Y-76560000I137500J0D01*
G01*
X129642500Y-76560000D01*
G75*
G02*
X129780000Y-76697500I0J-137500D01*
G01*
X129780000Y-76972500D01*
G75*
G02*
X129642500Y-77110000I-137500J0D01*
G01*
X128317500Y-77110000D01*
G75*
G02*
X128180000Y-76972500I0J137500D01*
G01*
G37*
G36*
G01*
X128180000Y-78242500D02*
X128180000Y-77967500D01*
G75*
G02*
X128317500Y-77830000I137500J0D01*
G01*
X129642500Y-77830000D01*
G75*
G02*
X129780000Y-77967500I0J-137500D01*
G01*
X129780000Y-78242500D01*
G75*
G02*
X129642500Y-78380000I-137500J0D01*
G01*
X128317500Y-78380000D01*
G75*
G02*
X128180000Y-78242500I0J137500D01*
G01*
G37*
G36*
G01*
X128180000Y-79512500D02*
X128180000Y-79237500D01*
G75*
G02*
X128317500Y-79100000I137500J0D01*
G01*
X129642500Y-79100000D01*
G75*
G02*
X129780000Y-79237500I0J-137500D01*
G01*
X129780000Y-79512500D01*
G75*
G02*
X129642500Y-79650000I-137500J0D01*
G01*
X128317500Y-79650000D01*
G75*
G02*
X128180000Y-79512500I0J137500D01*
G01*
G37*
G36*
G01*
X128180000Y-80782500D02*
X128180000Y-80507500D01*
G75*
G02*
X128317500Y-80370000I137500J0D01*
G01*
X129642500Y-80370000D01*
G75*
G02*
X129780000Y-80507500I0J-137500D01*
G01*
X129780000Y-80782500D01*
G75*
G02*
X129642500Y-80920000I-137500J0D01*
G01*
X128317500Y-80920000D01*
G75*
G02*
X128180000Y-80782500I0J137500D01*
G01*
G37*
G36*
G01*
X128180000Y-82052500D02*
X128180000Y-81777500D01*
G75*
G02*
X128317500Y-81640000I137500J0D01*
G01*
X129642500Y-81640000D01*
G75*
G02*
X129780000Y-81777500I0J-137500D01*
G01*
X129780000Y-82052500D01*
G75*
G02*
X129642500Y-82190000I-137500J0D01*
G01*
X128317500Y-82190000D01*
G75*
G02*
X128180000Y-82052500I0J137500D01*
G01*
G37*
G36*
G01*
X128180000Y-83322500D02*
X128180000Y-83047500D01*
G75*
G02*
X128317500Y-82910000I137500J0D01*
G01*
X129642500Y-82910000D01*
G75*
G02*
X129780000Y-83047500I0J-137500D01*
G01*
X129780000Y-83322500D01*
G75*
G02*
X129642500Y-83460000I-137500J0D01*
G01*
X128317500Y-83460000D01*
G75*
G02*
X128180000Y-83322500I0J137500D01*
G01*
G37*
G36*
G01*
X128180000Y-84592500D02*
X128180000Y-84317500D01*
G75*
G02*
X128317500Y-84180000I137500J0D01*
G01*
X129642500Y-84180000D01*
G75*
G02*
X129780000Y-84317500I0J-137500D01*
G01*
X129780000Y-84592500D01*
G75*
G02*
X129642500Y-84730000I-137500J0D01*
G01*
X128317500Y-84730000D01*
G75*
G02*
X128180000Y-84592500I0J137500D01*
G01*
G37*
G36*
G01*
X121680000Y-84592500D02*
X121680000Y-84317500D01*
G75*
G02*
X121817500Y-84180000I137500J0D01*
G01*
X123142500Y-84180000D01*
G75*
G02*
X123280000Y-84317500I0J-137500D01*
G01*
X123280000Y-84592500D01*
G75*
G02*
X123142500Y-84730000I-137500J0D01*
G01*
X121817500Y-84730000D01*
G75*
G02*
X121680000Y-84592500I0J137500D01*
G01*
G37*
G36*
G01*
X121680000Y-83322500D02*
X121680000Y-83047500D01*
G75*
G02*
X121817500Y-82910000I137500J0D01*
G01*
X123142500Y-82910000D01*
G75*
G02*
X123280000Y-83047500I0J-137500D01*
G01*
X123280000Y-83322500D01*
G75*
G02*
X123142500Y-83460000I-137500J0D01*
G01*
X121817500Y-83460000D01*
G75*
G02*
X121680000Y-83322500I0J137500D01*
G01*
G37*
G36*
G01*
X121680000Y-82052500D02*
X121680000Y-81777500D01*
G75*
G02*
X121817500Y-81640000I137500J0D01*
G01*
X123142500Y-81640000D01*
G75*
G02*
X123280000Y-81777500I0J-137500D01*
G01*
X123280000Y-82052500D01*
G75*
G02*
X123142500Y-82190000I-137500J0D01*
G01*
X121817500Y-82190000D01*
G75*
G02*
X121680000Y-82052500I0J137500D01*
G01*
G37*
G36*
G01*
X121680000Y-80782500D02*
X121680000Y-80507500D01*
G75*
G02*
X121817500Y-80370000I137500J0D01*
G01*
X123142500Y-80370000D01*
G75*
G02*
X123280000Y-80507500I0J-137500D01*
G01*
X123280000Y-80782500D01*
G75*
G02*
X123142500Y-80920000I-137500J0D01*
G01*
X121817500Y-80920000D01*
G75*
G02*
X121680000Y-80782500I0J137500D01*
G01*
G37*
G36*
G01*
X121680000Y-79512500D02*
X121680000Y-79237500D01*
G75*
G02*
X121817500Y-79100000I137500J0D01*
G01*
X123142500Y-79100000D01*
G75*
G02*
X123280000Y-79237500I0J-137500D01*
G01*
X123280000Y-79512500D01*
G75*
G02*
X123142500Y-79650000I-137500J0D01*
G01*
X121817500Y-79650000D01*
G75*
G02*
X121680000Y-79512500I0J137500D01*
G01*
G37*
G36*
G01*
X121680000Y-78242500D02*
X121680000Y-77967500D01*
G75*
G02*
X121817500Y-77830000I137500J0D01*
G01*
X123142500Y-77830000D01*
G75*
G02*
X123280000Y-77967500I0J-137500D01*
G01*
X123280000Y-78242500D01*
G75*
G02*
X123142500Y-78380000I-137500J0D01*
G01*
X121817500Y-78380000D01*
G75*
G02*
X121680000Y-78242500I0J137500D01*
G01*
G37*
G36*
G01*
X121680000Y-76972500D02*
X121680000Y-76697500D01*
G75*
G02*
X121817500Y-76560000I137500J0D01*
G01*
X123142500Y-76560000D01*
G75*
G02*
X123280000Y-76697500I0J-137500D01*
G01*
X123280000Y-76972500D01*
G75*
G02*
X123142500Y-77110000I-137500J0D01*
G01*
X121817500Y-77110000D01*
G75*
G02*
X121680000Y-76972500I0J137500D01*
G01*
G37*
G36*
G01*
X121680000Y-75702500D02*
X121680000Y-75427500D01*
G75*
G02*
X121817500Y-75290000I137500J0D01*
G01*
X123142500Y-75290000D01*
G75*
G02*
X123280000Y-75427500I0J-137500D01*
G01*
X123280000Y-75702500D01*
G75*
G02*
X123142500Y-75840000I-137500J0D01*
G01*
X121817500Y-75840000D01*
G75*
G02*
X121680000Y-75702500I0J137500D01*
G01*
G37*
%TD*%
%TO.C,U2*%
G36*
G01*
X140880000Y-75702500D02*
X140880000Y-75427500D01*
G75*
G02*
X141017500Y-75290000I137500J0D01*
G01*
X142342500Y-75290000D01*
G75*
G02*
X142480000Y-75427500I0J-137500D01*
G01*
X142480000Y-75702500D01*
G75*
G02*
X142342500Y-75840000I-137500J0D01*
G01*
X141017500Y-75840000D01*
G75*
G02*
X140880000Y-75702500I0J137500D01*
G01*
G37*
G36*
G01*
X140880000Y-76972500D02*
X140880000Y-76697500D01*
G75*
G02*
X141017500Y-76560000I137500J0D01*
G01*
X142342500Y-76560000D01*
G75*
G02*
X142480000Y-76697500I0J-137500D01*
G01*
X142480000Y-76972500D01*
G75*
G02*
X142342500Y-77110000I-137500J0D01*
G01*
X141017500Y-77110000D01*
G75*
G02*
X140880000Y-76972500I0J137500D01*
G01*
G37*
G36*
G01*
X140880000Y-78242500D02*
X140880000Y-77967500D01*
G75*
G02*
X141017500Y-77830000I137500J0D01*
G01*
X142342500Y-77830000D01*
G75*
G02*
X142480000Y-77967500I0J-137500D01*
G01*
X142480000Y-78242500D01*
G75*
G02*
X142342500Y-78380000I-137500J0D01*
G01*
X141017500Y-78380000D01*
G75*
G02*
X140880000Y-78242500I0J137500D01*
G01*
G37*
G36*
G01*
X140880000Y-79512500D02*
X140880000Y-79237500D01*
G75*
G02*
X141017500Y-79100000I137500J0D01*
G01*
X142342500Y-79100000D01*
G75*
G02*
X142480000Y-79237500I0J-137500D01*
G01*
X142480000Y-79512500D01*
G75*
G02*
X142342500Y-79650000I-137500J0D01*
G01*
X141017500Y-79650000D01*
G75*
G02*
X140880000Y-79512500I0J137500D01*
G01*
G37*
G36*
G01*
X140880000Y-80782500D02*
X140880000Y-80507500D01*
G75*
G02*
X141017500Y-80370000I137500J0D01*
G01*
X142342500Y-80370000D01*
G75*
G02*
X142480000Y-80507500I0J-137500D01*
G01*
X142480000Y-80782500D01*
G75*
G02*
X142342500Y-80920000I-137500J0D01*
G01*
X141017500Y-80920000D01*
G75*
G02*
X140880000Y-80782500I0J137500D01*
G01*
G37*
G36*
G01*
X140880000Y-82052500D02*
X140880000Y-81777500D01*
G75*
G02*
X141017500Y-81640000I137500J0D01*
G01*
X142342500Y-81640000D01*
G75*
G02*
X142480000Y-81777500I0J-137500D01*
G01*
X142480000Y-82052500D01*
G75*
G02*
X142342500Y-82190000I-137500J0D01*
G01*
X141017500Y-82190000D01*
G75*
G02*
X140880000Y-82052500I0J137500D01*
G01*
G37*
G36*
G01*
X140880000Y-83322500D02*
X140880000Y-83047500D01*
G75*
G02*
X141017500Y-82910000I137500J0D01*
G01*
X142342500Y-82910000D01*
G75*
G02*
X142480000Y-83047500I0J-137500D01*
G01*
X142480000Y-83322500D01*
G75*
G02*
X142342500Y-83460000I-137500J0D01*
G01*
X141017500Y-83460000D01*
G75*
G02*
X140880000Y-83322500I0J137500D01*
G01*
G37*
G36*
G01*
X140880000Y-84592500D02*
X140880000Y-84317500D01*
G75*
G02*
X141017500Y-84180000I137500J0D01*
G01*
X142342500Y-84180000D01*
G75*
G02*
X142480000Y-84317500I0J-137500D01*
G01*
X142480000Y-84592500D01*
G75*
G02*
X142342500Y-84730000I-137500J0D01*
G01*
X141017500Y-84730000D01*
G75*
G02*
X140880000Y-84592500I0J137500D01*
G01*
G37*
G36*
G01*
X134380000Y-84592500D02*
X134380000Y-84317500D01*
G75*
G02*
X134517500Y-84180000I137500J0D01*
G01*
X135842500Y-84180000D01*
G75*
G02*
X135980000Y-84317500I0J-137500D01*
G01*
X135980000Y-84592500D01*
G75*
G02*
X135842500Y-84730000I-137500J0D01*
G01*
X134517500Y-84730000D01*
G75*
G02*
X134380000Y-84592500I0J137500D01*
G01*
G37*
G36*
G01*
X134380000Y-83322500D02*
X134380000Y-83047500D01*
G75*
G02*
X134517500Y-82910000I137500J0D01*
G01*
X135842500Y-82910000D01*
G75*
G02*
X135980000Y-83047500I0J-137500D01*
G01*
X135980000Y-83322500D01*
G75*
G02*
X135842500Y-83460000I-137500J0D01*
G01*
X134517500Y-83460000D01*
G75*
G02*
X134380000Y-83322500I0J137500D01*
G01*
G37*
G36*
G01*
X134380000Y-82052500D02*
X134380000Y-81777500D01*
G75*
G02*
X134517500Y-81640000I137500J0D01*
G01*
X135842500Y-81640000D01*
G75*
G02*
X135980000Y-81777500I0J-137500D01*
G01*
X135980000Y-82052500D01*
G75*
G02*
X135842500Y-82190000I-137500J0D01*
G01*
X134517500Y-82190000D01*
G75*
G02*
X134380000Y-82052500I0J137500D01*
G01*
G37*
G36*
G01*
X134380000Y-80782500D02*
X134380000Y-80507500D01*
G75*
G02*
X134517500Y-80370000I137500J0D01*
G01*
X135842500Y-80370000D01*
G75*
G02*
X135980000Y-80507500I0J-137500D01*
G01*
X135980000Y-80782500D01*
G75*
G02*
X135842500Y-80920000I-137500J0D01*
G01*
X134517500Y-80920000D01*
G75*
G02*
X134380000Y-80782500I0J137500D01*
G01*
G37*
G36*
G01*
X134380000Y-79512500D02*
X134380000Y-79237500D01*
G75*
G02*
X134517500Y-79100000I137500J0D01*
G01*
X135842500Y-79100000D01*
G75*
G02*
X135980000Y-79237500I0J-137500D01*
G01*
X135980000Y-79512500D01*
G75*
G02*
X135842500Y-79650000I-137500J0D01*
G01*
X134517500Y-79650000D01*
G75*
G02*
X134380000Y-79512500I0J137500D01*
G01*
G37*
G36*
G01*
X134380000Y-78242500D02*
X134380000Y-77967500D01*
G75*
G02*
X134517500Y-77830000I137500J0D01*
G01*
X135842500Y-77830000D01*
G75*
G02*
X135980000Y-77967500I0J-137500D01*
G01*
X135980000Y-78242500D01*
G75*
G02*
X135842500Y-78380000I-137500J0D01*
G01*
X134517500Y-78380000D01*
G75*
G02*
X134380000Y-78242500I0J137500D01*
G01*
G37*
G36*
G01*
X134380000Y-76972500D02*
X134380000Y-76697500D01*
G75*
G02*
X134517500Y-76560000I137500J0D01*
G01*
X135842500Y-76560000D01*
G75*
G02*
X135980000Y-76697500I0J-137500D01*
G01*
X135980000Y-76972500D01*
G75*
G02*
X135842500Y-77110000I-137500J0D01*
G01*
X134517500Y-77110000D01*
G75*
G02*
X134380000Y-76972500I0J137500D01*
G01*
G37*
G36*
G01*
X134380000Y-75702500D02*
X134380000Y-75427500D01*
G75*
G02*
X134517500Y-75290000I137500J0D01*
G01*
X135842500Y-75290000D01*
G75*
G02*
X135980000Y-75427500I0J-137500D01*
G01*
X135980000Y-75702500D01*
G75*
G02*
X135842500Y-75840000I-137500J0D01*
G01*
X134517500Y-75840000D01*
G75*
G02*
X134380000Y-75702500I0J137500D01*
G01*
G37*
%TD*%
%TO.C,U1*%
G36*
G01*
X152310000Y-75702500D02*
X152310000Y-75427500D01*
G75*
G02*
X152447500Y-75290000I137500J0D01*
G01*
X153772500Y-75290000D01*
G75*
G02*
X153910000Y-75427500I0J-137500D01*
G01*
X153910000Y-75702500D01*
G75*
G02*
X153772500Y-75840000I-137500J0D01*
G01*
X152447500Y-75840000D01*
G75*
G02*
X152310000Y-75702500I0J137500D01*
G01*
G37*
G36*
G01*
X152310000Y-76972500D02*
X152310000Y-76697500D01*
G75*
G02*
X152447500Y-76560000I137500J0D01*
G01*
X153772500Y-76560000D01*
G75*
G02*
X153910000Y-76697500I0J-137500D01*
G01*
X153910000Y-76972500D01*
G75*
G02*
X153772500Y-77110000I-137500J0D01*
G01*
X152447500Y-77110000D01*
G75*
G02*
X152310000Y-76972500I0J137500D01*
G01*
G37*
G36*
G01*
X152310000Y-78242500D02*
X152310000Y-77967500D01*
G75*
G02*
X152447500Y-77830000I137500J0D01*
G01*
X153772500Y-77830000D01*
G75*
G02*
X153910000Y-77967500I0J-137500D01*
G01*
X153910000Y-78242500D01*
G75*
G02*
X153772500Y-78380000I-137500J0D01*
G01*
X152447500Y-78380000D01*
G75*
G02*
X152310000Y-78242500I0J137500D01*
G01*
G37*
G36*
G01*
X152310000Y-79512500D02*
X152310000Y-79237500D01*
G75*
G02*
X152447500Y-79100000I137500J0D01*
G01*
X153772500Y-79100000D01*
G75*
G02*
X153910000Y-79237500I0J-137500D01*
G01*
X153910000Y-79512500D01*
G75*
G02*
X153772500Y-79650000I-137500J0D01*
G01*
X152447500Y-79650000D01*
G75*
G02*
X152310000Y-79512500I0J137500D01*
G01*
G37*
G36*
G01*
X152310000Y-80782500D02*
X152310000Y-80507500D01*
G75*
G02*
X152447500Y-80370000I137500J0D01*
G01*
X153772500Y-80370000D01*
G75*
G02*
X153910000Y-80507500I0J-137500D01*
G01*
X153910000Y-80782500D01*
G75*
G02*
X153772500Y-80920000I-137500J0D01*
G01*
X152447500Y-80920000D01*
G75*
G02*
X152310000Y-80782500I0J137500D01*
G01*
G37*
G36*
G01*
X152310000Y-82052500D02*
X152310000Y-81777500D01*
G75*
G02*
X152447500Y-81640000I137500J0D01*
G01*
X153772500Y-81640000D01*
G75*
G02*
X153910000Y-81777500I0J-137500D01*
G01*
X153910000Y-82052500D01*
G75*
G02*
X153772500Y-82190000I-137500J0D01*
G01*
X152447500Y-82190000D01*
G75*
G02*
X152310000Y-82052500I0J137500D01*
G01*
G37*
G36*
G01*
X152310000Y-83322500D02*
X152310000Y-83047500D01*
G75*
G02*
X152447500Y-82910000I137500J0D01*
G01*
X153772500Y-82910000D01*
G75*
G02*
X153910000Y-83047500I0J-137500D01*
G01*
X153910000Y-83322500D01*
G75*
G02*
X153772500Y-83460000I-137500J0D01*
G01*
X152447500Y-83460000D01*
G75*
G02*
X152310000Y-83322500I0J137500D01*
G01*
G37*
G36*
G01*
X152310000Y-84592500D02*
X152310000Y-84317500D01*
G75*
G02*
X152447500Y-84180000I137500J0D01*
G01*
X153772500Y-84180000D01*
G75*
G02*
X153910000Y-84317500I0J-137500D01*
G01*
X153910000Y-84592500D01*
G75*
G02*
X153772500Y-84730000I-137500J0D01*
G01*
X152447500Y-84730000D01*
G75*
G02*
X152310000Y-84592500I0J137500D01*
G01*
G37*
G36*
G01*
X145810000Y-84592500D02*
X145810000Y-84317500D01*
G75*
G02*
X145947500Y-84180000I137500J0D01*
G01*
X147272500Y-84180000D01*
G75*
G02*
X147410000Y-84317500I0J-137500D01*
G01*
X147410000Y-84592500D01*
G75*
G02*
X147272500Y-84730000I-137500J0D01*
G01*
X145947500Y-84730000D01*
G75*
G02*
X145810000Y-84592500I0J137500D01*
G01*
G37*
G36*
G01*
X145810000Y-83322500D02*
X145810000Y-83047500D01*
G75*
G02*
X145947500Y-82910000I137500J0D01*
G01*
X147272500Y-82910000D01*
G75*
G02*
X147410000Y-83047500I0J-137500D01*
G01*
X147410000Y-83322500D01*
G75*
G02*
X147272500Y-83460000I-137500J0D01*
G01*
X145947500Y-83460000D01*
G75*
G02*
X145810000Y-83322500I0J137500D01*
G01*
G37*
G36*
G01*
X145810000Y-82052500D02*
X145810000Y-81777500D01*
G75*
G02*
X145947500Y-81640000I137500J0D01*
G01*
X147272500Y-81640000D01*
G75*
G02*
X147410000Y-81777500I0J-137500D01*
G01*
X147410000Y-82052500D01*
G75*
G02*
X147272500Y-82190000I-137500J0D01*
G01*
X145947500Y-82190000D01*
G75*
G02*
X145810000Y-82052500I0J137500D01*
G01*
G37*
G36*
G01*
X145810000Y-80782500D02*
X145810000Y-80507500D01*
G75*
G02*
X145947500Y-80370000I137500J0D01*
G01*
X147272500Y-80370000D01*
G75*
G02*
X147410000Y-80507500I0J-137500D01*
G01*
X147410000Y-80782500D01*
G75*
G02*
X147272500Y-80920000I-137500J0D01*
G01*
X145947500Y-80920000D01*
G75*
G02*
X145810000Y-80782500I0J137500D01*
G01*
G37*
G36*
G01*
X145810000Y-79512500D02*
X145810000Y-79237500D01*
G75*
G02*
X145947500Y-79100000I137500J0D01*
G01*
X147272500Y-79100000D01*
G75*
G02*
X147410000Y-79237500I0J-137500D01*
G01*
X147410000Y-79512500D01*
G75*
G02*
X147272500Y-79650000I-137500J0D01*
G01*
X145947500Y-79650000D01*
G75*
G02*
X145810000Y-79512500I0J137500D01*
G01*
G37*
G36*
G01*
X145810000Y-78242500D02*
X145810000Y-77967500D01*
G75*
G02*
X145947500Y-77830000I137500J0D01*
G01*
X147272500Y-77830000D01*
G75*
G02*
X147410000Y-77967500I0J-137500D01*
G01*
X147410000Y-78242500D01*
G75*
G02*
X147272500Y-78380000I-137500J0D01*
G01*
X145947500Y-78380000D01*
G75*
G02*
X145810000Y-78242500I0J137500D01*
G01*
G37*
G36*
G01*
X145810000Y-76972500D02*
X145810000Y-76697500D01*
G75*
G02*
X145947500Y-76560000I137500J0D01*
G01*
X147272500Y-76560000D01*
G75*
G02*
X147410000Y-76697500I0J-137500D01*
G01*
X147410000Y-76972500D01*
G75*
G02*
X147272500Y-77110000I-137500J0D01*
G01*
X145947500Y-77110000D01*
G75*
G02*
X145810000Y-76972500I0J137500D01*
G01*
G37*
G36*
G01*
X145810000Y-75702500D02*
X145810000Y-75427500D01*
G75*
G02*
X145947500Y-75290000I137500J0D01*
G01*
X147272500Y-75290000D01*
G75*
G02*
X147410000Y-75427500I0J-137500D01*
G01*
X147410000Y-75702500D01*
G75*
G02*
X147272500Y-75840000I-137500J0D01*
G01*
X145947500Y-75840000D01*
G75*
G02*
X145810000Y-75702500I0J137500D01*
G01*
G37*
%TD*%
D11*
%TO.C,Q1*%
X112760000Y-101600000D03*
X110760000Y-102550000D03*
X110760000Y-100650000D03*
%TD*%
%TO.C,C12*%
G36*
G01*
X118140000Y-97170001D02*
X118140000Y-95869999D01*
G75*
G02*
X118389999Y-95620000I249999J0D01*
G01*
X119465001Y-95620000D01*
G75*
G02*
X119715000Y-95869999I0J-249999D01*
G01*
X119715000Y-97170001D01*
G75*
G02*
X119465001Y-97420000I-249999J0D01*
G01*
X118389999Y-97420000D01*
G75*
G02*
X118140000Y-97170001I0J249999D01*
G01*
G37*
G36*
G01*
X113965000Y-97170001D02*
X113965000Y-95869999D01*
G75*
G02*
X114214999Y-95620000I249999J0D01*
G01*
X115290001Y-95620000D01*
G75*
G02*
X115540000Y-95869999I0J-249999D01*
G01*
X115540000Y-97170001D01*
G75*
G02*
X115290001Y-97420000I-249999J0D01*
G01*
X114214999Y-97420000D01*
G75*
G02*
X113965000Y-97170001I0J249999D01*
G01*
G37*
%TD*%
%TO.C,C11*%
G36*
G01*
X125760000Y-102250001D02*
X125760000Y-100949999D01*
G75*
G02*
X126009999Y-100700000I249999J0D01*
G01*
X127085001Y-100700000D01*
G75*
G02*
X127335000Y-100949999I0J-249999D01*
G01*
X127335000Y-102250001D01*
G75*
G02*
X127085001Y-102500000I-249999J0D01*
G01*
X126009999Y-102500000D01*
G75*
G02*
X125760000Y-102250001I0J249999D01*
G01*
G37*
G36*
G01*
X121585000Y-102250001D02*
X121585000Y-100949999D01*
G75*
G02*
X121834999Y-100700000I249999J0D01*
G01*
X122910001Y-100700000D01*
G75*
G02*
X123160000Y-100949999I0J-249999D01*
G01*
X123160000Y-102250001D01*
G75*
G02*
X122910001Y-102500000I-249999J0D01*
G01*
X121834999Y-102500000D01*
G75*
G02*
X121585000Y-102250001I0J249999D01*
G01*
G37*
%TD*%
%TO.C,C9*%
G36*
G01*
X141000000Y-97170001D02*
X141000000Y-95869999D01*
G75*
G02*
X141249999Y-95620000I249999J0D01*
G01*
X142325001Y-95620000D01*
G75*
G02*
X142575000Y-95869999I0J-249999D01*
G01*
X142575000Y-97170001D01*
G75*
G02*
X142325001Y-97420000I-249999J0D01*
G01*
X141249999Y-97420000D01*
G75*
G02*
X141000000Y-97170001I0J249999D01*
G01*
G37*
G36*
G01*
X136825000Y-97170001D02*
X136825000Y-95869999D01*
G75*
G02*
X137074999Y-95620000I249999J0D01*
G01*
X138150001Y-95620000D01*
G75*
G02*
X138400000Y-95869999I0J-249999D01*
G01*
X138400000Y-97170001D01*
G75*
G02*
X138150001Y-97420000I-249999J0D01*
G01*
X137074999Y-97420000D01*
G75*
G02*
X136825000Y-97170001I0J249999D01*
G01*
G37*
%TD*%
%TO.C,C8*%
G36*
G01*
X125760000Y-97170001D02*
X125760000Y-95869999D01*
G75*
G02*
X126009999Y-95620000I249999J0D01*
G01*
X127085001Y-95620000D01*
G75*
G02*
X127335000Y-95869999I0J-249999D01*
G01*
X127335000Y-97170001D01*
G75*
G02*
X127085001Y-97420000I-249999J0D01*
G01*
X126009999Y-97420000D01*
G75*
G02*
X125760000Y-97170001I0J249999D01*
G01*
G37*
G36*
G01*
X121585000Y-97170001D02*
X121585000Y-95869999D01*
G75*
G02*
X121834999Y-95620000I249999J0D01*
G01*
X122910001Y-95620000D01*
G75*
G02*
X123160000Y-95869999I0J-249999D01*
G01*
X123160000Y-97170001D01*
G75*
G02*
X122910001Y-97420000I-249999J0D01*
G01*
X121834999Y-97420000D01*
G75*
G02*
X121585000Y-97170001I0J249999D01*
G01*
G37*
%TD*%
%TO.C,C6*%
G36*
G01*
X125760000Y-92090001D02*
X125760000Y-90789999D01*
G75*
G02*
X126009999Y-90540000I249999J0D01*
G01*
X127085001Y-90540000D01*
G75*
G02*
X127335000Y-90789999I0J-249999D01*
G01*
X127335000Y-92090001D01*
G75*
G02*
X127085001Y-92340000I-249999J0D01*
G01*
X126009999Y-92340000D01*
G75*
G02*
X125760000Y-92090001I0J249999D01*
G01*
G37*
G36*
G01*
X121585000Y-92090001D02*
X121585000Y-90789999D01*
G75*
G02*
X121834999Y-90540000I249999J0D01*
G01*
X122910001Y-90540000D01*
G75*
G02*
X123160000Y-90789999I0J-249999D01*
G01*
X123160000Y-92090001D01*
G75*
G02*
X122910001Y-92340000I-249999J0D01*
G01*
X121834999Y-92340000D01*
G75*
G02*
X121585000Y-92090001I0J249999D01*
G01*
G37*
%TD*%
%TO.C,C5*%
G36*
G01*
X133380000Y-97170001D02*
X133380000Y-95869999D01*
G75*
G02*
X133629999Y-95620000I249999J0D01*
G01*
X134705001Y-95620000D01*
G75*
G02*
X134955000Y-95869999I0J-249999D01*
G01*
X134955000Y-97170001D01*
G75*
G02*
X134705001Y-97420000I-249999J0D01*
G01*
X133629999Y-97420000D01*
G75*
G02*
X133380000Y-97170001I0J249999D01*
G01*
G37*
G36*
G01*
X129205000Y-97170001D02*
X129205000Y-95869999D01*
G75*
G02*
X129454999Y-95620000I249999J0D01*
G01*
X130530001Y-95620000D01*
G75*
G02*
X130780000Y-95869999I0J-249999D01*
G01*
X130780000Y-97170001D01*
G75*
G02*
X130530001Y-97420000I-249999J0D01*
G01*
X129454999Y-97420000D01*
G75*
G02*
X129205000Y-97170001I0J249999D01*
G01*
G37*
%TD*%
%TO.C,C4*%
G36*
G01*
X133380000Y-92090001D02*
X133380000Y-90789999D01*
G75*
G02*
X133629999Y-90540000I249999J0D01*
G01*
X134705001Y-90540000D01*
G75*
G02*
X134955000Y-90789999I0J-249999D01*
G01*
X134955000Y-92090001D01*
G75*
G02*
X134705001Y-92340000I-249999J0D01*
G01*
X133629999Y-92340000D01*
G75*
G02*
X133380000Y-92090001I0J249999D01*
G01*
G37*
G36*
G01*
X129205000Y-92090001D02*
X129205000Y-90789999D01*
G75*
G02*
X129454999Y-90540000I249999J0D01*
G01*
X130530001Y-90540000D01*
G75*
G02*
X130780000Y-90789999I0J-249999D01*
G01*
X130780000Y-92090001D01*
G75*
G02*
X130530001Y-92340000I-249999J0D01*
G01*
X129454999Y-92340000D01*
G75*
G02*
X129205000Y-92090001I0J249999D01*
G01*
G37*
%TD*%
%TO.C,C3*%
G36*
G01*
X141000000Y-92090001D02*
X141000000Y-90789999D01*
G75*
G02*
X141249999Y-90540000I249999J0D01*
G01*
X142325001Y-90540000D01*
G75*
G02*
X142575000Y-90789999I0J-249999D01*
G01*
X142575000Y-92090001D01*
G75*
G02*
X142325001Y-92340000I-249999J0D01*
G01*
X141249999Y-92340000D01*
G75*
G02*
X141000000Y-92090001I0J249999D01*
G01*
G37*
G36*
G01*
X136825000Y-92090001D02*
X136825000Y-90789999D01*
G75*
G02*
X137074999Y-90540000I249999J0D01*
G01*
X138150001Y-90540000D01*
G75*
G02*
X138400000Y-90789999I0J-249999D01*
G01*
X138400000Y-92090001D01*
G75*
G02*
X138150001Y-92340000I-249999J0D01*
G01*
X137074999Y-92340000D01*
G75*
G02*
X136825000Y-92090001I0J249999D01*
G01*
G37*
%TD*%
%TO.C,C2*%
G36*
G01*
X118140000Y-92090001D02*
X118140000Y-90789999D01*
G75*
G02*
X118389999Y-90540000I249999J0D01*
G01*
X119465001Y-90540000D01*
G75*
G02*
X119715000Y-90789999I0J-249999D01*
G01*
X119715000Y-92090001D01*
G75*
G02*
X119465001Y-92340000I-249999J0D01*
G01*
X118389999Y-92340000D01*
G75*
G02*
X118140000Y-92090001I0J249999D01*
G01*
G37*
G36*
G01*
X113965000Y-92090001D02*
X113965000Y-90789999D01*
G75*
G02*
X114214999Y-90540000I249999J0D01*
G01*
X115290001Y-90540000D01*
G75*
G02*
X115540000Y-90789999I0J-249999D01*
G01*
X115540000Y-92090001D01*
G75*
G02*
X115290001Y-92340000I-249999J0D01*
G01*
X114214999Y-92340000D01*
G75*
G02*
X113965000Y-92090001I0J249999D01*
G01*
G37*
%TD*%
M02*
