%TF.GenerationSoftware,KiCad,Pcbnew,(5.99.0-1804-g711fc999f)*%
%TF.CreationDate,2020-06-10T16:53:40-05:00*%
%TF.ProjectId,mutli-tas,6d75746c-692d-4746-9173-2e6b69636164,rev?*%
%TF.SameCoordinates,Original*%
%TF.FileFunction,Legend,Bot*%
%TF.FilePolarity,Positive*%
%FSLAX46Y46*%
G04 Gerber Fmt 4.6, Leading zero omitted, Abs format (unit mm)*
G04 Created by KiCad (PCBNEW (5.99.0-1804-g711fc999f)) date 2020-06-10 16:53:40*
%MOMM*%
%LPD*%
G01*
G04 APERTURE LIST*
%ADD10C,0.300000*%
%ADD11C,0.150000*%
G04 APERTURE END LIST*
D10*
X71125105Y-56418942D02*
X70625105Y-56418942D01*
X70625105Y-55633228D02*
X70625105Y-57133228D01*
X71339391Y-57133228D01*
X72125105Y-55633228D02*
X71982248Y-55704657D01*
X71910820Y-55776085D01*
X71839391Y-55918942D01*
X71839391Y-56347514D01*
X71910820Y-56490371D01*
X71982248Y-56561800D01*
X72125105Y-56633228D01*
X72339391Y-56633228D01*
X72482248Y-56561800D01*
X72553677Y-56490371D01*
X72625105Y-56347514D01*
X72625105Y-55918942D01*
X72553677Y-55776085D01*
X72482248Y-55704657D01*
X72339391Y-55633228D01*
X72125105Y-55633228D01*
X73482248Y-55633228D02*
X73339391Y-55704657D01*
X73267962Y-55776085D01*
X73196534Y-55918942D01*
X73196534Y-56347514D01*
X73267962Y-56490371D01*
X73339391Y-56561800D01*
X73482248Y-56633228D01*
X73696534Y-56633228D01*
X73839391Y-56561800D01*
X73910820Y-56490371D01*
X73982248Y-56347514D01*
X73982248Y-55918942D01*
X73910820Y-55776085D01*
X73839391Y-55704657D01*
X73696534Y-55633228D01*
X73482248Y-55633228D01*
X74410820Y-56633228D02*
X74982248Y-56633228D01*
X74625105Y-57133228D02*
X74625105Y-55847514D01*
X74696534Y-55704657D01*
X74839391Y-55633228D01*
X74982248Y-55633228D01*
X76625105Y-55633228D02*
X76625105Y-57133228D01*
X77196534Y-57133228D01*
X77339391Y-57061800D01*
X77410820Y-56990371D01*
X77482248Y-56847514D01*
X77482248Y-56633228D01*
X77410820Y-56490371D01*
X77339391Y-56418942D01*
X77196534Y-56347514D01*
X76625105Y-56347514D01*
X78696534Y-55704657D02*
X78553677Y-55633228D01*
X78267962Y-55633228D01*
X78125105Y-55704657D01*
X78053677Y-55847514D01*
X78053677Y-56418942D01*
X78125105Y-56561800D01*
X78267962Y-56633228D01*
X78553677Y-56633228D01*
X78696534Y-56561800D01*
X78767962Y-56418942D01*
X78767962Y-56276085D01*
X78053677Y-56133228D01*
X80053677Y-55633228D02*
X80053677Y-57133228D01*
X80053677Y-55704657D02*
X79910820Y-55633228D01*
X79625105Y-55633228D01*
X79482248Y-55704657D01*
X79410820Y-55776085D01*
X79339391Y-55918942D01*
X79339391Y-56347514D01*
X79410820Y-56490371D01*
X79482248Y-56561800D01*
X79625105Y-56633228D01*
X79910820Y-56633228D01*
X80053677Y-56561800D01*
X81410820Y-55633228D02*
X81410820Y-56418942D01*
X81339391Y-56561800D01*
X81196534Y-56633228D01*
X80910820Y-56633228D01*
X80767962Y-56561800D01*
X81410820Y-55704657D02*
X81267962Y-55633228D01*
X80910820Y-55633228D01*
X80767962Y-55704657D01*
X80696534Y-55847514D01*
X80696534Y-55990371D01*
X80767962Y-56133228D01*
X80910820Y-56204657D01*
X81267962Y-56204657D01*
X81410820Y-56276085D01*
X82339391Y-55633228D02*
X82196534Y-55704657D01*
X82125105Y-55847514D01*
X82125105Y-57133228D01*
D11*
X159362400Y-78036469D02*
X159362400Y-77560279D01*
X158362400Y-77560279D01*
X158362400Y-78560279D02*
X158362400Y-78750755D01*
X158410020Y-78845993D01*
X158505258Y-78941231D01*
X158695734Y-78988850D01*
X159029067Y-78988850D01*
X159219543Y-78941231D01*
X159314781Y-78845993D01*
X159362400Y-78750755D01*
X159362400Y-78560279D01*
X159314781Y-78465040D01*
X159219543Y-78369802D01*
X159029067Y-78322183D01*
X158695734Y-78322183D01*
X158505258Y-78369802D01*
X158410020Y-78465040D01*
X158362400Y-78560279D01*
X158410020Y-79941231D02*
X158362400Y-79845993D01*
X158362400Y-79703136D01*
X158410020Y-79560279D01*
X158505258Y-79465040D01*
X158600496Y-79417421D01*
X158790972Y-79369802D01*
X158933829Y-79369802D01*
X159124305Y-79417421D01*
X159219543Y-79465040D01*
X159314781Y-79560279D01*
X159362400Y-79703136D01*
X159362400Y-79798374D01*
X159314781Y-79941231D01*
X159267162Y-79988850D01*
X158933829Y-79988850D01*
X158933829Y-79798374D01*
X159362400Y-80417421D02*
X158362400Y-80417421D01*
X159267162Y-81465040D02*
X159314781Y-81417421D01*
X159362400Y-81274564D01*
X159362400Y-81179326D01*
X159314781Y-81036469D01*
X159219543Y-80941231D01*
X159124305Y-80893612D01*
X158933829Y-80845993D01*
X158790972Y-80845993D01*
X158600496Y-80893612D01*
X158505258Y-80941231D01*
X158410020Y-81036469D01*
X158362400Y-81179326D01*
X158362400Y-81274564D01*
X158410020Y-81417421D01*
X158457639Y-81465040D01*
X159076686Y-82607898D02*
X159076686Y-83084088D01*
X159362400Y-82512660D02*
X158362400Y-82845993D01*
X159362400Y-83179326D01*
X159362400Y-83512660D02*
X158362400Y-83512660D01*
X159362400Y-84084088D01*
X158362400Y-84084088D01*
X159076686Y-84512660D02*
X159076686Y-84988850D01*
X159362400Y-84417421D02*
X158362400Y-84750755D01*
X159362400Y-85084088D01*
X159362400Y-85893612D02*
X159362400Y-85417421D01*
X158362400Y-85417421D01*
X158886210Y-86417421D02*
X159362400Y-86417421D01*
X158362400Y-86084088D02*
X158886210Y-86417421D01*
X158362400Y-86750755D01*
X158362400Y-86988850D02*
X158362400Y-87655517D01*
X159362400Y-86988850D01*
X159362400Y-87655517D01*
X158838591Y-88036469D02*
X158838591Y-88369802D01*
X159362400Y-88512660D02*
X159362400Y-88036469D01*
X158362400Y-88036469D01*
X158362400Y-88512660D01*
X159362400Y-89512660D02*
X158886210Y-89179326D01*
X159362400Y-88941231D02*
X158362400Y-88941231D01*
X158362400Y-89322183D01*
X158410020Y-89417421D01*
X158457639Y-89465040D01*
X158552877Y-89512660D01*
X158695734Y-89512660D01*
X158790972Y-89465040D01*
X158838591Y-89417421D01*
X158886210Y-89322183D01*
X158886210Y-88941231D01*
X169012218Y-83829139D02*
X169202694Y-83829139D01*
X169297932Y-83781520D01*
X169393170Y-83686281D01*
X169440789Y-83495805D01*
X169440789Y-83162472D01*
X169393170Y-82971996D01*
X169297932Y-82876758D01*
X169202694Y-82829139D01*
X169012218Y-82829139D01*
X168916980Y-82876758D01*
X168821741Y-82971996D01*
X168774122Y-83162472D01*
X168774122Y-83495805D01*
X168821741Y-83686281D01*
X168916980Y-83781520D01*
X169012218Y-83829139D01*
X169869360Y-83829139D02*
X169869360Y-83019615D01*
X169916980Y-82924377D01*
X169964599Y-82876758D01*
X170059837Y-82829139D01*
X170250313Y-82829139D01*
X170345551Y-82876758D01*
X170393170Y-82924377D01*
X170440789Y-83019615D01*
X170440789Y-83829139D01*
X170774122Y-83829139D02*
X171345551Y-83829139D01*
X171059837Y-82829139D02*
X171059837Y-83829139D01*
X171678884Y-82829139D02*
X171678884Y-83829139D01*
X172059837Y-83829139D01*
X172155075Y-83781520D01*
X172202694Y-83733900D01*
X172250313Y-83638662D01*
X172250313Y-83495805D01*
X172202694Y-83400567D01*
X172155075Y-83352948D01*
X172059837Y-83305329D01*
X171678884Y-83305329D01*
X172678884Y-83829139D02*
X172678884Y-83019615D01*
X172726503Y-82924377D01*
X172774122Y-82876758D01*
X172869360Y-82829139D01*
X173059837Y-82829139D01*
X173155075Y-82876758D01*
X173202694Y-82924377D01*
X173250313Y-83019615D01*
X173250313Y-83829139D01*
X173583646Y-83829139D02*
X174155075Y-83829139D01*
X173869360Y-82829139D02*
X173869360Y-83829139D01*
X108639647Y-110403379D02*
X108639647Y-111403379D01*
X109020600Y-111403379D01*
X109115838Y-111355760D01*
X109163457Y-111308140D01*
X109211076Y-111212902D01*
X109211076Y-111070045D01*
X109163457Y-110974807D01*
X109115838Y-110927188D01*
X109020600Y-110879569D01*
X108639647Y-110879569D01*
X110115838Y-110403379D02*
X109639647Y-110403379D01*
X109639647Y-111403379D01*
X110401552Y-110689093D02*
X110877742Y-110689093D01*
X110306314Y-110403379D02*
X110639647Y-111403379D01*
X110972980Y-110403379D01*
X111496790Y-110879569D02*
X111496790Y-110403379D01*
X111163457Y-111403379D02*
X111496790Y-110879569D01*
X111830123Y-111403379D01*
X112163457Y-110927188D02*
X112496790Y-110927188D01*
X112639647Y-110403379D02*
X112163457Y-110403379D01*
X112163457Y-111403379D01*
X112639647Y-111403379D01*
X113639647Y-110403379D02*
X113306314Y-110879569D01*
X113068219Y-110403379D02*
X113068219Y-111403379D01*
X113449171Y-111403379D01*
X113544409Y-111355760D01*
X113592028Y-111308140D01*
X113639647Y-111212902D01*
X113639647Y-111070045D01*
X113592028Y-110974807D01*
X113544409Y-110927188D01*
X113449171Y-110879569D01*
X113068219Y-110879569D01*
X115353933Y-110403379D02*
X114782504Y-110403379D01*
X115068219Y-110403379D02*
X115068219Y-111403379D01*
X114972980Y-111260521D01*
X114877742Y-111165283D01*
X114782504Y-111117664D01*
X116496790Y-110450998D02*
X116639647Y-110403379D01*
X116877742Y-110403379D01*
X116972980Y-110450998D01*
X117020599Y-110498617D01*
X117068219Y-110593855D01*
X117068219Y-110689093D01*
X117020599Y-110784331D01*
X116972980Y-110831950D01*
X116877742Y-110879569D01*
X116687266Y-110927188D01*
X116592028Y-110974807D01*
X116544409Y-111022426D01*
X116496790Y-111117664D01*
X116496790Y-111212902D01*
X116544409Y-111308140D01*
X116592028Y-111355760D01*
X116687266Y-111403379D01*
X116925361Y-111403379D01*
X117068219Y-111355760D01*
X117496790Y-110403379D02*
X117496790Y-111403379D01*
X117972980Y-110403379D02*
X117972980Y-111403379D01*
X118211076Y-111403379D01*
X118353933Y-111355760D01*
X118449171Y-111260521D01*
X118496790Y-111165283D01*
X118544409Y-110974807D01*
X118544409Y-110831950D01*
X118496790Y-110641474D01*
X118449171Y-110546236D01*
X118353933Y-110450998D01*
X118211076Y-110403379D01*
X117972980Y-110403379D01*
X118972980Y-110927188D02*
X119306314Y-110927188D01*
X119449171Y-110403379D02*
X118972980Y-110403379D01*
X118972980Y-111403379D01*
X119449171Y-111403379D01*
X110056967Y-38234359D02*
X110056967Y-39234359D01*
X110437920Y-39234359D01*
X110533158Y-39186740D01*
X110580777Y-39139120D01*
X110628396Y-39043882D01*
X110628396Y-38901025D01*
X110580777Y-38805787D01*
X110533158Y-38758168D01*
X110437920Y-38710549D01*
X110056967Y-38710549D01*
X111533158Y-38234359D02*
X111056967Y-38234359D01*
X111056967Y-39234359D01*
X111818872Y-38520073D02*
X112295062Y-38520073D01*
X111723634Y-38234359D02*
X112056967Y-39234359D01*
X112390300Y-38234359D01*
X112914110Y-38710549D02*
X112914110Y-38234359D01*
X112580777Y-39234359D02*
X112914110Y-38710549D01*
X113247443Y-39234359D01*
X113580777Y-38758168D02*
X113914110Y-38758168D01*
X114056967Y-38234359D02*
X113580777Y-38234359D01*
X113580777Y-39234359D01*
X114056967Y-39234359D01*
X115056967Y-38234359D02*
X114723634Y-38710549D01*
X114485539Y-38234359D02*
X114485539Y-39234359D01*
X114866491Y-39234359D01*
X114961729Y-39186740D01*
X115009348Y-39139120D01*
X115056967Y-39043882D01*
X115056967Y-38901025D01*
X115009348Y-38805787D01*
X114961729Y-38758168D01*
X114866491Y-38710549D01*
X114485539Y-38710549D01*
X116199824Y-39139120D02*
X116247443Y-39186740D01*
X116342681Y-39234359D01*
X116580777Y-39234359D01*
X116676015Y-39186740D01*
X116723634Y-39139120D01*
X116771253Y-39043882D01*
X116771253Y-38948644D01*
X116723634Y-38805787D01*
X116152205Y-38234359D01*
X116771253Y-38234359D01*
X117914110Y-38281978D02*
X118056967Y-38234359D01*
X118295062Y-38234359D01*
X118390300Y-38281978D01*
X118437919Y-38329597D01*
X118485539Y-38424835D01*
X118485539Y-38520073D01*
X118437919Y-38615311D01*
X118390300Y-38662930D01*
X118295062Y-38710549D01*
X118104586Y-38758168D01*
X118009348Y-38805787D01*
X117961729Y-38853406D01*
X117914110Y-38948644D01*
X117914110Y-39043882D01*
X117961729Y-39139120D01*
X118009348Y-39186740D01*
X118104586Y-39234359D01*
X118342681Y-39234359D01*
X118485539Y-39186740D01*
X118914110Y-38234359D02*
X118914110Y-39234359D01*
X119390300Y-38234359D02*
X119390300Y-39234359D01*
X119628396Y-39234359D01*
X119771253Y-39186740D01*
X119866491Y-39091501D01*
X119914110Y-38996263D01*
X119961729Y-38805787D01*
X119961729Y-38662930D01*
X119914110Y-38472454D01*
X119866491Y-38377216D01*
X119771253Y-38281978D01*
X119628396Y-38234359D01*
X119390300Y-38234359D01*
X120390300Y-38758168D02*
X120723634Y-38758168D01*
X120866491Y-38234359D02*
X120390300Y-38234359D01*
X120390300Y-39234359D01*
X120866491Y-39234359D01*
X125783655Y-62874539D02*
X125783655Y-63874539D01*
X126164607Y-63874539D01*
X126259845Y-63826920D01*
X126307464Y-63779300D01*
X126355083Y-63684062D01*
X126355083Y-63541205D01*
X126307464Y-63445967D01*
X126259845Y-63398348D01*
X126164607Y-63350729D01*
X125783655Y-63350729D01*
X127212226Y-63541205D02*
X127212226Y-62874539D01*
X126783655Y-63541205D02*
X126783655Y-63017396D01*
X126831274Y-62922158D01*
X126926512Y-62874539D01*
X127069369Y-62874539D01*
X127164607Y-62922158D01*
X127212226Y-62969777D01*
X127688417Y-63541205D02*
X127688417Y-62541205D01*
X127688417Y-63493586D02*
X127783655Y-63541205D01*
X127974131Y-63541205D01*
X128069369Y-63493586D01*
X128116988Y-63445967D01*
X128164607Y-63350729D01*
X128164607Y-63065015D01*
X128116988Y-62969777D01*
X128069369Y-62922158D01*
X127974131Y-62874539D01*
X127783655Y-62874539D01*
X127688417Y-62922158D01*
X128593179Y-63255491D02*
X129355083Y-63255491D01*
X129831274Y-62874539D02*
X129831274Y-63874539D01*
X129831274Y-63398348D02*
X130402702Y-63398348D01*
X130402702Y-62874539D02*
X130402702Y-63874539D01*
X131307464Y-63541205D02*
X131307464Y-62874539D01*
X130878893Y-63541205D02*
X130878893Y-63017396D01*
X130926512Y-62922158D01*
X131021750Y-62874539D01*
X131164607Y-62874539D01*
X131259845Y-62922158D01*
X131307464Y-62969777D01*
X131783655Y-62874539D02*
X131783655Y-63874539D01*
X131783655Y-63493586D02*
X131878893Y-63541205D01*
X132069369Y-63541205D01*
X132164607Y-63493586D01*
X132212226Y-63445967D01*
X132259845Y-63350729D01*
X132259845Y-63065015D01*
X132212226Y-62969777D01*
X132164607Y-62922158D01*
X132069369Y-62874539D01*
X131878893Y-62874539D01*
X131783655Y-62922158D01*
X133450321Y-62874539D02*
X133450321Y-63874539D01*
X133783655Y-63160253D01*
X134116988Y-63874539D01*
X134116988Y-62874539D01*
X135021750Y-63541205D02*
X135021750Y-62874539D01*
X134593179Y-63541205D02*
X134593179Y-63017396D01*
X134640798Y-62922158D01*
X134736036Y-62874539D01*
X134878893Y-62874539D01*
X134974131Y-62922158D01*
X135021750Y-62969777D01*
X135640798Y-62874539D02*
X135545560Y-62922158D01*
X135497940Y-63017396D01*
X135497940Y-63874539D01*
X135878893Y-63541205D02*
X136259845Y-63541205D01*
X136021750Y-63874539D02*
X136021750Y-63017396D01*
X136069369Y-62922158D01*
X136164607Y-62874539D01*
X136259845Y-62874539D01*
X136593179Y-62874539D02*
X136593179Y-63541205D01*
X136593179Y-63874539D02*
X136545560Y-63826920D01*
X136593179Y-63779300D01*
X136640798Y-63826920D01*
X136593179Y-63874539D01*
X136593179Y-63779300D01*
X137069369Y-63255491D02*
X137831274Y-63255491D01*
X138307464Y-62874539D02*
X138307464Y-63874539D01*
X138783655Y-63541205D02*
X138783655Y-62874539D01*
X138783655Y-63445967D02*
X138831274Y-63493586D01*
X138926512Y-63541205D01*
X139069369Y-63541205D01*
X139164607Y-63493586D01*
X139212226Y-63398348D01*
X139212226Y-62874539D01*
X139688417Y-63541205D02*
X139688417Y-62541205D01*
X139688417Y-63493586D02*
X139783655Y-63541205D01*
X139974131Y-63541205D01*
X140069369Y-63493586D01*
X140116988Y-63445967D01*
X140164607Y-63350729D01*
X140164607Y-63065015D01*
X140116988Y-62969777D01*
X140069369Y-62922158D01*
X139974131Y-62874539D01*
X139783655Y-62874539D01*
X139688417Y-62922158D01*
X141021750Y-63541205D02*
X141021750Y-62874539D01*
X140593179Y-63541205D02*
X140593179Y-63017396D01*
X140640798Y-62922158D01*
X140736036Y-62874539D01*
X140878893Y-62874539D01*
X140974131Y-62922158D01*
X141021750Y-62969777D01*
X141355083Y-63541205D02*
X141736036Y-63541205D01*
X141497940Y-63874539D02*
X141497940Y-63017396D01*
X141545560Y-62922158D01*
X141640798Y-62874539D01*
X141736036Y-62874539D01*
X142831274Y-62874539D02*
X142831274Y-63874539D01*
X142831274Y-63398348D02*
X143402702Y-63398348D01*
X143402702Y-62874539D02*
X143402702Y-63874539D01*
X144307464Y-63541205D02*
X144307464Y-62874539D01*
X143878893Y-63541205D02*
X143878893Y-63017396D01*
X143926512Y-62922158D01*
X144021750Y-62874539D01*
X144164607Y-62874539D01*
X144259845Y-62922158D01*
X144307464Y-62969777D01*
X144783655Y-62874539D02*
X144783655Y-63874539D01*
X144783655Y-63493586D02*
X144878893Y-63541205D01*
X145069369Y-63541205D01*
X145164607Y-63493586D01*
X145212226Y-63445967D01*
X145259845Y-63350729D01*
X145259845Y-63065015D01*
X145212226Y-62969777D01*
X145164607Y-62922158D01*
X145069369Y-62874539D01*
X144878893Y-62874539D01*
X144783655Y-62922158D01*
X125783655Y-61264539D02*
X125783655Y-62264539D01*
X126021750Y-62264539D01*
X126164607Y-62216920D01*
X126259845Y-62121681D01*
X126307464Y-62026443D01*
X126355083Y-61835967D01*
X126355083Y-61693110D01*
X126307464Y-61502634D01*
X126259845Y-61407396D01*
X126164607Y-61312158D01*
X126021750Y-61264539D01*
X125783655Y-61264539D01*
X127164607Y-61312158D02*
X127069369Y-61264539D01*
X126878893Y-61264539D01*
X126783655Y-61312158D01*
X126736036Y-61407396D01*
X126736036Y-61788348D01*
X126783655Y-61883586D01*
X126878893Y-61931205D01*
X127069369Y-61931205D01*
X127164607Y-61883586D01*
X127212226Y-61788348D01*
X127212226Y-61693110D01*
X126736036Y-61597872D01*
X127593179Y-61312158D02*
X127688417Y-61264539D01*
X127878893Y-61264539D01*
X127974131Y-61312158D01*
X128021750Y-61407396D01*
X128021750Y-61455015D01*
X127974131Y-61550253D01*
X127878893Y-61597872D01*
X127736036Y-61597872D01*
X127640798Y-61645491D01*
X127593179Y-61740729D01*
X127593179Y-61788348D01*
X127640798Y-61883586D01*
X127736036Y-61931205D01*
X127878893Y-61931205D01*
X127974131Y-61883586D01*
X128450321Y-61264539D02*
X128450321Y-61931205D01*
X128450321Y-62264539D02*
X128402702Y-62216920D01*
X128450321Y-62169300D01*
X128497940Y-62216920D01*
X128450321Y-62264539D01*
X128450321Y-62169300D01*
X129355083Y-61931205D02*
X129355083Y-61121681D01*
X129307464Y-61026443D01*
X129259845Y-60978824D01*
X129164607Y-60931205D01*
X129021750Y-60931205D01*
X128926512Y-60978824D01*
X129355083Y-61312158D02*
X129259845Y-61264539D01*
X129069369Y-61264539D01*
X128974131Y-61312158D01*
X128926512Y-61359777D01*
X128878893Y-61455015D01*
X128878893Y-61740729D01*
X128926512Y-61835967D01*
X128974131Y-61883586D01*
X129069369Y-61931205D01*
X129259845Y-61931205D01*
X129355083Y-61883586D01*
X129831274Y-61931205D02*
X129831274Y-61264539D01*
X129831274Y-61835967D02*
X129878893Y-61883586D01*
X129974131Y-61931205D01*
X130116988Y-61931205D01*
X130212226Y-61883586D01*
X130259845Y-61788348D01*
X130259845Y-61264539D01*
X131116988Y-61312158D02*
X131021750Y-61264539D01*
X130831274Y-61264539D01*
X130736036Y-61312158D01*
X130688417Y-61407396D01*
X130688417Y-61788348D01*
X130736036Y-61883586D01*
X130831274Y-61931205D01*
X131021750Y-61931205D01*
X131116988Y-61883586D01*
X131164607Y-61788348D01*
X131164607Y-61693110D01*
X130688417Y-61597872D01*
X132021750Y-61264539D02*
X132021750Y-62264539D01*
X132021750Y-61312158D02*
X131926512Y-61264539D01*
X131736036Y-61264539D01*
X131640798Y-61312158D01*
X131593179Y-61359777D01*
X131545560Y-61455015D01*
X131545560Y-61740729D01*
X131593179Y-61835967D01*
X131640798Y-61883586D01*
X131736036Y-61931205D01*
X131926512Y-61931205D01*
X132021750Y-61883586D01*
X133259845Y-61264539D02*
X133259845Y-62264539D01*
X133259845Y-61883586D02*
X133355083Y-61931205D01*
X133545559Y-61931205D01*
X133640798Y-61883586D01*
X133688417Y-61835967D01*
X133736036Y-61740729D01*
X133736036Y-61455015D01*
X133688417Y-61359777D01*
X133640798Y-61312158D01*
X133545559Y-61264539D01*
X133355083Y-61264539D01*
X133259845Y-61312158D01*
X134069369Y-61931205D02*
X134307464Y-61264539D01*
X134545560Y-61931205D02*
X134307464Y-61264539D01*
X134212226Y-61026443D01*
X134164607Y-60978824D01*
X134069369Y-60931205D01*
X135688417Y-61264539D02*
X135688417Y-62264539D01*
X136021750Y-61550253D01*
X136355083Y-62264539D01*
X136355083Y-61264539D01*
X137212226Y-61312158D02*
X137116988Y-61264539D01*
X136926512Y-61264539D01*
X136831274Y-61312158D01*
X136783655Y-61407396D01*
X136783655Y-61788348D01*
X136831274Y-61883586D01*
X136926512Y-61931205D01*
X137116988Y-61931205D01*
X137212226Y-61883586D01*
X137259845Y-61788348D01*
X137259845Y-61693110D01*
X136783655Y-61597872D01*
X138116988Y-61264539D02*
X138116988Y-62264539D01*
X138116988Y-61312158D02*
X138021750Y-61264539D01*
X137831274Y-61264539D01*
X137736036Y-61312158D01*
X137688417Y-61359777D01*
X137640798Y-61455015D01*
X137640798Y-61740729D01*
X137688417Y-61835967D01*
X137736036Y-61883586D01*
X137831274Y-61931205D01*
X138021750Y-61931205D01*
X138116988Y-61883586D01*
X138593179Y-61264539D02*
X138593179Y-61931205D01*
X138593179Y-62264539D02*
X138545560Y-62216920D01*
X138593179Y-62169300D01*
X138640798Y-62216920D01*
X138593179Y-62264539D01*
X138593179Y-62169300D01*
X139497940Y-61264539D02*
X139497940Y-61788348D01*
X139450321Y-61883586D01*
X139355083Y-61931205D01*
X139164607Y-61931205D01*
X139069369Y-61883586D01*
X139497940Y-61312158D02*
X139402702Y-61264539D01*
X139164607Y-61264539D01*
X139069369Y-61312158D01*
X139021750Y-61407396D01*
X139021750Y-61502634D01*
X139069369Y-61597872D01*
X139164607Y-61645491D01*
X139402702Y-61645491D01*
X139497940Y-61693110D01*
X139974131Y-61264539D02*
X139974131Y-62264539D01*
X140307464Y-61550253D01*
X140640798Y-62264539D01*
X140640798Y-61264539D01*
X141545560Y-61264539D02*
X141545560Y-61788348D01*
X141497940Y-61883586D01*
X141402702Y-61931205D01*
X141212226Y-61931205D01*
X141116988Y-61883586D01*
X141545560Y-61312158D02*
X141450321Y-61264539D01*
X141212226Y-61264539D01*
X141116988Y-61312158D01*
X141069369Y-61407396D01*
X141069369Y-61502634D01*
X141116988Y-61597872D01*
X141212226Y-61645491D01*
X141450321Y-61645491D01*
X141545560Y-61693110D01*
X142450321Y-61931205D02*
X142450321Y-61121681D01*
X142402702Y-61026443D01*
X142355083Y-60978824D01*
X142259845Y-60931205D01*
X142116988Y-60931205D01*
X142021750Y-60978824D01*
X142450321Y-61312158D02*
X142355083Y-61264539D01*
X142164607Y-61264539D01*
X142069369Y-61312158D01*
X142021750Y-61359777D01*
X141974131Y-61455015D01*
X141974131Y-61740729D01*
X142021750Y-61835967D01*
X142069369Y-61883586D01*
X142164607Y-61931205D01*
X142355083Y-61931205D01*
X142450321Y-61883586D01*
X142926512Y-61931205D02*
X142926512Y-61264539D01*
X142926512Y-61835967D02*
X142974131Y-61883586D01*
X143069369Y-61931205D01*
X143212226Y-61931205D01*
X143307464Y-61883586D01*
X143355083Y-61788348D01*
X143355083Y-61264539D01*
X144212226Y-61312158D02*
X144116988Y-61264539D01*
X143926512Y-61264539D01*
X143831274Y-61312158D01*
X143783655Y-61407396D01*
X143783655Y-61788348D01*
X143831274Y-61883586D01*
X143926512Y-61931205D01*
X144116988Y-61931205D01*
X144212226Y-61883586D01*
X144259845Y-61788348D01*
X144259845Y-61693110D01*
X143783655Y-61597872D01*
X144545560Y-61931205D02*
X144926512Y-61931205D01*
X144688417Y-62264539D02*
X144688417Y-61407396D01*
X144736036Y-61312158D01*
X144831274Y-61264539D01*
X144926512Y-61264539D01*
X145974131Y-62312158D02*
X145116988Y-61026443D01*
X146878893Y-61359777D02*
X146831274Y-61312158D01*
X146688417Y-61264539D01*
X146593179Y-61264539D01*
X146450321Y-61312158D01*
X146355083Y-61407396D01*
X146307464Y-61502634D01*
X146259845Y-61693110D01*
X146259845Y-61835967D01*
X146307464Y-62026443D01*
X146355083Y-62121681D01*
X146450321Y-62216920D01*
X146593179Y-62264539D01*
X146688417Y-62264539D01*
X146831274Y-62216920D01*
X146878893Y-62169300D01*
X147450321Y-61264539D02*
X147355083Y-61312158D01*
X147307464Y-61359777D01*
X147259845Y-61455015D01*
X147259845Y-61740729D01*
X147307464Y-61835967D01*
X147355083Y-61883586D01*
X147450321Y-61931205D01*
X147593179Y-61931205D01*
X147688417Y-61883586D01*
X147736036Y-61835967D01*
X147783655Y-61740729D01*
X147783655Y-61455015D01*
X147736036Y-61359777D01*
X147688417Y-61312158D01*
X147593179Y-61264539D01*
X147450321Y-61264539D01*
X148212226Y-61264539D02*
X148212226Y-61931205D01*
X148212226Y-61835967D02*
X148259845Y-61883586D01*
X148355083Y-61931205D01*
X148497940Y-61931205D01*
X148593179Y-61883586D01*
X148640798Y-61788348D01*
X148640798Y-61264539D01*
X148640798Y-61788348D02*
X148688417Y-61883586D01*
X148783655Y-61931205D01*
X148926512Y-61931205D01*
X149021750Y-61883586D01*
X149069369Y-61788348D01*
X149069369Y-61264539D01*
X149545560Y-61931205D02*
X149545560Y-60931205D01*
X149545560Y-61883586D02*
X149640798Y-61931205D01*
X149831274Y-61931205D01*
X149926512Y-61883586D01*
X149974131Y-61835967D01*
X150021750Y-61740729D01*
X150021750Y-61455015D01*
X149974131Y-61359777D01*
X149926512Y-61312158D01*
X149831274Y-61264539D01*
X149640798Y-61264539D01*
X149545560Y-61312158D01*
X150878893Y-61931205D02*
X150878893Y-61264539D01*
X150450321Y-61931205D02*
X150450321Y-61407396D01*
X150497940Y-61312158D01*
X150593179Y-61264539D01*
X150736036Y-61264539D01*
X150831274Y-61312158D01*
X150878893Y-61359777D01*
X151926512Y-61359777D02*
X151878893Y-61312158D01*
X151736036Y-61264539D01*
X151640798Y-61264539D01*
X151497940Y-61312158D01*
X151402702Y-61407396D01*
X151355083Y-61502634D01*
X151307464Y-61693110D01*
X151307464Y-61835967D01*
X151355083Y-62026443D01*
X151402702Y-62121681D01*
X151497940Y-62216920D01*
X151640798Y-62264539D01*
X151736036Y-62264539D01*
X151878893Y-62216920D01*
X151926512Y-62169300D01*
X152783655Y-61264539D02*
X152783655Y-61788348D01*
X152736036Y-61883586D01*
X152640798Y-61931205D01*
X152450321Y-61931205D01*
X152355083Y-61883586D01*
X152783655Y-61312158D02*
X152688417Y-61264539D01*
X152450321Y-61264539D01*
X152355083Y-61312158D01*
X152307464Y-61407396D01*
X152307464Y-61502634D01*
X152355083Y-61597872D01*
X152450321Y-61645491D01*
X152688417Y-61645491D01*
X152783655Y-61693110D01*
X153116988Y-61931205D02*
X153497940Y-61931205D01*
X153259845Y-62264539D02*
X153259845Y-61407396D01*
X153307464Y-61312158D01*
X153402702Y-61264539D01*
X153497940Y-61264539D01*
X126116988Y-60178348D02*
X125783655Y-60178348D01*
X125783655Y-59654539D02*
X125783655Y-60654539D01*
X126259845Y-60654539D01*
X126783655Y-59654539D02*
X126688417Y-59702158D01*
X126640798Y-59749777D01*
X126593179Y-59845015D01*
X126593179Y-60130729D01*
X126640798Y-60225967D01*
X126688417Y-60273586D01*
X126783655Y-60321205D01*
X126926512Y-60321205D01*
X127021750Y-60273586D01*
X127069369Y-60225967D01*
X127116988Y-60130729D01*
X127116988Y-59845015D01*
X127069369Y-59749777D01*
X127021750Y-59702158D01*
X126926512Y-59654539D01*
X126783655Y-59654539D01*
X127545560Y-59654539D02*
X127545560Y-60321205D01*
X127545560Y-60130729D02*
X127593179Y-60225967D01*
X127640798Y-60273586D01*
X127736036Y-60321205D01*
X127831274Y-60321205D01*
X129355083Y-60321205D02*
X129355083Y-59654539D01*
X128926512Y-60321205D02*
X128926512Y-59797396D01*
X128974131Y-59702158D01*
X129069369Y-59654539D01*
X129212226Y-59654539D01*
X129307464Y-59702158D01*
X129355083Y-59749777D01*
X129783655Y-59702158D02*
X129878893Y-59654539D01*
X130069369Y-59654539D01*
X130164607Y-59702158D01*
X130212226Y-59797396D01*
X130212226Y-59845015D01*
X130164607Y-59940253D01*
X130069369Y-59987872D01*
X129926512Y-59987872D01*
X129831274Y-60035491D01*
X129783655Y-60130729D01*
X129783655Y-60178348D01*
X129831274Y-60273586D01*
X129926512Y-60321205D01*
X130069369Y-60321205D01*
X130164607Y-60273586D01*
X131021750Y-59702158D02*
X130926512Y-59654539D01*
X130736036Y-59654539D01*
X130640798Y-59702158D01*
X130593179Y-59797396D01*
X130593179Y-60178348D01*
X130640798Y-60273586D01*
X130736036Y-60321205D01*
X130926512Y-60321205D01*
X131021750Y-60273586D01*
X131069369Y-60178348D01*
X131069369Y-60083110D01*
X130593179Y-59987872D01*
X132164607Y-60321205D02*
X132355083Y-59654539D01*
X132545560Y-60130729D01*
X132736036Y-59654539D01*
X132926512Y-60321205D01*
X133307464Y-59654539D02*
X133307464Y-60321205D01*
X133307464Y-60654539D02*
X133259845Y-60606920D01*
X133307464Y-60559300D01*
X133355083Y-60606920D01*
X133307464Y-60654539D01*
X133307464Y-60559300D01*
X133640798Y-60321205D02*
X134021750Y-60321205D01*
X133783655Y-60654539D02*
X133783655Y-59797396D01*
X133831274Y-59702158D01*
X133926512Y-59654539D01*
X134021750Y-59654539D01*
X134355083Y-59654539D02*
X134355083Y-60654539D01*
X134783655Y-59654539D02*
X134783655Y-60178348D01*
X134736036Y-60273586D01*
X134640798Y-60321205D01*
X134497940Y-60321205D01*
X134402702Y-60273586D01*
X134355083Y-60225967D01*
X135878893Y-60654539D02*
X136450321Y-60654539D01*
X136164607Y-59654539D02*
X136164607Y-60654539D01*
X136736036Y-59940253D02*
X137212226Y-59940253D01*
X136640798Y-59654539D02*
X136974131Y-60654539D01*
X137307464Y-59654539D01*
X137593179Y-59702158D02*
X137736036Y-59654539D01*
X137974131Y-59654539D01*
X138069369Y-59702158D01*
X138116988Y-59749777D01*
X138164607Y-59845015D01*
X138164607Y-59940253D01*
X138116988Y-60035491D01*
X138069369Y-60083110D01*
X137974131Y-60130729D01*
X137783655Y-60178348D01*
X137688417Y-60225967D01*
X137640798Y-60273586D01*
X137593179Y-60368824D01*
X137593179Y-60464062D01*
X137640798Y-60559300D01*
X137688417Y-60606920D01*
X137783655Y-60654539D01*
X138021750Y-60654539D01*
X138164607Y-60606920D01*
X138926512Y-60178348D02*
X139069369Y-60130729D01*
X139116988Y-60083110D01*
X139164607Y-59987872D01*
X139164607Y-59845015D01*
X139116988Y-59749777D01*
X139069369Y-59702158D01*
X138974131Y-59654539D01*
X138593179Y-59654539D01*
X138593179Y-60654539D01*
X138926512Y-60654539D01*
X139021750Y-60606920D01*
X139069369Y-60559300D01*
X139116988Y-60464062D01*
X139116988Y-60368824D01*
X139069369Y-60273586D01*
X139021750Y-60225967D01*
X138926512Y-60178348D01*
X138593179Y-60178348D01*
X139736036Y-59654539D02*
X139640798Y-59702158D01*
X139593179Y-59749777D01*
X139545560Y-59845015D01*
X139545560Y-60130729D01*
X139593179Y-60225967D01*
X139640798Y-60273586D01*
X139736036Y-60321205D01*
X139878893Y-60321205D01*
X139974131Y-60273586D01*
X140021750Y-60225967D01*
X140069369Y-60130729D01*
X140069369Y-59845015D01*
X140021750Y-59749777D01*
X139974131Y-59702158D01*
X139878893Y-59654539D01*
X139736036Y-59654539D01*
X140355083Y-60321205D02*
X140736036Y-60321205D01*
X140497940Y-60654539D02*
X140497940Y-59797396D01*
X140545560Y-59702158D01*
X140640798Y-59654539D01*
X140736036Y-59654539D01*
X142259845Y-59654539D02*
X142259845Y-60178348D01*
X142212226Y-60273586D01*
X142116988Y-60321205D01*
X141926512Y-60321205D01*
X141831274Y-60273586D01*
X142259845Y-59702158D02*
X142164607Y-59654539D01*
X141926512Y-59654539D01*
X141831274Y-59702158D01*
X141783655Y-59797396D01*
X141783655Y-59892634D01*
X141831274Y-59987872D01*
X141926512Y-60035491D01*
X142164607Y-60035491D01*
X142259845Y-60083110D01*
X142736036Y-60321205D02*
X142736036Y-59654539D01*
X142736036Y-60225967D02*
X142783655Y-60273586D01*
X142878893Y-60321205D01*
X143021750Y-60321205D01*
X143116988Y-60273586D01*
X143164607Y-60178348D01*
X143164607Y-59654539D01*
X144069369Y-59654539D02*
X144069369Y-60654539D01*
X144069369Y-59702158D02*
X143974131Y-59654539D01*
X143783655Y-59654539D01*
X143688417Y-59702158D01*
X143640798Y-59749777D01*
X143593179Y-59845015D01*
X143593179Y-60130729D01*
X143640798Y-60225967D01*
X143688417Y-60273586D01*
X143783655Y-60321205D01*
X143974131Y-60321205D01*
X144069369Y-60273586D01*
X145450321Y-59654539D02*
X145355083Y-59702158D01*
X145307464Y-59749777D01*
X145259845Y-59845015D01*
X145259845Y-60130729D01*
X145307464Y-60225967D01*
X145355083Y-60273586D01*
X145450321Y-60321205D01*
X145593179Y-60321205D01*
X145688417Y-60273586D01*
X145736036Y-60225967D01*
X145783655Y-60130729D01*
X145783655Y-59845015D01*
X145736036Y-59749777D01*
X145688417Y-59702158D01*
X145593179Y-59654539D01*
X145450321Y-59654539D01*
X146069369Y-60321205D02*
X146450321Y-60321205D01*
X146212226Y-60654539D02*
X146212226Y-59797396D01*
X146259845Y-59702158D01*
X146355083Y-59654539D01*
X146450321Y-59654539D01*
X146783655Y-59654539D02*
X146783655Y-60654539D01*
X147212226Y-59654539D02*
X147212226Y-60178348D01*
X147164607Y-60273586D01*
X147069369Y-60321205D01*
X146926512Y-60321205D01*
X146831274Y-60273586D01*
X146783655Y-60225967D01*
X148069369Y-59702158D02*
X147974131Y-59654539D01*
X147783655Y-59654539D01*
X147688417Y-59702158D01*
X147640798Y-59797396D01*
X147640798Y-60178348D01*
X147688417Y-60273586D01*
X147783655Y-60321205D01*
X147974131Y-60321205D01*
X148069369Y-60273586D01*
X148116988Y-60178348D01*
X148116988Y-60083110D01*
X147640798Y-59987872D01*
X148545560Y-59654539D02*
X148545560Y-60321205D01*
X148545560Y-60130729D02*
X148593179Y-60225967D01*
X148640798Y-60273586D01*
X148736036Y-60321205D01*
X148831274Y-60321205D01*
X150497940Y-59749777D02*
X150450321Y-59702158D01*
X150307464Y-59654539D01*
X150212226Y-59654539D01*
X150069369Y-59702158D01*
X149974131Y-59797396D01*
X149926512Y-59892634D01*
X149878893Y-60083110D01*
X149878893Y-60225967D01*
X149926512Y-60416443D01*
X149974131Y-60511681D01*
X150069369Y-60606920D01*
X150212226Y-60654539D01*
X150307464Y-60654539D01*
X150450321Y-60606920D01*
X150497940Y-60559300D01*
X150926512Y-59654539D02*
X150926512Y-60321205D01*
X150926512Y-60130729D02*
X150974131Y-60225967D01*
X151021750Y-60273586D01*
X151116988Y-60321205D01*
X151212226Y-60321205D01*
X151974131Y-59654539D02*
X151974131Y-60178348D01*
X151926512Y-60273586D01*
X151831274Y-60321205D01*
X151640798Y-60321205D01*
X151545560Y-60273586D01*
X151974131Y-59702158D02*
X151878893Y-59654539D01*
X151640798Y-59654539D01*
X151545560Y-59702158D01*
X151497940Y-59797396D01*
X151497940Y-59892634D01*
X151545560Y-59987872D01*
X151640798Y-60035491D01*
X151878893Y-60035491D01*
X151974131Y-60083110D01*
X152355083Y-60321205D02*
X152878893Y-60321205D01*
X152355083Y-59654539D01*
X152878893Y-59654539D01*
X153164607Y-60321205D02*
X153402702Y-59654539D01*
X153640798Y-60321205D02*
X153402702Y-59654539D01*
X153307464Y-59416443D01*
X153259845Y-59368824D01*
X153164607Y-59321205D01*
X154021750Y-60321205D02*
X154021750Y-59654539D01*
X154021750Y-60225967D02*
X154069369Y-60273586D01*
X154164607Y-60321205D01*
X154307464Y-60321205D01*
X154402702Y-60273586D01*
X154450321Y-60178348D01*
X154450321Y-59654539D01*
X155307464Y-59702158D02*
X155212226Y-59654539D01*
X155021750Y-59654539D01*
X154926512Y-59702158D01*
X154878893Y-59797396D01*
X154878893Y-60178348D01*
X154926512Y-60273586D01*
X155021750Y-60321205D01*
X155212226Y-60321205D01*
X155307464Y-60273586D01*
X155355083Y-60178348D01*
X155355083Y-60083110D01*
X154878893Y-59987872D01*
X155736036Y-59702158D02*
X155831274Y-59654539D01*
X156021750Y-59654539D01*
X156116988Y-59702158D01*
X156164607Y-59797396D01*
X156164607Y-59845015D01*
X156116988Y-59940253D01*
X156021750Y-59987872D01*
X155878893Y-59987872D01*
X155783655Y-60035491D01*
X155736036Y-60130729D01*
X155736036Y-60178348D01*
X155783655Y-60273586D01*
X155878893Y-60321205D01*
X156021750Y-60321205D01*
X156116988Y-60273586D01*
X156545560Y-59702158D02*
X156640798Y-59654539D01*
X156831274Y-59654539D01*
X156926512Y-59702158D01*
X156974131Y-59797396D01*
X156974131Y-59845015D01*
X156926512Y-59940253D01*
X156831274Y-59987872D01*
X156688417Y-59987872D01*
X156593179Y-60035491D01*
X156545560Y-60130729D01*
X156545560Y-60178348D01*
X156593179Y-60273586D01*
X156688417Y-60321205D01*
X156831274Y-60321205D01*
X156926512Y-60273586D01*
%TO.C,U7*%
X97368095Y-120362380D02*
X97368095Y-119362380D01*
X97130000Y-119362380D01*
X96987142Y-119410000D01*
X96891904Y-119505238D01*
X96844285Y-119600476D01*
X96796666Y-119790952D01*
X96796666Y-119933809D01*
X96844285Y-120124285D01*
X96891904Y-120219523D01*
X96987142Y-120314761D01*
X97130000Y-120362380D01*
X97368095Y-120362380D01*
X95939523Y-119695714D02*
X95939523Y-120362380D01*
X96177619Y-119314761D02*
X96415714Y-120029047D01*
X95796666Y-120029047D01*
X97468095Y-116552380D02*
X97468095Y-115552380D01*
X97230000Y-115552380D01*
X97087142Y-115600000D01*
X96991904Y-115695238D01*
X96944285Y-115790476D01*
X96896666Y-115980952D01*
X96896666Y-116123809D01*
X96944285Y-116314285D01*
X96991904Y-116409523D01*
X97087142Y-116504761D01*
X97230000Y-116552380D01*
X97468095Y-116552380D01*
X96563333Y-115552380D02*
X95944285Y-115552380D01*
X96277619Y-115933333D01*
X96134761Y-115933333D01*
X96039523Y-115980952D01*
X95991904Y-116028571D01*
X95944285Y-116123809D01*
X95944285Y-116361904D01*
X95991904Y-116457142D01*
X96039523Y-116504761D01*
X96134761Y-116552380D01*
X96420476Y-116552380D01*
X96515714Y-116504761D01*
X96563333Y-116457142D01*
X98515714Y-111661428D02*
X97753809Y-111661428D01*
X98134761Y-112042380D02*
X98134761Y-111280476D01*
X96801428Y-111042380D02*
X97277619Y-111042380D01*
X97325238Y-111518571D01*
X97277619Y-111470952D01*
X97182380Y-111423333D01*
X96944285Y-111423333D01*
X96849047Y-111470952D01*
X96801428Y-111518571D01*
X96753809Y-111613809D01*
X96753809Y-111851904D01*
X96801428Y-111947142D01*
X96849047Y-111994761D01*
X96944285Y-112042380D01*
X97182380Y-112042380D01*
X97277619Y-111994761D01*
X97325238Y-111947142D01*
X96468095Y-111042380D02*
X96134761Y-112042380D01*
X95801428Y-111042380D01*
X84533095Y-120462380D02*
X84533095Y-119462380D01*
X84295000Y-119462380D01*
X84152142Y-119510000D01*
X84056904Y-119605238D01*
X84009285Y-119700476D01*
X83961666Y-119890952D01*
X83961666Y-120033809D01*
X84009285Y-120224285D01*
X84056904Y-120319523D01*
X84152142Y-120414761D01*
X84295000Y-120462380D01*
X84533095Y-120462380D01*
X83342619Y-119462380D02*
X83247380Y-119462380D01*
X83152142Y-119510000D01*
X83104523Y-119557619D01*
X83056904Y-119652857D01*
X83009285Y-119843333D01*
X83009285Y-120081428D01*
X83056904Y-120271904D01*
X83104523Y-120367142D01*
X83152142Y-120414761D01*
X83247380Y-120462380D01*
X83342619Y-120462380D01*
X83437857Y-120414761D01*
X83485476Y-120367142D01*
X83533095Y-120271904D01*
X83580714Y-120081428D01*
X83580714Y-119843333D01*
X83533095Y-119652857D01*
X83485476Y-119557619D01*
X83437857Y-119510000D01*
X83342619Y-119462380D01*
X83995000Y-116352380D02*
X84471190Y-116352380D01*
X84471190Y-115352380D01*
X83709285Y-116066666D02*
X83233095Y-116066666D01*
X83804523Y-116352380D02*
X83471190Y-115352380D01*
X83137857Y-116352380D01*
X82947380Y-115352380D02*
X82375952Y-115352380D01*
X82661666Y-116352380D02*
X82661666Y-115352380D01*
X84490238Y-112147142D02*
X84537857Y-112194761D01*
X84680714Y-112242380D01*
X84775952Y-112242380D01*
X84918809Y-112194761D01*
X85014047Y-112099523D01*
X85061666Y-112004285D01*
X85109285Y-111813809D01*
X85109285Y-111670952D01*
X85061666Y-111480476D01*
X85014047Y-111385238D01*
X84918809Y-111290000D01*
X84775952Y-111242380D01*
X84680714Y-111242380D01*
X84537857Y-111290000D01*
X84490238Y-111337619D01*
X83585476Y-112242380D02*
X84061666Y-112242380D01*
X84061666Y-111242380D01*
X83252142Y-112242380D02*
X83252142Y-111242380D01*
X82680714Y-112242380D02*
X83109285Y-111670952D01*
X82680714Y-111242380D02*
X83252142Y-111813809D01*
X84556904Y-106480000D02*
X84652142Y-106432380D01*
X84795000Y-106432380D01*
X84937857Y-106480000D01*
X85033095Y-106575238D01*
X85080714Y-106670476D01*
X85128333Y-106860952D01*
X85128333Y-107003809D01*
X85080714Y-107194285D01*
X85033095Y-107289523D01*
X84937857Y-107384761D01*
X84795000Y-107432380D01*
X84699761Y-107432380D01*
X84556904Y-107384761D01*
X84509285Y-107337142D01*
X84509285Y-107003809D01*
X84699761Y-107003809D01*
X84080714Y-107432380D02*
X84080714Y-106432380D01*
X83509285Y-107432380D01*
X83509285Y-106432380D01*
X83033095Y-107432380D02*
X83033095Y-106432380D01*
X82795000Y-106432380D01*
X82652142Y-106480000D01*
X82556904Y-106575238D01*
X82509285Y-106670476D01*
X82461666Y-106860952D01*
X82461666Y-107003809D01*
X82509285Y-107194285D01*
X82556904Y-107289523D01*
X82652142Y-107384761D01*
X82795000Y-107432380D01*
X83033095Y-107432380D01*
%TO.C,U6*%
X97368095Y-55592380D02*
X97368095Y-54592380D01*
X97130000Y-54592380D01*
X96987142Y-54640000D01*
X96891904Y-54735238D01*
X96844285Y-54830476D01*
X96796666Y-55020952D01*
X96796666Y-55163809D01*
X96844285Y-55354285D01*
X96891904Y-55449523D01*
X96987142Y-55544761D01*
X97130000Y-55592380D01*
X97368095Y-55592380D01*
X95939523Y-54925714D02*
X95939523Y-55592380D01*
X96177619Y-54544761D02*
X96415714Y-55259047D01*
X95796666Y-55259047D01*
X97468095Y-51782380D02*
X97468095Y-50782380D01*
X97230000Y-50782380D01*
X97087142Y-50830000D01*
X96991904Y-50925238D01*
X96944285Y-51020476D01*
X96896666Y-51210952D01*
X96896666Y-51353809D01*
X96944285Y-51544285D01*
X96991904Y-51639523D01*
X97087142Y-51734761D01*
X97230000Y-51782380D01*
X97468095Y-51782380D01*
X96563333Y-50782380D02*
X95944285Y-50782380D01*
X96277619Y-51163333D01*
X96134761Y-51163333D01*
X96039523Y-51210952D01*
X95991904Y-51258571D01*
X95944285Y-51353809D01*
X95944285Y-51591904D01*
X95991904Y-51687142D01*
X96039523Y-51734761D01*
X96134761Y-51782380D01*
X96420476Y-51782380D01*
X96515714Y-51734761D01*
X96563333Y-51687142D01*
X98515714Y-46891428D02*
X97753809Y-46891428D01*
X98134761Y-47272380D02*
X98134761Y-46510476D01*
X96801428Y-46272380D02*
X97277619Y-46272380D01*
X97325238Y-46748571D01*
X97277619Y-46700952D01*
X97182380Y-46653333D01*
X96944285Y-46653333D01*
X96849047Y-46700952D01*
X96801428Y-46748571D01*
X96753809Y-46843809D01*
X96753809Y-47081904D01*
X96801428Y-47177142D01*
X96849047Y-47224761D01*
X96944285Y-47272380D01*
X97182380Y-47272380D01*
X97277619Y-47224761D01*
X97325238Y-47177142D01*
X96468095Y-46272380D02*
X96134761Y-47272380D01*
X95801428Y-46272380D01*
X84533095Y-55692380D02*
X84533095Y-54692380D01*
X84295000Y-54692380D01*
X84152142Y-54740000D01*
X84056904Y-54835238D01*
X84009285Y-54930476D01*
X83961666Y-55120952D01*
X83961666Y-55263809D01*
X84009285Y-55454285D01*
X84056904Y-55549523D01*
X84152142Y-55644761D01*
X84295000Y-55692380D01*
X84533095Y-55692380D01*
X83342619Y-54692380D02*
X83247380Y-54692380D01*
X83152142Y-54740000D01*
X83104523Y-54787619D01*
X83056904Y-54882857D01*
X83009285Y-55073333D01*
X83009285Y-55311428D01*
X83056904Y-55501904D01*
X83104523Y-55597142D01*
X83152142Y-55644761D01*
X83247380Y-55692380D01*
X83342619Y-55692380D01*
X83437857Y-55644761D01*
X83485476Y-55597142D01*
X83533095Y-55501904D01*
X83580714Y-55311428D01*
X83580714Y-55073333D01*
X83533095Y-54882857D01*
X83485476Y-54787619D01*
X83437857Y-54740000D01*
X83342619Y-54692380D01*
X83995000Y-51582380D02*
X84471190Y-51582380D01*
X84471190Y-50582380D01*
X83709285Y-51296666D02*
X83233095Y-51296666D01*
X83804523Y-51582380D02*
X83471190Y-50582380D01*
X83137857Y-51582380D01*
X82947380Y-50582380D02*
X82375952Y-50582380D01*
X82661666Y-51582380D02*
X82661666Y-50582380D01*
X84490238Y-47377142D02*
X84537857Y-47424761D01*
X84680714Y-47472380D01*
X84775952Y-47472380D01*
X84918809Y-47424761D01*
X85014047Y-47329523D01*
X85061666Y-47234285D01*
X85109285Y-47043809D01*
X85109285Y-46900952D01*
X85061666Y-46710476D01*
X85014047Y-46615238D01*
X84918809Y-46520000D01*
X84775952Y-46472380D01*
X84680714Y-46472380D01*
X84537857Y-46520000D01*
X84490238Y-46567619D01*
X83585476Y-47472380D02*
X84061666Y-47472380D01*
X84061666Y-46472380D01*
X83252142Y-47472380D02*
X83252142Y-46472380D01*
X82680714Y-47472380D02*
X83109285Y-46900952D01*
X82680714Y-46472380D02*
X83252142Y-47043809D01*
X84556904Y-41710000D02*
X84652142Y-41662380D01*
X84795000Y-41662380D01*
X84937857Y-41710000D01*
X85033095Y-41805238D01*
X85080714Y-41900476D01*
X85128333Y-42090952D01*
X85128333Y-42233809D01*
X85080714Y-42424285D01*
X85033095Y-42519523D01*
X84937857Y-42614761D01*
X84795000Y-42662380D01*
X84699761Y-42662380D01*
X84556904Y-42614761D01*
X84509285Y-42567142D01*
X84509285Y-42233809D01*
X84699761Y-42233809D01*
X84080714Y-42662380D02*
X84080714Y-41662380D01*
X83509285Y-42662380D01*
X83509285Y-41662380D01*
X83033095Y-42662380D02*
X83033095Y-41662380D01*
X82795000Y-41662380D01*
X82652142Y-41710000D01*
X82556904Y-41805238D01*
X82509285Y-41900476D01*
X82461666Y-42090952D01*
X82461666Y-42233809D01*
X82509285Y-42424285D01*
X82556904Y-42519523D01*
X82652142Y-42614761D01*
X82795000Y-42662380D01*
X83033095Y-42662380D01*
%TO.C,P22*%
X129955000Y-52523095D02*
X129907380Y-52427857D01*
X129907380Y-52285000D01*
X129955000Y-52142142D01*
X130050238Y-52046904D01*
X130145476Y-51999285D01*
X130335952Y-51951666D01*
X130478809Y-51951666D01*
X130669285Y-51999285D01*
X130764523Y-52046904D01*
X130859761Y-52142142D01*
X130907380Y-52285000D01*
X130907380Y-52380238D01*
X130859761Y-52523095D01*
X130812142Y-52570714D01*
X130478809Y-52570714D01*
X130478809Y-52380238D01*
X130907380Y-52999285D02*
X129907380Y-52999285D01*
X130907380Y-53570714D01*
X129907380Y-53570714D01*
X130907380Y-54046904D02*
X129907380Y-54046904D01*
X129907380Y-54285000D01*
X129955000Y-54427857D01*
X130050238Y-54523095D01*
X130145476Y-54570714D01*
X130335952Y-54618333D01*
X130478809Y-54618333D01*
X130669285Y-54570714D01*
X130764523Y-54523095D01*
X130859761Y-54427857D01*
X130907380Y-54285000D01*
X130907380Y-54046904D01*
X126732380Y-52237380D02*
X125732380Y-52237380D01*
X125684761Y-53427857D02*
X126970476Y-52570714D01*
X125732380Y-53951666D02*
X125732380Y-54142142D01*
X125780000Y-54237380D01*
X125875238Y-54332619D01*
X126065714Y-54380238D01*
X126399047Y-54380238D01*
X126589523Y-54332619D01*
X126684761Y-54237380D01*
X126732380Y-54142142D01*
X126732380Y-53951666D01*
X126684761Y-53856428D01*
X126589523Y-53761190D01*
X126399047Y-53713571D01*
X126065714Y-53713571D01*
X125875238Y-53761190D01*
X125780000Y-53856428D01*
X125732380Y-53951666D01*
X122807380Y-52411904D02*
X121807380Y-52411904D01*
X121807380Y-52650000D01*
X121855000Y-52792857D01*
X121950238Y-52888095D01*
X122045476Y-52935714D01*
X122235952Y-52983333D01*
X122378809Y-52983333D01*
X122569285Y-52935714D01*
X122664523Y-52888095D01*
X122759761Y-52792857D01*
X122807380Y-52650000D01*
X122807380Y-52411904D01*
X122807380Y-53935714D02*
X122807380Y-53364285D01*
X122807380Y-53650000D02*
X121807380Y-53650000D01*
X121950238Y-53554761D01*
X122045476Y-53459523D01*
X122093095Y-53364285D01*
X116497380Y-52161904D02*
X115497380Y-52161904D01*
X115497380Y-52400000D01*
X115545000Y-52542857D01*
X115640238Y-52638095D01*
X115735476Y-52685714D01*
X115925952Y-52733333D01*
X116068809Y-52733333D01*
X116259285Y-52685714D01*
X116354523Y-52638095D01*
X116449761Y-52542857D01*
X116497380Y-52400000D01*
X116497380Y-52161904D01*
X115497380Y-53352380D02*
X115497380Y-53447619D01*
X115545000Y-53542857D01*
X115592619Y-53590476D01*
X115687857Y-53638095D01*
X115878333Y-53685714D01*
X116116428Y-53685714D01*
X116306904Y-53638095D01*
X116402142Y-53590476D01*
X116449761Y-53542857D01*
X116497380Y-53447619D01*
X116497380Y-53352380D01*
X116449761Y-53257142D01*
X116402142Y-53209523D01*
X116306904Y-53161904D01*
X116116428Y-53114285D01*
X115878333Y-53114285D01*
X115687857Y-53161904D01*
X115592619Y-53209523D01*
X115545000Y-53257142D01*
X115497380Y-53352380D01*
X112322380Y-52785000D02*
X112322380Y-52308809D01*
X111322380Y-52308809D01*
X112036666Y-53070714D02*
X112036666Y-53546904D01*
X112322380Y-52975476D02*
X111322380Y-53308809D01*
X112322380Y-53642142D01*
X111322380Y-53832619D02*
X111322380Y-54404047D01*
X112322380Y-54118333D02*
X111322380Y-54118333D01*
X108302142Y-52689761D02*
X108349761Y-52642142D01*
X108397380Y-52499285D01*
X108397380Y-52404047D01*
X108349761Y-52261190D01*
X108254523Y-52165952D01*
X108159285Y-52118333D01*
X107968809Y-52070714D01*
X107825952Y-52070714D01*
X107635476Y-52118333D01*
X107540238Y-52165952D01*
X107445000Y-52261190D01*
X107397380Y-52404047D01*
X107397380Y-52499285D01*
X107445000Y-52642142D01*
X107492619Y-52689761D01*
X108397380Y-53594523D02*
X108397380Y-53118333D01*
X107397380Y-53118333D01*
X108397380Y-53927857D02*
X107397380Y-53927857D01*
X108397380Y-54499285D02*
X107825952Y-54070714D01*
X107397380Y-54499285D02*
X107968809Y-53927857D01*
X104091428Y-52499285D02*
X104091428Y-53261190D01*
X104472380Y-52880238D02*
X103710476Y-52880238D01*
X103472380Y-54213571D02*
X103472380Y-53737380D01*
X103948571Y-53689761D01*
X103900952Y-53737380D01*
X103853333Y-53832619D01*
X103853333Y-54070714D01*
X103900952Y-54165952D01*
X103948571Y-54213571D01*
X104043809Y-54261190D01*
X104281904Y-54261190D01*
X104377142Y-54213571D01*
X104424761Y-54165952D01*
X104472380Y-54070714D01*
X104472380Y-53832619D01*
X104424761Y-53737380D01*
X104377142Y-53689761D01*
X103472380Y-54546904D02*
X104472380Y-54880238D01*
X103472380Y-55213571D01*
%TO.C,P12*%
X129305000Y-122816904D02*
X129352619Y-122912142D01*
X129352619Y-123055000D01*
X129305000Y-123197857D01*
X129209761Y-123293095D01*
X129114523Y-123340714D01*
X128924047Y-123388333D01*
X128781190Y-123388333D01*
X128590714Y-123340714D01*
X128495476Y-123293095D01*
X128400238Y-123197857D01*
X128352619Y-123055000D01*
X128352619Y-122959761D01*
X128400238Y-122816904D01*
X128447857Y-122769285D01*
X128781190Y-122769285D01*
X128781190Y-122959761D01*
X128352619Y-122340714D02*
X129352619Y-122340714D01*
X128352619Y-121769285D01*
X129352619Y-121769285D01*
X128352619Y-121293095D02*
X129352619Y-121293095D01*
X129352619Y-121055000D01*
X129305000Y-120912142D01*
X129209761Y-120816904D01*
X129114523Y-120769285D01*
X128924047Y-120721666D01*
X128781190Y-120721666D01*
X128590714Y-120769285D01*
X128495476Y-120816904D01*
X128400238Y-120912142D01*
X128352619Y-121055000D01*
X128352619Y-121293095D01*
X124177619Y-123102619D02*
X125177619Y-123102619D01*
X125225238Y-121912142D02*
X123939523Y-122769285D01*
X125177619Y-121388333D02*
X125177619Y-121197857D01*
X125130000Y-121102619D01*
X125034761Y-121007380D01*
X124844285Y-120959761D01*
X124510952Y-120959761D01*
X124320476Y-121007380D01*
X124225238Y-121102619D01*
X124177619Y-121197857D01*
X124177619Y-121388333D01*
X124225238Y-121483571D01*
X124320476Y-121578809D01*
X124510952Y-121626428D01*
X124844285Y-121626428D01*
X125034761Y-121578809D01*
X125130000Y-121483571D01*
X125177619Y-121388333D01*
X120252619Y-122658095D02*
X121252619Y-122658095D01*
X121252619Y-122420000D01*
X121205000Y-122277142D01*
X121109761Y-122181904D01*
X121014523Y-122134285D01*
X120824047Y-122086666D01*
X120681190Y-122086666D01*
X120490714Y-122134285D01*
X120395476Y-122181904D01*
X120300238Y-122277142D01*
X120252619Y-122420000D01*
X120252619Y-122658095D01*
X120252619Y-121134285D02*
X120252619Y-121705714D01*
X120252619Y-121420000D02*
X121252619Y-121420000D01*
X121109761Y-121515238D01*
X121014523Y-121610476D01*
X120966904Y-121705714D01*
X113942619Y-122408095D02*
X114942619Y-122408095D01*
X114942619Y-122170000D01*
X114895000Y-122027142D01*
X114799761Y-121931904D01*
X114704523Y-121884285D01*
X114514047Y-121836666D01*
X114371190Y-121836666D01*
X114180714Y-121884285D01*
X114085476Y-121931904D01*
X113990238Y-122027142D01*
X113942619Y-122170000D01*
X113942619Y-122408095D01*
X114942619Y-121217619D02*
X114942619Y-121122380D01*
X114895000Y-121027142D01*
X114847380Y-120979523D01*
X114752142Y-120931904D01*
X114561666Y-120884285D01*
X114323571Y-120884285D01*
X114133095Y-120931904D01*
X114037857Y-120979523D01*
X113990238Y-121027142D01*
X113942619Y-121122380D01*
X113942619Y-121217619D01*
X113990238Y-121312857D01*
X114037857Y-121360476D01*
X114133095Y-121408095D01*
X114323571Y-121455714D01*
X114561666Y-121455714D01*
X114752142Y-121408095D01*
X114847380Y-121360476D01*
X114895000Y-121312857D01*
X114942619Y-121217619D01*
X109767619Y-122555000D02*
X109767619Y-123031190D01*
X110767619Y-123031190D01*
X110053333Y-122269285D02*
X110053333Y-121793095D01*
X109767619Y-122364523D02*
X110767619Y-122031190D01*
X109767619Y-121697857D01*
X110767619Y-121507380D02*
X110767619Y-120935952D01*
X109767619Y-121221666D02*
X110767619Y-121221666D01*
X105937857Y-122650238D02*
X105890238Y-122697857D01*
X105842619Y-122840714D01*
X105842619Y-122935952D01*
X105890238Y-123078809D01*
X105985476Y-123174047D01*
X106080714Y-123221666D01*
X106271190Y-123269285D01*
X106414047Y-123269285D01*
X106604523Y-123221666D01*
X106699761Y-123174047D01*
X106795000Y-123078809D01*
X106842619Y-122935952D01*
X106842619Y-122840714D01*
X106795000Y-122697857D01*
X106747380Y-122650238D01*
X105842619Y-121745476D02*
X105842619Y-122221666D01*
X106842619Y-122221666D01*
X105842619Y-121412142D02*
X106842619Y-121412142D01*
X105842619Y-120840714D02*
X106414047Y-121269285D01*
X106842619Y-120840714D02*
X106271190Y-121412142D01*
X102298571Y-123840714D02*
X102298571Y-123078809D01*
X101917619Y-123459761D02*
X102679523Y-123459761D01*
X102917619Y-122126428D02*
X102917619Y-122602619D01*
X102441428Y-122650238D01*
X102489047Y-122602619D01*
X102536666Y-122507380D01*
X102536666Y-122269285D01*
X102489047Y-122174047D01*
X102441428Y-122126428D01*
X102346190Y-122078809D01*
X102108095Y-122078809D01*
X102012857Y-122126428D01*
X101965238Y-122174047D01*
X101917619Y-122269285D01*
X101917619Y-122507380D01*
X101965238Y-122602619D01*
X102012857Y-122650238D01*
X102917619Y-121793095D02*
X101917619Y-121459761D01*
X102917619Y-121126428D01*
%TO.C,U7*%
X85810000Y-122870000D02*
X85710000Y-104970000D01*
X94710000Y-122870000D02*
X85810000Y-122870000D01*
X94710000Y-108870000D02*
X94710000Y-122870000D01*
X89710000Y-104870000D02*
X94710000Y-108870000D01*
X85710000Y-104870000D02*
X89710000Y-104870000D01*
%TO.C,U6*%
X85810000Y-58100000D02*
X85710000Y-40200000D01*
X94710000Y-58100000D02*
X85810000Y-58100000D01*
X94710000Y-44100000D02*
X94710000Y-58100000D01*
X89710000Y-40100000D02*
X94710000Y-44100000D01*
X85710000Y-40100000D02*
X89710000Y-40100000D01*
%TD*%
M02*
