M48
; DRILL file {KiCad (5.99.0-1804-g711fc999f)} date 06/10/20 16:53:45
; FORMAT={-:-/ absolute / inch / decimal}
; #@! TF.CreationDate,2020-06-10T16:53:45-05:00
; #@! TF.GenerationSoftware,Kicad,Pcbnew,(5.99.0-1804-g711fc999f)
; #@! TF.FileFunction,Plated,1,2,PTH
FMAT,2
INCH
T1C0.0157
T2C0.0197
T3C0.0236
T4C0.0276
T5C0.0315
T6C0.0354
T7C0.0394
T8C0.0450
T9C0.0492
T10C0.0630
%
G90
G05
T1
X2.9792Y-3.743
X3.0555Y-3.7198
X3.0808Y-4.2442
X3.1221Y-4.2442
X3.2505Y-3.8875
X3.9517Y-3.1192
X4.0305Y-2.9929
X4.0367Y-3.3756
X4.1381Y-2.622
X4.1779Y-2.9082
X4.2186Y-4.037
X4.3203Y-2.975
X4.3986Y-3.0532
X4.4708Y-3.1
X4.9074Y-3.221
X4.9354Y-3.4171
X4.9609Y-3.1135
X4.9628Y-3.276
X4.9837Y-3.4496
X5.0923Y-4.0278
X5.1351Y-3.3013
X5.1518Y-3.1985
X5.4001Y-3.2703
X5.4246Y-3.125
X5.4513Y-3.2277
X5.5035Y-2.977
X5.5214Y-3.1109
X5.5259Y-3.1977
X5.6574Y-3.0092
X5.6952Y-3.3
X5.7151Y-3.3399
X5.7551Y-2.9403
X5.936Y-3.025
X2.7793Y-3.4082
X2.7793Y-3.4417
X2.7793Y-3.4751
X2.7793Y-3.5086
X2.7793Y-3.5421
X2.7793Y-3.5755
X2.7793Y-3.609
X2.7793Y-3.6425
X2.8324Y-3.4082
X2.8324Y-3.4417
X2.8324Y-3.4751
X2.8324Y-3.5086
X2.8324Y-3.5421
X2.8324Y-3.5755
X2.8324Y-3.609
X2.8324Y-3.6425
T2
X6.2Y-2.7531
X6.2Y-2.7925
X6.2Y-2.8319
X6.2Y-2.8713
X6.2Y-2.9106
X6.2Y-2.95
X6.25Y-3.6425
X6.25Y-3.6819
X6.25Y-3.7213
X6.25Y-3.7606
X6.25Y-3.8
X6.25Y-3.8394
T4
X2.7669Y-4.3141
X2.9669Y-4.3141
T5
X3.4Y-2.5
X3.4Y-2.6
X3.4Y-2.7
X3.4Y-2.8
X3.4Y-2.9
X3.4Y-3.0
X3.4Y-3.1
X3.4Y-3.2
X3.4Y-3.3
X3.4Y-3.4
X3.4Y-3.5
X3.4Y-3.6
X3.4Y-3.7
X3.4Y-3.8
X3.7Y-2.5
X3.7Y-2.6
X3.7Y-2.7
X3.7Y-2.8
X3.7Y-2.9
X3.7Y-3.0
X3.7Y-3.1
X3.7Y-3.2
X3.7Y-3.3
X3.7Y-3.4
X3.7Y-3.5
X3.7Y-3.6
X3.7Y-3.7
X3.7Y-3.8
X2.7677Y-4.4375
X2.9646Y-4.4375
X2.7188Y-3.9039
X2.7188Y-4.1008
X3.15Y-2.5571
X3.15Y-2.75
X2.8738Y-3.9047
X2.8738Y-4.1016
T6
X6.5Y-2.6713
X6.5Y-2.7713
X6.5Y-2.8713
X6.5Y-2.9713
X6.6Y-2.7213
X6.6Y-2.8213
X6.6Y-2.9213
X6.6Y-3.0213
X6.5Y-3.5213
X6.5Y-3.6213
X6.5Y-3.7213
X6.5Y-3.8213
X6.6Y-3.5713
X6.6Y-3.6713
X6.6Y-3.7713
X6.6Y-3.8713
X4.5Y-3.3
X4.6Y-3.3
X5.45Y-4.25
X5.5Y-4.15
X5.55Y-4.25
X5.6Y-4.15
X5.65Y-4.25
X5.7Y-4.15
X5.75Y-4.25
X5.8Y-4.15
X5.5Y-2.1
X5.55Y-2.0
X5.6Y-2.1
X5.65Y-2.0
X5.7Y-2.1
X5.75Y-2.0
X5.8Y-2.1
X5.85Y-2.0
X4.5Y-2.9
X4.6Y-2.9
X4.5Y-2.55
X4.6Y-2.55
T8
X2.65Y-3.0
X2.65Y-3.1
X2.65Y-3.2
X2.95Y-3.0
X2.95Y-3.2
T9
X4.0925Y-1.95
X4.25Y-1.95
X4.4075Y-1.95
X4.565Y-1.95
X4.8209Y-1.95
X4.9783Y-1.95
X5.1358Y-1.95
X4.0276Y-4.6575
X4.185Y-4.6575
X4.3425Y-4.6575
X4.5Y-4.6575
X4.7559Y-4.6575
X4.9134Y-4.6575
X5.0709Y-4.6575
X3.48Y-1.67
X3.48Y-1.84
X3.48Y-2.01
X3.48Y-2.18
X3.65Y-1.84
X3.65Y-2.01
X3.65Y-2.18
X3.48Y-4.22
X3.48Y-4.39
X3.48Y-4.56
X3.48Y-4.73
X3.65Y-4.39
X3.65Y-4.56
X3.65Y-4.73
T10
X6.9701Y-2.5404
X6.9701Y-3.1522
X6.9701Y-3.3904
X6.9701Y-4.0022
X5.3191Y-4.6201
X5.9309Y-4.6201
X5.3691Y-1.6299
X5.9809Y-1.6299
T3
G00X2.6765Y-3.3551
M15
G01X2.645Y-3.3551
M16
G05
G00X2.6765Y-3.6956
M15
G01X2.645Y-3.6956
M16
G05
G00X2.8233Y-3.3551
M15
G01X2.7643Y-3.3551
M16
G05
G00X2.8233Y-3.6956
M15
G01X2.7643Y-3.6956
M16
G05
T7
G00X2.9557Y-1.6406
M15
G01X2.9951Y-1.6406
M16
G05
G00X3.0345Y-1.7351
M15
G01X3.0738Y-1.7351
M16
G05
G00X3.0345Y-1.9516
M15
G01X3.0738Y-1.9516
M16
G05
T0
M30
